01-20 11:50:19.910  1677    42 I Unity   : UnityEngine.Logger:Log(LogType, Object)
01-20 11:50:20.074  1677    42 I Unity   : UnityEngine.XR.Tango.TangoInputTracking:.cctor()
01-20 11:50:19.910  1677    42 I Unity   : UnityEngine.Debug:Log(Object)
01-20 11:50:19.910  1677    42 I Unity   : UDPPacketIO:ReceivePacket(Byte[])
01-20 11:50:20.074  1677    42 I Unity   : UnityEngine.ImageConversion:LoadImage(Texture2D, Byte[])
01-20 11:50:19.910  1677    42 I Unity   : OSC:Read()
01-20 11:50:20.074  1677    42 I Unity   :  
01-20 11:50:20.074  1677    42 I Unity   : (Filename: C:/buildslave/unity/build\Runtime/Export/Debug.bindings.h Line: 43)
01-20 11:50:20.074  1677    42 I Unity   : 
01-20 11:50:19.910  1677    42 I Unity   : System.Threading.ThreadStart:Invoke()
01-20 11:50:20.085  1677    42 I Unity   : ReceivePacket!
01-20 11:50:19.910  1677    42 I Unity   : UnityEngine.ImageConversion:LoadImage(Texture2D, Byte[])
01-20 11:50:19.910  1677    42 I Unity   : UnityEngine.XR.Tango.TangoInputTracking:.cctor()
01-20 11:50:19.910  1677    42 I Unity   : UnityEngine.XR.Tango.TangoInputTracking:.cctor()
01-20 11:50:19.910  1677    42 I Unity   : UnityEngine.ImageConversion:LoadImage(Texture2D, Byte[])
01-20 11:50:19.910  1677    42 I Unity   : UnityEngine.ImageConversion:LoadImage(Texture2D, Byte[])
01-20 11:50:19.910  1677    42 I Unity   :  
01-20 11:50:19.910  1677    42 I Unity   : (Filename: C:/buildslave/unity/build\Runtime/Export/Debug.bindings.h Line: 43)
01-20 11:50:19.910  1677    42 I Unity   : 
01-20 11:50:19.921  1677    42 I Unity   : Count = 32
01-20 11:50:19.921  1677    42 I Unity   : System.Diagnostics.StackTrace:.ctor(Int32, Boolean)
01-20 11:50:19.921  1677    42 I Unity   : UnityEngine.StackTraceUtility:ExtractStackTrace()
01-20 11:50:19.921  1677    42 I Unity   : UnityEngine.XR.Tango.TangoInputTracking:.cctor()
01-20 11:50:20.085  1677    42 I Unity   : System.Diagnostics.StackTrace:.ctor(Int32, Boolean)
01-20 11:50:20.085  1677    42 I Unity   : UnityEngine.StackTraceUtility:ExtractStackTrace()
01-20 11:50:20.085  1677    42 I Unity   : UnityEngine.XR.Tango.TangoInputTracking:.cctor()
01-20 11:50:20.085  1677    42 I Unity   : UnityEngine.DebugLogHandler:Internal_Log(LogType, String, Object)
01-20 11:50:20.085  1677    42 I Unity   : UnityEngine.DebugLogHandler:LogFormat(LogType, Object, String, Object[])
01-20 11:50:20.085  1677    42 I Unity   : UnityEngine.Logger:Log(LogType, Object)
01-20 11:50:20.085  1677    42 I Unity   : UnityEngine.Debug:Log(Object)
01-20 11:50:20.085  1677    42 I Unity   : UDPPacketIO:ReceivePacket(Byte[])
01-20 11:50:20.085  1677    42 I Unity   : OSC:Read()
01-20 11:50:20.085  1677    42 I Unity   : System.Threading.ThreadStart:Invoke()
01-20 11:50:20.085  1677    42 I Unity   : UnityEngine.ImageConversion:LoadImage(Texture2D, Byte[])
01-20 11:50:20.085  1677    42 I Unity   : UnityEngine.XR.Tango.TangoInputTracking:.cctor()
01-20 11:50:20.085  1677    42 I Unity   : UnityEngine.XR.Tango.TangoInputTracking:.cctor()
01-20 11:50:19.921  1677    42 I Unity   : UnityEngine.ImageConversion:LoadImage(Texture2D, Byte[])
01-20 11:50:20.085  1677    42 I Unity   : UnityEngine.ImageConversion:LoadImage(Texture2D, Byte[])
01-20 11:50:20.085  1677    42 I Unity   :  
01-20 11:50:20.085  1677    42 I Unity   : (Filename: C:/buildslave/unity/build\Runtime/Export/Debug.bindings.h Line: 43)
01-20 11:50:20.085  1677    42 I Unity   : 
01-20 11:50:20.097  1677    42 I Unity   : True
01-20 11:50:20.097  1677    42 I Unity   : System.Diagnostics.StackTrace:.ctor(Int32, Boolean)
01-20 11:50:20.097  1677    42 I Unity   : UnityEngine.StackTraceUtility:ExtractStackTrace()
01-20 11:50:20.097  1677    42 I Unity   : UnityEngine.XR.Tango.TangoInputTracking:.cctor()
01-20 11:50:20.097  1677    42 I Unity   : UnityEngine.DebugLogHandler:Internal_Log(LogType, String, Object)
01-20 11:50:20.097  1677    42 I Unity   : UnityEngine.DebugLogHandler:LogFormat(LogType, Object, String, Object[])
01-20 11:50:20.097  1677    42 I Unity   : UnityEngine.Logger:Log(LogType, Object)
01-20 11:50:20.097  1677    42 I Unity   : UnityEngine.Debug:Log(Object)
01-20 11:50:20.097  1677    42 I Unity   : UDPPacketIO:ReceivePacket(Byte[])
01-20 11:50:20.097  1677    42 I Unity   : OSC:Read()
01-20 11:50:20.097  1677    42 I Unity   : System.Threading.ThreadStart:Invoke()
01-20 11:50:20.097  1677    42 I Unity   : UnityEngine.ImageConversion:LoadImage(Texture2D, Byte[])
01-20 11:50:20.097  1677    42 I Unity   : UnityEngine.XR.Tango.TangoInputTracking:.cctor()
01-20 11:50:20.097  1677    42 I Unity   : UnityEngine.XR.Tango.TangoInputTracking:.cctor()
01-20 11:50:20.097  1677    42 I Unity   : UnityEngine.ImageConversion:LoadImage(Texture2D, Byte[])
01-20 11:50:20.097  1677    42 I Unity   : UnityEngine.ImageConversion:LoadImage(Texture2D, Byte[])
01-20 11:50:20.097  1677    42 I Unity   :  
01-20 11:50:20.097  1677    42 I Unity   : (Filename: C:/buildslave/unity/build\Runtime/Export/Debug.bindings.h Line: 43)
01-20 11:50:20.097  1677    42 I Unity   : 
01-20 11:50:20.109  1677    42 I Unity   : Count = 48
01-20 11:50:20.109  1677    42 I Unity   : System.Diagnostics.StackTrace:.ctor(Int32, Boolean)
01-20 11:50:20.109  1677    42 I Unity   : UnityEngine.StackTraceUtility:ExtractStackTrace()
01-20 11:50:20.109  1677    42 I Unity   : UnityEngine.XR.Tango.TangoInputTracking:.cctor()
01-20 11:50:20.109  1677    42 I Unity   : UnityEngine.DebugLogHandler:Internal_Log(LogType, String, Object)
01-20 11:50:20.109  1677    42 I Unity   : UnityEngine.DebugLogHandler:LogFormat(LogType, Object, String, Object[])
01-20 11:50:20.109  1677    42 I Unity   : UnityEngine.Logger:Log(LogType, Object)
01-20 11:50:20.109  1677    42 I Unity   : UnityEngine.Debug:Log(Object)
01-20 11:50:20.109  1677    42 I Unity   : UDPPacketIO:ReceivePacket(Byte[])
01-20 11:50:20.109  1677    42 I Unity   : OSC:Read()
01-20 11:50:20.109  1677    42 I Unity   : System.Threading.ThreadStart:Invoke()
01-20 11:50:20.109  1677    42 I Unity   : UnityEngine.ImageConversion:LoadImage(Texture2D, Byte[])
01-20 11:50:20.109  1677    42 I Unity   : UnityEngine.XR.Tango.TangoInputTracking:.cctor()
01-20 11:50:20.109  1677    42 I Unity   : UnityEngine.XR.Tango.TangoInputTracking:.cctor()
01-20 11:50:20.109  1677    42 I Unity   : UnityEngine.ImageConversion:LoadImage(Texture2D, Byte[])
01-20 11:50:20.109  1677    42 I Unity   : UnityEngine.ImageConversion:LoadImage(Texture2D, Byte[])
01-20 11:50:20.109  1677    42 I Unity   :  
01-20 11:50:20.109  1677    42 I Unity   : (Filename: C:/buildslave/unity/build\Runtime/Export/Debug.bindings.h Line: 43)
01-20 11:50:20.109  1677    42 I Unity   : 
01-20 11:50:20.119  1677    42 I Unity   : Read 4
01-20 11:50:20.119  1677    42 I Unity   : System.Diagnostics.StackTrace:.ctor(Int32, Boolean)
01-20 11:50:20.119  1677    42 I Unity   : UnityEngine.StackTraceUtility:ExtractStackTrace()
01-20 11:50:20.119  1677    42 I Unity   : UnityEngine.XR.Tango.TangoInputTracking:.cctor()
01-20 11:50:20.119  1677    42 I Unity   : UnityEngine.DebugLogHandler:Internal_Log(LogType, String, Object)
01-20 11:50:20.119  1677    42 I Unity   : UnityEngine.DebugLogHandler:LogFormat(LogType, Object, String, Object[])
01-20 11:50:20.119  1677    42 I Unity   : UnityEngine.Logger:Log(LogType, Object)
01-20 11:50:20.119  1677    42 I Unity   : UnityEngine.Debug:Log(Object)
01-20 11:50:20.119  1677    42 I Unity   : OSC:Read()
01-20 11:50:20.119  1677    42 I Unity   : System.Threading.ThreadStart:Invoke()
01-20 11:50:19.921  1677    42 I Unity   :  
01-20 11:50:19.921  1677    42 I Unity   : (Filename: C:/buildslave/unity/build\Runtime/Export/Debug.bindings.h Line: 43)
01-20 11:50:19.921  1677    42 I Unity   : 
01-20 11:50:20.119  1677    42 I Unity   : UnityEngine.ImageConversion:LoadImage(Texture2D, Byte[])
01-20 11:50:19.931  1677    42 I Unity   : Read 4
01-20 11:50:19.931  1677    42 I Unity   : System.Diagnostics.StackTrace:.ctor(Int32, Boolean)
01-20 11:50:20.119  1677    42 I Unity   : (Filename: C:/buildslave/unity/build\Runtime/Export/Debug.bindings.h Line: 43)
01-20 11:50:19.931  1677    42 I Unity   : UnityEngine.StackTraceUtility:ExtractStackTrace()
01-20 11:50:20.119  1677    42 I Unity   : 
01-20 11:50:19.931  1677    42 I Unity   : UnityEngine.XR.Tango.TangoInputTracking:.cctor()
01-20 11:50:20.129  1677    42 I Unity   : System.Diagnostics.StackTrace:.ctor(Int32, Boolean)
01-20 11:50:20.129  1677    42 I Unity   : UnityEngine.StackTraceUtility:ExtractStackTrace()
01-20 11:50:19.931  1677    42 I Unity   : UnityEngine.DebugLogHandler:Internal_Log(LogType, String, Object)
01-20 11:50:19.931  1677    42 I Unity   : UnityEngine.DebugLogHandler:LogFormat(LogType, Object, String, Object[])
01-20 11:50:20.129  1677    42 I Unity   : UnityEngine.DebugLogHandler:LogFormat(LogType, Object, String, Object[])
01-20 11:50:20.129  1677    42 I Unity   : UnityEngine.Logger:Log(LogType, Object)
01-20 11:50:20.129  1677    42 I Unity   : UnityEngine.Debug:Log(Object)
01-20 11:50:20.129  1677    42 I Unity   : OSC:Read()
01-20 11:50:20.129  1677    42 I Unity   : System.Threading.ThreadStart:Invoke()
01-20 11:50:19.931  1677    42 I Unity   : OSC:Read()
01-20 11:50:20.129  1677    42 I Unity   : UnityEngine.XR.Tango.TangoInputTracking:.cctor()
01-20 11:50:20.129  1677    42 I Unity   : UnityEngine.XR.Tango.TangoInputTracking:.cctor()
01-20 11:50:20.129  1677    42 I Unity   : UnityEngine.ImageConversion:LoadImage(Texture2D, Byte[])
01-20 11:50:20.129  1677    42 I Unity   : UnityEngine.ImageConversion:LoadImage(Texture2D, Byte[])
01-20 11:50:20.129  1677    42 I Unity   :  
01-20 11:50:20.129  1677    42 I Unity   : (Filename: C:/buildslave/unity/build\Runtime/Export/Debug.bindings.h Line: 43)
01-20 11:50:20.129  1677    42 I Unity   : 
01-20 11:50:20.139  1677    42 I Unity   : Read 6
01-20 11:50:20.139  1677    42 I Unity   : System.Diagnostics.StackTrace:.ctor(Int32, Boolean)
01-20 11:50:20.139  1677    42 I Unity   : UnityEngine.StackTraceUtility:ExtractStackTrace()
01-20 11:50:19.931  1677    42 I Unity   : UnityEngine.ImageConversion:LoadImage(Texture2D, Byte[])
01-20 11:50:20.139  1677    42 I Unity   : UnityEngine.XR.Tango.TangoInputTracking:.cctor()
01-20 11:50:19.931  1677    42 I Unity   :  
01-20 11:50:20.139  1677    42 I Unity   : UnityEngine.DebugLogHandler:Internal_Log(LogType, String, Object)
01-20 11:50:19.931  1677    42 I Unity   : (Filename: C:/buildslave/unity/build\Runtime/Export/Debug.bindings.h Line: 43)
01-20 11:50:20.139  1677    42 I Unity   : UnityEngine.DebugLogHandler:LogFormat(LogType, Object, String, Object[])
01-20 11:50:19.931  1677    42 I Unity   : 
01-20 11:50:19.941  1677    42 I Unity   : Read 5
01-20 11:50:20.139  1677    42 I Unity   : UnityEngine.Logger:Log(LogType, Object)
01-20 11:50:19.941  1677    42 I Unity   : System.Diagnostics.StackTrace:.ctor(Int32, Boolean)
01-20 11:50:20.139  1677    42 I Unity   : UnityEngine.Debug:Log(Object)
01-20 11:50:20.139  1677    42 I Unity   : OSC:Read()
01-20 11:50:20.139  1677    42 I Unity   : System.Threading.ThreadStart:Invoke()
01-20 11:50:20.139  1677    42 I Unity   : UnityEngine.ImageConversion:LoadImage(Texture2D, Byte[])
01-20 11:50:20.139  1677    42 I Unity   : UnityEngine.XR.Tango.TangoInputTracking:.cctor()
