01-20 11:49:55.612  1677    42 I Unity   : Read 4
01-20 11:49:55.612  1677    42 I Unity   : System.Diagnostics.StackTrace:.ctor(Int32, Boolean)
01-20 11:49:55.612  1677    42 I Unity   : UnityEngine.StackTraceUtility:ExtractStackTrace()
01-20 11:49:55.612  1677    42 I Unity   : UnityEngine.XR.Tango.TangoInputTracking:.cctor()
01-20 11:49:55.612  1677    42 I Unity   : UnityEngine.DebugLogHandler:Internal_Log(LogType, String, Object)
01-20 11:49:55.612  1677    42 I Unity   : UnityEngine.DebugLogHandler:LogFormat(LogType, Object, String, Object[])
01-20 11:49:55.612  1677    42 I Unity   : UnityEngine.Logger:Log(LogType, Object)
01-20 11:49:55.612  1677    42 I Unity   : UnityEngine.Debug:Log(Object)
01-20 11:49:55.612  1677    42 I Unity   : OSC:Read()
01-20 11:49:55.612  1677    42 I Unity   : System.Threading.ThreadStart:Invoke()
01-20 11:49:55.612  1677    42 I Unity   : UnityEngine.ImageConversion:LoadImage(Texture2D, Byte[])
01-20 11:49:55.612  1677    42 I Unity   : UnityEngine.XR.Tango.TangoInputTracking:.cctor()
01-20 11:49:55.612  1677    42 I Unity   : UnityEngine.XR.Tango.TangoInputTracking:.cctor()
01-20 11:49:55.612  1677    42 I Unity   : UnityEngine.ImageConversion:LoadImage(Texture2D, Byte[])
01-20 11:49:55.612  1677    42 I Unity   : UnityEngine.ImageConversion:LoadImage(Texture2D, Byte[])
01-20 11:49:55.612  1677    42 I Unity   :  
01-20 11:49:55.612  1677    42 I Unity   : (Filename: C:/buildslave/unity/build\Runtime/Export/Debug.bindings.h Line: 43)
01-20 11:49:55.612  1677    42 I Unity   : 
01-20 11:49:55.624  1677    42 I Unity   : Read 5
01-20 11:49:55.624  1677    42 I Unity   : System.Diagnostics.StackTrace:.ctor(Int32, Boolean)
01-20 11:49:55.624  1677    42 I Unity   : UnityEngine.StackTraceUtility:ExtractStackTrace()
01-20 11:49:55.624  1677    42 I Unity   : UnityEngine.XR.Tango.TangoInputTracking:.cctor()
01-20 11:49:55.624  1677    42 I Unity   : UnityEngine.DebugLogHandler:Internal_Log(LogType, String, Object)
01-20 11:49:55.624  1677    42 I Unity   : UnityEngine.DebugLogHandler:LogFormat(LogType, Object, String, Object[])
01-20 11:49:55.624  1677    42 I Unity   : UnityEngine.Logger:Log(LogType, Object)
01-20 11:49:55.624  1677    42 I Unity   : UnityEngine.Debug:Log(Object)
01-20 11:49:55.624  1677    42 I Unity   : OSC:Read()
01-20 11:49:55.624  1677    42 I Unity   : System.Threading.ThreadStart:Invoke()
01-20 11:49:55.624  1677    42 I Unity   : UnityEngine.ImageConversion:LoadImage(Texture2D, Byte[])
01-20 11:49:55.624  1677    42 I Unity   : UnityEngine.XR.Tango.TangoInputTracking:.cctor()
01-20 11:49:55.624  1677    42 I Unity   : UnityEngine.XR.Tango.TangoInputTracking:.cctor()
01-20 11:49:55.624  1677    42 I Unity   : UnityEngine.ImageConversion:LoadImage(Texture2D, Byte[])
01-20 11:49:55.624  1677    42 I Unity   : UnityEngine.ImageConversion:LoadImage(Texture2D, Byte[])
01-20 11:49:55.624  1677    42 I Unity   :  
01-20 11:49:55.624  1677    42 I Unity   : (Filename: C:/buildslave/unity/build\Runtime/Export/Debug.bindings.h Line: 43)
01-20 11:49:55.624  1677    42 I Unity   : 
01-20 11:49:55.634  1677    42 I Unity   : Read 6
01-20 11:49:55.634  1677    42 I Unity   : System.Diagnostics.StackTrace:.ctor(Int32, Boolean)
01-20 11:49:55.634  1677    42 I Unity   : UnityEngine.StackTraceUtility:ExtractStackTrace()
01-20 11:49:55.634  1677    42 I Unity   : UnityEngine.XR.Tango.TangoInputTracking:.cctor()
01-20 11:49:55.634  1677    42 I Unity   : UnityEngine.DebugLogHandler:Internal_Log(LogType, String, Object)
01-20 11:49:55.634  1677    42 I Unity   : UnityEngine.DebugLogHandler:LogFormat(LogType, Object, String, Object[])
01-20 11:49:55.634  1677    42 I Unity   : UnityEngine.Logger:Log(LogType, Object)
01-20 11:49:55.634  1677    42 I Unity   : UnityEngine.Debug:Log(Object)
01-20 11:49:55.634  1677    42 I Unity   : OSC:Read()
01-20 11:49:55.634  1677    42 I Unity   : System.Threading.ThreadStart:Invoke()
01-20 11:49:55.634  1677    42 I Unity   : UnityEngine.ImageConversion:LoadImage(Texture2D, Byte[])
01-20 11:49:55.634  1677    42 I Unity   : UnityEngine.XR.Tango.TangoInputTracking:.cctor()
01-20 11:49:55.634  1677    42 I Unity   : UnityEngine.XR.Tango.TangoInputTracking:.cctor()
01-20 11:49:55.634  1677    42 I Unity   : UnityEngine.ImageConversion:LoadImage(Texture2D, Byte[])
01-20 11:49:55.634  1677    42 I Unity   : UnityEngine.ImageConversion:LoadImage(Texture2D, Byte[])
01-20 11:49:55.634  1677    42 I Unity   :  
01-20 11:49:55.634  1677    42 I Unity   : (Filename: C:/buildslave/unity/build\Runtime/Export/Debug.bindings.h Line: 43)
01-20 11:49:55.634  1677    42 I Unity   : 
01-20 11:49:55.644  1677    42 I Unity   : newMessages!
01-20 11:49:55.644  1677    42 I Unity   : System.Diagnostics.StackTrace:.ctor(Int32, Boolean)
01-20 11:49:55.644  1677    42 I Unity   : UnityEngine.StackTraceUtility:ExtractStackTrace()
01-20 11:49:55.644  1677    42 I Unity   : UnityEngine.XR.Tango.TangoInputTracking:.cctor()
01-20 11:49:55.644  1677    42 I Unity   : UnityEngine.DebugLogHandler:Internal_Log(LogType, String, Object)
01-20 11:49:55.644  1677    42 I Unity   : UnityEngine.DebugLogHandler:LogFormat(LogType, Object, String, Object[])
01-20 11:49:55.644  1677    42 I Unity   : UnityEngine.Logger:Log(LogType, Object)
01-20 11:49:55.644  1677    42 I Unity   : UnityEngine.Debug:Log(Object)
01-20 11:49:55.644  1677    42 I Unity   : OSC:Read()
01-20 11:49:55.644  1677    42 I Unity   : System.Threading.ThreadStart:Invoke()
01-20 11:49:55.644  1677    42 I Unity   : UnityEngine.ImageConversion:LoadImage(Texture2D, Byte[])
01-20 11:49:55.644  1677    42 I Unity   : UnityEngine.XR.Tango.TangoInputTracking:.cctor()
01-20 11:49:55.644  1677    42 I Unity   : UnityEngine.XR.Tango.TangoInputTracking:.cctor()
01-20 11:49:55.644  1677    42 I Unity   : UnityEngine.ImageConversion:LoadImage(Texture2D, Byte[])
01-20 11:49:55.644  1677    42 I Unity   : UnityEngine.ImageConversion:LoadImage(Texture2D, Byte[])
01-20 11:49:55.644  1677    42 I Unity   :  
01-20 11:49:55.644  1677    42 I Unity   : (Filename: C:/buildslave/unity/build\Runtime/Export/Debug.bindings.h Line: 43)
01-20 11:49:55.644  1677    42 I Unity   : 
01-20 11:49:55.656  1677    42 I Unity   : System.Collections.ArrayList
01-20 11:49:55.656  1677    42 I Unity   : System.Diagnostics.StackTrace:.ctor(Int32, Boolean)
01-20 11:49:55.656  1677    42 I Unity   : UnityEngine.StackTraceUtility:ExtractStackTrace()
01-20 11:49:55.656  1677    42 I Unity   : UnityEngine.XR.Tango.TangoInputTracking:.cctor()
01-20 11:49:55.656  1677    42 I Unity   : UnityEngine.DebugLogHandler:Internal_Log(LogType, String, Object)
01-20 11:49:55.656  1677    42 I Unity   : UnityEngine.DebugLogHandler:LogFormat(LogType, Object, String, Object[])
01-20 11:49:55.656  1677    42 I Unity   : UnityEngine.Logger:Log(LogType, Object)
01-20 11:49:55.656  1677    42 I Unity   : UnityEngine.Debug:Log(Object)
01-20 11:49:55.656  1677    42 I Unity   : OSC:Read()
01-20 11:49:55.656  1677    42 I Unity   : System.Threading.ThreadStart:Invoke()
01-20 11:49:55.656  1677    42 I Unity   : UnityEngine.ImageConversion:LoadImage(Texture2D, Byte[])
01-20 11:49:55.656  1677    42 I Unity   : UnityEngine.XR.Tango.TangoInputTracking:.cctor()
01-20 11:49:55.656  1677    42 I Unity   : UnityEngine.XR.Tango.TangoInputTracking:.cctor()
01-20 11:49:55.656  1677    42 I Unity   : UnityEngine.ImageConversion:LoadImage(Texture2D, Byte[])
01-20 11:49:55.656  1677    42 I Unity   : UnityEngine.ImageConversion:LoadImage(Texture2D, Byte[])
01-20 11:49:55.656  1677    42 I Unity   :  
01-20 11:49:55.656  1677    42 I Unity   : (Filename: C:/buildslave/unity/build\Runtime/Export/Debug.bindings.h Line: 43)
01-20 11:49:55.656  1677    42 I Unity   : 
01-20 11:49:55.665  1677    42 I Unity   : Read 3
01-20 11:49:55.665  1677    42 I Unity   : System.Diagnostics.StackTrace:.ctor(Int32, Boolean)
01-20 11:49:55.665  1677    42 I Unity   : UnityEngine.StackTraceUtility:ExtractStackTrace()
01-20 11:49:55.665  1677    42 I Unity   : UnityEngine.XR.Tango.TangoInputTracking:.cctor()
01-20 11:49:55.665  1677    42 I Unity   : UnityEngine.DebugLogHandler:Internal_Log(LogType, String, Object)
01-20 11:49:55.665  1677    42 I Unity   : UnityEngine.DebugLogHandler:LogFormat(LogType, Object, String, Object[])
01-20 11:49:55.665  1677    42 I Unity   : UnityEngine.Logger:Log(LogType, Object)
01-20 11:49:55.665  1677    42 I Unity   : UnityEngine.Debug:Log(Object)
01-20 11:49:55.665  1677    42 I Unity   : OSC:Read()
01-20 11:49:55.665  1677    42 I Unity   : System.Threading.ThreadStart:Invoke()
01-20 11:49:55.665  1677    42 I Unity   : UnityEngine.ImageConversion:LoadImage(Texture2D, Byte[])
01-20 11:49:55.665  1677    42 I Unity   : UnityEngine.XR.Tango.TangoInputTracking:.cctor()
01-20 11:49:55.665  1677    42 I Unity   : UnityEngine.XR.Tango.TangoInputTracking:.cctor()
01-20 11:49:55.665  1677    42 I Unity   : UnityEngine.ImageConversion:LoadImage(Texture2D, Byte[])
01-20 11:49:55.665  1677    42 I Unity   : UnityEngine.ImageConversion:LoadImage(Texture2D, Byte[])
01-20 11:49:55.665  1677    42 I Unity   :  
01-20 11:49:55.665  1677    42 I Unity   : (Filename: C:/buildslave/unity/build\Runtime/Export/Debug.bindings.h Line: 43)
01-20 11:49:55.665  1677    42 I Unity   : 
01-20 11:49:55.678  1677    42 I Unity   : ReceivePacket!
01-20 11:49:55.678  1677    42 I Unity   : System.Diagnostics.StackTrace:.ctor(Int32, Boolean)
01-20 11:49:55.678  1677    42 I Unity   : UnityEngine.StackTraceUtility:ExtractStackTrace()
01-20 11:49:55.678  1677    42 I Unity   : UnityEngine.XR.Tango.TangoInputTracking:.cctor()
01-20 11:49:55.678  1677    42 I Unity   : UnityEngine.DebugLogHandler:Internal_Log(LogType, String, Object)
01-20 11:49:55.678  1677    42 I Unity   : UnityEngine.DebugLogHandler:LogFormat(LogType, Object, String, Object[])
01-20 11:49:55.678  1677    42 I Unity   : UnityEngine.Logger:Log(LogType, Object)
01-20 11:49:55.678  1677    42 I Unity   : UnityEngine.Debug:Log(Object)
01-20 11:49:55.678  1677    42 I Unity   : UDPPacketIO:ReceivePacket(Byte[])
01-20 11:49:55.678  1677    42 I Unity   : OSC:Read()
01-20 11:49:55.678  1677    42 I Unity   : System.Threading.ThreadStart:Invoke()
01-20 11:49:55.678  1677    42 I Unity   : UnityEngine.ImageConversion:LoadImage(Texture2D, Byte[])
01-20 11:49:55.678  1677    42 I Unity   : UnityEngine.XR.Tango.TangoInputTracking:.cctor()
01-20 11:49:55.678  1677    42 I Unity   : UnityEngine.XR.Tango.TangoInputTracking:.cctor()
01-20 11:49:55.678  1677    42 I Unity   : UnityEngine.ImageConversion:LoadImage(Texture2D, Byte[])
01-20 11:49:55.678  1677    42 I Unity   : UnityEngine.ImageConversion:LoadImage(Texture2D, Byte[])
01-20 11:49:55.678  1677    42 I Unity   :  
01-20 11:49:55.678  1677    42 I Unity   : (Filename: C:/buildslave/unity/build\Runtime/Export/Debug.bindings.h Line: 43)
01-20 11:49:55.678  1677    42 I Unity   : 
01-20 11:49:55.690  1677    42 I Unity   : True
01-20 11:49:55.690  1677    42 I Unity   : System.Diagnostics.StackTrace:.ctor(Int32, Boolean)
01-20 11:49:55.690  1677    42 I Unity   : UnityEngine.StackTraceUtility:ExtractStackTrace()
01-20 11:49:55.690  1677    42 I Unity   : UnityEngine.XR.Tango.TangoInputTracking:.cctor()
01-20 11:49:55.690  1677    42 I Unity   : UnityEngine.DebugLogHandler:Internal_Log(LogType, String, Object)
01-20 11:49:55.690  1677    42 I Unity   : UnityEngine.DebugLogHandler:LogFormat(LogType, Object, String, Object[])
01-20 11:49:55.690  1677    42 I Unity   : UnityEngine.Logger:Log(LogType, Object)
01-20 11:49:55.690  1677    42 I Unity   : UnityEngine.Debug:Log(Object)
01-20 11:49:55.690  1677    42 I Unity   : UDPPacketIO:ReceivePacket(Byte[])
01-20 11:49:55.690  1677    42 I Unity   : OSC:Read()
01-20 11:49:55.690  1677    42 I Unity   : System.Threading.ThreadStart:Invoke()
01-20 11:49:55.690  1677    42 I Unity   : UnityEngine.ImageConversion:LoadImage(Texture2D, Byte[])
01-20 11:49:55.690  1677    42 I Unity   : UnityEngine.XR.Tango.TangoInputTracking:.cctor()
01-20 11:49:55.690  1677    42 I Unity   : UnityEngine.XR.Tango.TangoInputTracking:.cctor()
01-20 11:49:55.690  1677    42 I Unity   : UnityEngine.ImageConversion:LoadImage(Texture2D, Byte[])
01-20 11:49:55.690  1677    42 I Unity   : UnityEngine.ImageConversion:LoadImage(Texture2D, Byte[])
01-20 11:49:55.690  1677    42 I Unity   :  
01-20 11:49:55.690  1677    42 I Unity   : (Filename: C:/buildslave/unity/build\Runtime/Export/Debug.bindings.h Line: 43)
01-20 11:49:55.690  1677    42 I Unity   : 
01-20 11:49:55.701  1677    42 I Unity   : Count = 56
01-20 11:49:55.701  1677    42 I Unity   : System.Diagnostics.StackTrace:.ctor(Int32, Boolean)
01-20 11:49:55.701  1677    42 I Unity   : UnityEngine.StackTraceUtility:ExtractStackTrace()
01-20 11:49:55.701  1677    42 I Unity   : UnityEngine.XR.Tango.TangoInputTracking:.cctor()
01-20 11:49:55.701  1677    42 I Unity   : UnityEngine.DebugLogHandler:Internal_Log(LogType, String, Object)
01-20 11:49:55.701  1677    42 I Unity   : UnityEngine.DebugLogHandler:LogFormat(LogType, Object, String, Object[])
01-20 11:49:55.701  1677    42 I Unity   : UnityEngine.Logger:Log(LogType, Object)
01-20 11:49:55.701  1677    42 I Unity   : UnityEngine.Debug:Log(Object)
01-20 11:49:55.701  1677    42 I Unity   : UDPPacketIO:ReceivePacket(Byte[])
01-20 11:49:55.701  1677    42 I Unity   : OSC:Read()
01-20 11:49:55.701  1677    42 I Unity   : System.Threading.ThreadStart:Invoke()
01-20 11:49:55.701  1677    42 I Unity   : UnityEngine.ImageConversion:LoadImage(Texture2D, Byte[])
01-20 11:49:55.701  1677    42 I Unity   : UnityEngine.XR.Tango.TangoInputTracking:.cctor()
01-20 11:49:55.701  1677    42 I Unity   : UnityEngine.XR.Tango.TangoInputTracking:.cctor()
01-20 11:49:55.701  1677    42 I Unity   : UnityEngine.ImageConversion:LoadImage(Texture2D, Byte[])
01-20 11:49:55.701  1677    42 I Unity   : UnityEngine.ImageConversion:LoadImage(Texture2D, Byte[])
01-20 11:49:55.701  1677    42 I Unity   :  
01-20 11:49:55.701  1677    42 I Unity   : (Filename: C:/buildslave/unity/build\Runtime/Export/Debug.bindings.h Line: 43)
01-20 11:49:55.701  1677    42 I Unity   : 
01-20 11:49:55.712  1677    42 I Unity   : Read 4
01-20 11:49:55.712  1677    42 I Unity   : System.Diagnostics.StackTrace:.ctor(Int32, Boolean)
01-20 11:49:55.712  1677    42 I Unity   : UnityEngine.StackTraceUtility:ExtractStackTrace()
01-20 11:49:55.712  1677    42 I Unity   : UnityEngine.XR.Tango.TangoInputTracking:.cctor()
01-20 11:49:55.712  1677    42 I Unity   : UnityEngine.DebugLogHandler:Internal_Log(LogType, String, Object)
01-20 11:49:55.712  1677    42 I Unity   : UnityEngine.DebugLogHandler:LogFormat(LogType, Object, String, Object[])
01-20 11:49:55.712  1677    42 I Unity   : UnityEngine.Logger:Log(LogType, Object)
01-20 11:49:55.712  1677    42 I Unity   : UnityEngine.Debug:Log(Object)
01-20 11:49:55.712  1677    42 I Unity   : OSC:Read()
01-20 11:49:55.712  1677    42 I Unity   : System.Threading.ThreadStart:Invoke()
01-20 11:49:55.712  1677    42 I Unity   : UnityEngine.ImageConversion:LoadImage(Texture2D, Byte[])
01-20 11:49:55.712  1677    42 I Unity   : UnityEngine.XR.Tango.TangoInputTracking:.cctor()
01-20 11:49:55.712  1677    42 I Unity   : UnityEngine.XR.Tango.TangoInputTracking:.cctor()
01-20 11:49:55.712  1677    42 I Unity   : UnityEngine.ImageConversion:LoadImage(Texture2D, Byte[])
01-20 11:49:55.712  1677    42 I Unity   : UnityEngine.ImageConversion:LoadImage(Texture2D, Byte[])
01-20 11:49:55.712  1677    42 I Unity   :  
01-20 11:49:55.712  1677    42 I Unity   : (Filename: C:/buildslave/unity/build\Runtime/Export/Debug.bindings.h Line: 43)
01-20 11:49:55.712  1677    42 I Unity   : 
01-20 11:49:55.725  1677    42 I Unity   : Read 5
01-20 11:49:55.725  1677    42 I Unity   : System.Diagnostics.StackTrace:.ctor(Int32, Boolean)
01-20 11:49:55.725  1677    42 I Unity   : UnityEngine.StackTraceUtility:ExtractStackTrace()
01-20 11:49:55.725  1677    42 I Unity   : UnityEngine.XR.Tango.TangoInputTracking:.cctor()
01-20 11:49:55.725  1677    42 I Unity   : UnityEngine.DebugLogHandler:Internal_Log(LogType, String, Object)
01-20 11:49:55.725  1677    42 I Unity   : UnityEngine.DebugLogHandler:LogFormat(LogType, Object, String, Object[])
01-20 11:49:55.725  1677    42 I Unity   : UnityEngine.Logger:Log(LogType, Object)
01-20 11:49:55.725  1677    42 I Unity   : UnityEngine.Debug:Log(Object)
01-20 11:49:55.725  1677    42 I Unity   : OSC:Read()
01-20 11:49:55.725  1677    42 I Unity   : System.Threading.ThreadStart:Invoke()
01-20 11:49:55.725  1677    42 I Unity   : UnityEngine.ImageConversion:LoadImage(Texture2D, Byte[])
01-20 11:49:55.725  1677    42 I Unity   : UnityEngine.XR.Tango.TangoInputTracking:.cctor()
01-20 11:49:55.725  1677    42 I Unity   : UnityEngine.XR.Tango.TangoInputTracking:.cctor()
01-20 11:49:55.725  1677    42 I Unity   : UnityEngine.ImageConversion:LoadImage(Texture2D, Byte[])
01-20 11:49:55.725  1677    42 I Unity   : UnityEngine.ImageConversion:LoadImage(Texture2D, Byte[])
01-20 11:49:55.725  1677    42 I Unity   :  
01-20 11:49:55.725  1677    42 I Unity   : (Filename: C:/buildslave/unity/build\Runtime/Export/Debug.bindings.h Line: 43)
01-20 11:49:55.725  1677    42 I Unity   : 
01-20 11:49:55.735  1677    42 I Unity   : Read 6
01-20 11:49:55.735  1677    42 I Unity   : System.Diagnostics.StackTrace:.ctor(Int32, Boolean)
01-20 11:49:55.735  1677    42 I Unity   : UnityEngine.StackTraceUtility:ExtractStackTrace()
01-20 11:49:55.735  1677    42 I Unity   : UnityEngine.XR.Tango.TangoInputTracking:.cctor()
01-20 11:49:55.735  1677    42 I Unity   : UnityEngine.DebugLogHandler:Internal_Log(LogType, String, Object)
01-20 11:49:55.735  1677    42 I Unity   : UnityEngine.DebugLogHandler:LogFormat(LogType, Object, String, Object[])
01-20 11:49:55.735  1677    42 I Unity   : UnityEngine.Logger:Log(LogType, Object)
01-20 11:49:55.735  1677    42 I Unity   : UnityEngine.Debug:Log(Object)
01-20 11:49:55.735  1677    42 I Unity   : OSC:Read()
01-20 11:49:55.735  1677    42 I Unity   : System.Threading.ThreadStart:Invoke()
01-20 11:49:55.735  1677    42 I Unity   : UnityEngine.ImageConversion:LoadImage(Texture2D, Byte[])
01-20 11:49:55.735  1677    42 I Unity   : UnityEngine.XR.Tango.TangoInputTracking:.cctor()
01-20 11:49:55.735  1677    42 I Unity   : UnityEngine.XR.Tango.TangoInputTracking:.cctor()
01-20 11:49:55.735  1677    42 I Unity   : UnityEngine.ImageConversion:LoadImage(Texture2D, Byte[])
01-20 11:49:55.735  1677    42 I Unity   : UnityEngine.ImageConversion:LoadImage(Texture2D, Byte[])
01-20 11:49:55.735  1677    42 I Unity   :  
01-20 11:49:55.735  1677    42 I Unity   : (Filename: C:/buildslave/unity/build\Runtime/Export/Debug.bindings.h Line: 43)
01-20 11:49:55.735  1677    42 I Unity   : 
01-20 11:49:55.746  1677    42 I Unity   : newMessages!
01-20 11:49:55.746  1677    42 I Unity   : System.Diagnostics.StackTrace:.ctor(Int32, Boolean)
01-20 11:49:55.746  1677    42 I Unity   : UnityEngine.StackTraceUtility:ExtractStackTrace()
01-20 11:49:55.746  1677    42 I Unity   : UnityEngine.XR.Tango.TangoInputTracking:.cctor()
01-20 11:49:55.746  1677    42 I Unity   : UnityEngine.DebugLogHandler:Internal_Log(LogType, String, Object)
01-20 11:49:55.746  1677    42 I Unity   : UnityEngine.DebugLogHandler:LogFormat(LogType, Object, String, Object[])
01-20 11:49:55.746  1677    42 I Unity   : UnityEngine.Logger:Log(LogType, Object)
01-20 11:49:55.746  1677    42 I Unity   : UnityEngine.Debug:Log(Object)
01-20 11:49:55.746  1677    42 I Unity   : OSC:Read()
01-20 11:49:55.746  1677    42 I Unity   : System.Threading.ThreadStart:Invoke()
01-20 11:49:55.746  1677    42 I Unity   : UnityEngine.ImageConversion:LoadImage(Texture2D, Byte[])
01-20 11:49:55.746  1677    42 I Unity   : UnityEngine.XR.Tango.TangoInputTracking:.cctor()
01-20 11:49:55.746  1677    42 I Unity   : UnityEngine.XR.Tango.TangoInputTracking:.cctor()
01-20 11:49:55.746  1677    42 I Unity   : UnityEngine.ImageConversion:LoadImage(Texture2D, Byte[])
01-20 11:49:55.746  1677    42 I Unity   : UnityEngine.ImageConversion:LoadImage(Texture2D, Byte[])
01-20 11:49:55.746  1677    42 I Unity   :  
01-20 11:49:55.746  1677    42 I Unity   : (Filename: C:/buildslave/unity/build\Runtime/Export/Debug.bindings.h Line: 43)
01-20 11:49:55.746  1677    42 I Unity   : 
01-20 11:49:55.757  1677    42 I Unity   : System.Collections.ArrayList
01-20 11:49:55.757  1677    42 I Unity   : System.Diagnostics.StackTrace:.ctor(Int32, Boolean)
01-20 11:49:55.757  1677    42 I Unity   : UnityEngine.StackTraceUtility:ExtractStackTrace()
01-20 11:49:55.757  1677    42 I Unity   : UnityEngine.XR.Tango.TangoInputTracking:.cctor()
01-20 11:49:55.757  1677    42 I Unity   : UnityEngine.DebugLogHandler:Internal_Log(LogType, String, Object)
01-20 11:49:55.757  1677    42 I Unity   : UnityEngine.DebugLogHandler:LogFormat(LogType, Object, String, Object[])
01-20 11:49:55.757  1677    42 I Unity   : UnityEngine.Logger:Log(LogType, Object)
01-20 11:49:55.757  1677    42 I Unity   : UnityEngine.Debug:Log(Object)
01-20 11:49:55.757  1677    42 I Unity   : OSC:Read()
01-20 11:49:55.757  1677    42 I Unity   : System.Threading.ThreadStart:Invoke()
01-20 11:49:55.757  1677    42 I Unity   : UnityEngine.ImageConversion:LoadImage(Texture2D, Byte[])
01-20 11:49:55.757  1677    42 I Unity   : UnityEngine.XR.Tango.TangoInputTracking:.cctor()
01-20 11:49:55.757  1677    42 I Unity   : UnityEngine.XR.Tango.TangoInputTracking:.cctor()
01-20 11:49:55.757  1677    42 I Unity   : UnityEngine.ImageConversion:LoadImage(Texture2D, Byte[])
01-20 11:49:55.757  1677    42 I Unity   : UnityEngine.ImageConversion:LoadImage(Texture2D, Byte[])
01-20 11:49:55.757  1677    42 I Unity   :  
01-20 11:49:55.757  1677    42 I Unity   : (Filename: C:/buildslave/unity/build\Runtime/Export/Debug.bindings.h Line: 43)
01-20 11:49:55.757  1677    42 I Unity   : 
01-20 11:49:55.767  1677    42 I Unity   : Read 3
01-20 11:49:55.767  1677    42 I Unity   : System.Diagnostics.StackTrace:.ctor(Int32, Boolean)
01-20 11:49:55.767  1677    42 I Unity   : UnityEngine.StackTraceUtility:ExtractStackTrace()
01-20 11:49:55.767  1677    42 I Unity   : UnityEngine.XR.Tango.TangoInputTracking:.cctor()
01-20 11:49:55.767  1677    42 I Unity   : UnityEngine.DebugLogHandler:Internal_Log(LogType, String, Object)
01-20 11:49:55.767  1677    42 I Unity   : UnityEngine.DebugLogHandler:LogFormat(LogType, Object, String, Object[])
01-20 11:49:55.767  1677    42 I Unity   : UnityEngine.Logger:Log(LogType, Object)
01-20 11:49:55.767  1677    42 I Unity   : UnityEngine.Debug:Log(Object)
01-20 11:49:55.767  1677    42 I Unity   : OSC:Read()
01-20 11:49:55.767  1677    42 I Unity   : System.Threading.ThreadStart:Invoke()
01-20 11:49:55.767  1677    42 I Unity   : UnityEngine.ImageConversion:LoadImage(Texture2D, Byte[])
01-20 11:49:55.767  1677    42 I Unity   : UnityEngine.XR.Tango.TangoInputTracking:.cctor()
01-20 11:49:55.767  1677    42 I Unity   : UnityEngine.XR.Tango.TangoInputTracking:.cctor()
01-20 11:49:55.767  1677    42 I Unity   : UnityEngine.ImageConversion:LoadImage(Texture2D, Byte[])
01-20 11:49:55.767  1677    42 I Unity   : UnityEngine.ImageConversion:LoadImage(Texture2D, Byte[])
01-20 11:49:55.767  1677    42 I Unity   :  
01-20 11:49:55.767  1677    42 I Unity   : (Filename: C:/buildslave/unity/build\Runtime/Export/Debug.bindings.h Line: 43)
01-20 11:49:55.767  1677    42 I Unity   : 
01-20 11:49:55.779  1677    42 I Unity   : ReceivePacket!
01-20 11:49:55.779  1677    42 I Unity   : System.Diagnostics.StackTrace:.ctor(Int32, Boolean)
01-20 11:49:55.779  1677    42 I Unity   : UnityEngine.StackTraceUtility:ExtractStackTrace()
01-20 11:49:55.779  1677    42 I Unity   : UnityEngine.XR.Tango.TangoInputTracking:.cctor()
01-20 11:49:55.779  1677    42 I Unity   : UnityEngine.DebugLogHandler:Internal_Log(LogType, String, Object)
01-20 11:49:55.779  1677    42 I Unity   : UnityEngine.DebugLogHandler:LogFormat(LogType, Object, String, Object[])
01-20 11:49:55.779  1677    42 I Unity   : UnityEngine.Logger:Log(LogType, Object)
01-20 11:49:55.779  1677    42 I Unity   : UnityEngine.Debug:Log(Object)
01-20 11:49:55.779  1677    42 I Unity   : UDPPacketIO:ReceivePacket(Byte[])
01-20 11:49:55.779  1677    42 I Unity   : OSC:Read()
01-20 11:49:55.779  1677    42 I Unity   : System.Threading.ThreadStart:Invoke()
01-20 11:49:55.779  1677    42 I Unity   : UnityEngine.ImageConversion:LoadImage(Texture2D, Byte[])
01-20 11:49:55.779  1677    42 I Unity   : UnityEngine.XR.Tango.TangoInputTracking:.cctor()
01-20 11:49:55.779  1677    42 I Unity   : UnityEngine.XR.Tango.TangoInputTracking:.cctor()
01-20 11:49:55.779  1677    42 I Unity   : UnityEngine.ImageConversion:LoadImage(Texture2D, Byte[])
01-20 11:49:55.779  1677    42 I Unity   : UnityEngine.ImageConversion:LoadImage(Texture2D, Byte[])
01-20 11:49:55.779  1677    42 I Unity   :  
01-20 11:49:55.779  1677    42 I Unity   : (Filename: C:/buildslave/unity/build\Runtime/Export/Debug.bindings.h Line: 43)
01-20 11:49:55.779  1677    42 I Unity   : 
01-20 11:49:55.791  1677    42 I Unity   : True
01-20 11:49:55.791  1677    42 I Unity   : System.Diagnostics.StackTrace:.ctor(Int32, Boolean)
01-20 11:49:55.791  1677    42 I Unity   : UnityEngine.StackTraceUtility:ExtractStackTrace()
01-20 11:49:55.791  1677    42 I Unity   : UnityEngine.XR.Tango.TangoInputTracking:.cctor()
01-20 11:49:55.791  1677    42 I Unity   : UnityEngine.DebugLogHandler:Internal_Log(LogType, String, Object)
01-20 11:49:55.791  1677    42 I Unity   : UnityEngine.DebugLogHandler:LogFormat(LogType, Object, String, Object[])
01-20 11:49:55.791  1677    42 I Unity   : UnityEngine.Logger:Log(LogType, Object)
01-20 11:49:55.791  1677    42 I Unity   : UnityEngine.Debug:Log(Object)
01-20 11:49:55.791  1677    42 I Unity   : UDPPacketIO:ReceivePacket(Byte[])
01-20 11:49:55.791  1677    42 I Unity   : OSC:Read()
01-20 11:49:55.791  1677    42 I Unity   : System.Threading.ThreadStart:Invoke()
01-20 11:49:55.791  1677    42 I Unity   : UnityEngine.ImageConversion:LoadImage(Texture2D, Byte[])
01-20 11:49:55.791  1677    42 I Unity   : UnityEngine.XR.Tango.TangoInputTracking:.cctor()
01-20 11:49:55.791  1677    42 I Unity   : UnityEngine.XR.Tango.TangoInputTracking:.cctor()
01-20 11:49:55.791  1677    42 I Unity   : UnityEngine.ImageConversion:LoadImage(Texture2D, Byte[])
01-20 11:49:55.791  1677    42 I Unity   : UnityEngine.ImageConversion:LoadImage(Texture2D, Byte[])
01-20 11:49:55.791  1677    42 I Unity   :  
01-20 11:49:55.791  1677    42 I Unity   : (Filename: C:/buildslave/unity/build\Runtime/Export/Debug.bindings.h Line: 43)
01-20 11:49:55.791  1677    42 I Unity   : 
01-20 11:49:55.802  1677    42 I Unity   : Count = 56
01-20 11:49:55.802  1677    42 I Unity   : System.Diagnostics.StackTrace:.ctor(Int32, Boolean)
01-20 11:49:55.802  1677    42 I Unity   : UnityEngine.StackTraceUtility:ExtractStackTrace()
01-20 11:49:55.802  1677    42 I Unity   : UnityEngine.XR.Tango.TangoInputTracking:.cctor()
01-20 11:49:55.802  1677    42 I Unity   : UnityEngine.DebugLogHandler:Internal_Log(LogType, String, Object)
01-20 11:49:55.802  1677    42 I Unity   : UnityEngine.DebugLogHandler:LogFormat(LogType, Object, String, Object[])
01-20 11:49:55.802  1677    42 I Unity   : UnityEngine.Logger:Log(LogType, Object)
01-20 11:49:55.802  1677    42 I Unity   : UnityEngine.Debug:Log(Object)
01-20 11:49:55.802  1677    42 I Unity   : UDPPacketIO:ReceivePacket(Byte[])
01-20 11:49:55.802  1677    42 I Unity   : OSC:Read()
01-20 11:49:55.802  1677    42 I Unity   : System.Threading.ThreadStart:Invoke()
01-20 11:49:55.802  1677    42 I Unity   : UnityEngine.ImageConversion:LoadImage(Texture2D, Byte[])
01-20 11:49:55.802  1677    42 I Unity   : UnityEngine.XR.Tango.TangoInputTracking:.cctor()
01-20 11:49:55.802  1677    42 I Unity   : UnityEngine.XR.Tango.TangoInputTracking:.cctor()
01-20 11:49:55.802  1677    42 I Unity   : UnityEngine.ImageConversion:LoadImage(Texture2D, Byte[])
01-20 11:49:55.802  1677    42 I Unity   : UnityEngine.ImageConversion:LoadImage(Texture2D, Byte[])
01-20 11:49:55.802  1677    42 I Unity   :  
01-20 11:49:55.802  1677    42 I Unity   : (Filename: C:/buildslave/unity/build\Runtime/Export/Debug.bindings.h Line: 43)
01-20 11:49:55.802  1677    42 I Unity   : 
01-20 11:49:55.813  1677    42 I Unity   : Read 4
01-20 11:49:55.813  1677    42 I Unity   : System.Diagnostics.StackTrace:.ctor(Int32, Boolean)
01-20 11:49:55.813  1677    42 I Unity   : UnityEngine.StackTraceUtility:ExtractStackTrace()
01-20 11:49:55.813  1677    42 I Unity   : UnityEngine.XR.Tango.TangoInputTracking:.cctor()
01-20 11:49:55.813  1677    42 I Unity   : UnityEngine.DebugLogHandler:Internal_Log(LogType, String, Object)
01-20 11:49:55.813  1677    42 I Unity   : UnityEngine.DebugLogHandler:LogFormat(LogType, Object, String, Object[])
01-20 11:49:55.813  1677    42 I Unity   : UnityEngine.Logger:Log(LogType, Object)
01-20 11:49:55.813  1677    42 I Unity   : UnityEngine.Debug:Log(Object)
01-20 11:49:55.813  1677    42 I Unity   : OSC:Read()
01-20 11:49:55.813  1677    42 I Unity   : System.Threading.ThreadStart:Invoke()
01-20 11:49:55.813  1677    42 I Unity   : UnityEngine.ImageConversion:LoadImage(Texture2D, Byte[])
01-20 11:49:55.813  1677    42 I Unity   : UnityEngine.XR.Tango.TangoInputTracking:.cctor()
01-20 11:49:55.813  1677    42 I Unity   : UnityEngine.XR.Tango.TangoInputTracking:.cctor()
01-20 11:49:55.813  1677    42 I Unity   : UnityEngine.ImageConversion:LoadImage(Texture2D, Byte[])
01-20 11:49:55.813  1677    42 I Unity   : UnityEngine.ImageConversion:LoadImage(Texture2D, Byte[])
01-20 11:49:55.813  1677    42 I Unity   :  
01-20 11:49:55.813  1677    42 I Unity   : (Filename: C:/buildslave/unity/build\Runtime/Export/Debug.bindings.h Line: 43)
01-20 11:49:55.813  1677    42 I Unity   : 
01-20 11:49:55.824  1677    42 I Unity   : Read 5
01-20 11:49:55.824  1677    42 I Unity   : System.Diagnostics.StackTrace:.ctor(Int32, Boolean)
01-20 11:49:55.824  1677    42 I Unity   : UnityEngine.StackTraceUtility:ExtractStackTrace()
01-20 11:49:55.824  1677    42 I Unity   : UnityEngine.XR.Tango.TangoInputTracking:.cctor()
01-20 11:49:55.824  1677    42 I Unity   : UnityEngine.DebugLogHandler:Internal_Log(LogType, String, Object)
01-20 11:49:55.824  1677    42 I Unity   : UnityEngine.DebugLogHandler:LogFormat(LogType, Object, String, Object[])
01-20 11:49:55.824  1677    42 I Unity   : UnityEngine.Logger:Log(LogType, Object)
01-20 11:49:55.824  1677    42 I Unity   : UnityEngine.Debug:Log(Object)
01-20 11:49:55.824  1677    42 I Unity   : OSC:Read()
01-20 11:49:55.824  1677    42 I Unity   : System.Threading.ThreadStart:Invoke()
01-20 11:49:55.824  1677    42 I Unity   : UnityEngine.ImageConversion:LoadImage(Texture2D, Byte[])
01-20 11:49:55.824  1677    42 I Unity   : UnityEngine.XR.Tango.TangoInputTracking:.cctor()
01-20 11:49:55.824  1677    42 I Unity   : UnityEngine.XR.Tango.TangoInputTracking:.cctor()
01-20 11:49:55.824  1677    42 I Unity   : UnityEngine.ImageConversion:LoadImage(Texture2D, Byte[])
01-20 11:49:55.824  1677    42 I Unity   : UnityEngine.ImageConversion:LoadImage(Texture2D, Byte[])
01-20 11:49:55.824  1677    42 I Unity   :  
01-20 11:49:55.824  1677    42 I Unity   : (Filename: C:/buildslave/unity/build\Runtime/Export/Debug.bindings.h Line: 43)
01-20 11:49:55.824  1677    42 I Unity   : 
01-20 11:49:55.835  1677    42 I Unity   : Read 6
01-20 11:49:55.835  1677    42 I Unity   : System.Diagnostics.StackTrace:.ctor(Int32, Boolean)
01-20 11:49:55.835  1677    42 I Unity   : UnityEngine.StackTraceUtility:ExtractStackTrace()
01-20 11:49:55.835  1677    42 I Unity   : UnityEngine.XR.Tango.TangoInputTracking:.cctor()
01-20 11:49:55.835  1677    42 I Unity   : UnityEngine.DebugLogHandler:Internal_Log(LogType, String, Object)
01-20 11:49:55.835  1677    42 I Unity   : UnityEngine.DebugLogHandler:LogFormat(LogType, Object, String, Object[])
01-20 11:49:55.835  1677    42 I Unity   : UnityEngine.Logger:Log(LogType, Object)
01-20 11:49:55.835  1677    42 I Unity   : UnityEngine.Debug:Log(Object)
01-20 11:49:55.835  1677    42 I Unity   : OSC:Read()
01-20 11:49:55.835  1677    42 I Unity   : System.Threading.ThreadStart:Invoke()
01-20 11:49:55.835  1677    42 I Unity   : UnityEngine.ImageConversion:LoadImage(Texture2D, Byte[])
01-20 11:49:55.835  1677    42 I Unity   : UnityEngine.XR.Tango.TangoInputTracking:.cctor()
01-20 11:49:55.835  1677    42 I Unity   : UnityEngine.XR.Tango.TangoInputTracking:.cctor()
01-20 11:49:55.835  1677    42 I Unity   : UnityEngine.ImageConversion:LoadImage(Texture2D, Byte[])
01-20 11:49:55.835  1677    42 I Unity   : UnityEngine.ImageConversion:LoadImage(Texture2D, Byte[])
01-20 11:49:55.835  1677    42 I Unity   :  
01-20 11:49:55.835  1677    42 I Unity   : (Filename: C:/buildslave/unity/build\Runtime/Export/Debug.bindings.h Line: 43)
01-20 11:49:55.835  1677    42 I Unity   : 
01-20 11:49:55.846  1677    42 I Unity   : newMessages!
01-20 11:49:55.846  1677    42 I Unity   : System.Diagnostics.StackTrace:.ctor(Int32, Boolean)
01-20 11:49:55.846  1677    42 I Unity   : UnityEngine.StackTraceUtility:ExtractStackTrace()
01-20 11:49:55.846  1677    42 I Unity   : UnityEngine.XR.Tango.TangoInputTracking:.cctor()
01-20 11:49:55.846  1677    42 I Unity   : UnityEngine.DebugLogHandler:Internal_Log(LogType, String, Object)
01-20 11:49:55.846  1677    42 I Unity   : UnityEngine.DebugLogHandler:LogFormat(LogType, Object, String, Object[])
01-20 11:49:55.846  1677    42 I Unity   : UnityEngine.Logger:Log(LogType, Object)
01-20 11:49:55.846  1677    42 I Unity   : UnityEngine.Debug:Log(Object)
01-20 11:49:55.846  1677    42 I Unity   : OSC:Read()
01-20 11:49:55.846  1677    42 I Unity   : System.Threading.ThreadStart:Invoke()
01-20 11:49:55.846  1677    42 I Unity   : UnityEngine.ImageConversion:LoadImage(Texture2D, Byte[])
01-20 11:49:55.846  1677    42 I Unity   : UnityEngine.XR.Tango.TangoInputTracking:.cctor()
01-20 11:49:55.846  1677    42 I Unity   : UnityEngine.XR.Tango.TangoInputTracking:.cctor()
01-20 11:49:55.846  1677    42 I Unity   : UnityEngine.ImageConversion:LoadImage(Texture2D, Byte[])
01-20 11:49:55.846  1677    42 I Unity   : UnityEngine.ImageConversion:LoadImage(Texture2D, Byte[])
01-20 11:49:55.846  1677    42 I Unity   :  
01-20 11:49:55.846  1677    42 I Unity   : (Filename: C:/buildslave/unity/build\Runtime/Export/Debug.bindings.h Line: 43)
01-20 11:49:55.846  1677    42 I Unity   : 
01-20 11:49:55.857  1677    42 I Unity   : System.Collections.ArrayList
01-20 11:49:55.857  1677    42 I Unity   : System.Diagnostics.StackTrace:.ctor(Int32, Boolean)
01-20 11:49:55.857  1677    42 I Unity   : UnityEngine.StackTraceUtility:ExtractStackTrace()
01-20 11:49:55.857  1677    42 I Unity   : UnityEngine.XR.Tango.TangoInputTracking:.cctor()
01-20 11:49:55.857  1677    42 I Unity   : UnityEngine.DebugLogHandler:Internal_Log(LogType, String, Object)
01-20 11:49:55.857  1677    42 I Unity   : UnityEngine.DebugLogHandler:LogFormat(LogType, Object, String, Object[])
01-20 11:49:55.857  1677    42 I Unity   : UnityEngine.Logger:Log(LogType, Object)
01-20 11:49:55.857  1677    42 I Unity   : UnityEngine.Debug:Log(Object)
01-20 11:49:55.857  1677    42 I Unity   : OSC:Read()
01-20 11:49:55.857  1677    42 I Unity   : System.Threading.ThreadStart:Invoke()
01-20 11:49:55.857  1677    42 I Unity   : UnityEngine.ImageConversion:LoadImage(Texture2D, Byte[])
01-20 11:49:55.857  1677    42 I Unity   : UnityEngine.XR.Tango.TangoInputTracking:.cctor()
01-20 11:49:55.857  1677    42 I Unity   : UnityEngine.XR.Tango.TangoInputTracking:.cctor()
01-20 11:49:55.857  1677    42 I Unity   : UnityEngine.ImageConversion:LoadImage(Texture2D, Byte[])
01-20 11:49:55.857  1677    42 I Unity   : UnityEngine.ImageConversion:LoadImage(Texture2D, Byte[])
01-20 11:49:55.857  1677    42 I Unity   :  
01-20 11:49:55.857  1677    42 I Unity   : (Filename: C:/buildslave/unity/build\Runtime/Export/Debug.bindings.h Line: 43)
01-20 11:49:55.857  1677    42 I Unity   : 
01-20 11:49:55.867  1677    42 I Unity   : Read 3
01-20 11:49:55.867  1677    42 I Unity   : System.Diagnostics.StackTrace:.ctor(Int32, Boolean)
01-20 11:49:55.867  1677    42 I Unity   : UnityEngine.StackTraceUtility:ExtractStackTrace()
01-20 11:49:55.867  1677    42 I Unity   : UnityEngine.XR.Tango.TangoInputTracking:.cctor()
01-20 11:49:55.867  1677    42 I Unity   : UnityEngine.DebugLogHandler:Internal_Log(LogType, String, Object)
01-20 11:49:55.867  1677    42 I Unity   : UnityEngine.DebugLogHandler:LogFormat(LogType, Object, String, Object[])
01-20 11:49:55.867  1677    42 I Unity   : UnityEngine.Logger:Log(LogType, Object)
01-20 11:49:55.867  1677    42 I Unity   : UnityEngine.Debug:Log(Object)
01-20 11:49:55.867  1677    42 I Unity   : OSC:Read()
01-20 11:49:55.867  1677    42 I Unity   : System.Threading.ThreadStart:Invoke()
01-20 11:49:55.867  1677    42 I Unity   : UnityEngine.ImageConversion:LoadImage(Texture2D, Byte[])
01-20 11:49:55.867  1677    42 I Unity   : UnityEngine.XR.Tango.TangoInputTracking:.cctor()
01-20 11:49:55.867  1677    42 I Unity   : UnityEngine.XR.Tango.TangoInputTracking:.cctor()
01-20 11:49:55.867  1677    42 I Unity   : UnityEngine.ImageConversion:LoadImage(Texture2D, Byte[])
01-20 11:49:55.867  1677    42 I Unity   : UnityEngine.ImageConversion:LoadImage(Texture2D, Byte[])
01-20 11:49:55.867  1677    42 I Unity   :  
01-20 11:49:55.867  1677    42 I Unity   : (Filename: C:/buildslave/unity/build\Runtime/Export/Debug.bindings.h Line: 43)
01-20 11:49:55.867  1677    42 I Unity   : 
01-20 11:49:55.879  1677    42 I Unity   : ReceivePacket!
01-20 11:49:55.879  1677    42 I Unity   : System.Diagnostics.StackTrace:.ctor(Int32, Boolean)
01-20 11:49:55.879  1677    42 I Unity   : UnityEngine.StackTraceUtility:ExtractStackTrace()
01-20 11:49:55.879  1677    42 I Unity   : UnityEngine.XR.Tango.TangoInputTracking:.cctor()
01-20 11:49:55.879  1677    42 I Unity   : UnityEngine.DebugLogHandler:Internal_Log(LogType, String, Object)
01-20 11:49:55.879  1677    42 I Unity   : UnityEngine.DebugLogHandler:LogFormat(LogType, Object, String, Object[])
01-20 11:49:55.879  1677    42 I Unity   : UnityEngine.Logger:Log(LogType, Object)
01-20 11:49:55.879  1677    42 I Unity   : UnityEngine.Debug:Log(Object)
01-20 11:49:55.879  1677    42 I Unity   : UDPPacketIO:ReceivePacket(Byte[])
01-20 11:49:55.879  1677    42 I Unity   : OSC:Read()
01-20 11:49:55.879  1677    42 I Unity   : System.Threading.ThreadStart:Invoke()
01-20 11:49:55.879  1677    42 I Unity   : UnityEngine.ImageConversion:LoadImage(Texture2D, Byte[])
01-20 11:49:55.879  1677    42 I Unity   : UnityEngine.XR.Tango.TangoInputTracking:.cctor()
01-20 11:49:55.879  1677    42 I Unity   : UnityEngine.XR.Tango.TangoInputTracking:.cctor()
01-20 11:49:55.879  1677    42 I Unity   : UnityEngine.ImageConversion:LoadImage(Texture2D, Byte[])
01-20 11:49:55.879  1677    42 I Unity   : UnityEngine.ImageConversion:LoadImage(Texture2D, Byte[])
01-20 11:49:55.879  1677    42 I Unity   :  
01-20 11:49:55.879  1677    42 I Unity   : (Filename: C:/buildslave/unity/build\Runtime/Export/Debug.bindings.h Line: 43)
01-20 11:49:55.879  1677    42 I Unity   : 
01-20 11:49:55.891  1677    42 I Unity   : True
01-20 11:49:55.891  1677    42 I Unity   : System.Diagnostics.StackTrace:.ctor(Int32, Boolean)
01-20 11:49:55.891  1677    42 I Unity   : UnityEngine.StackTraceUtility:ExtractStackTrace()
01-20 11:49:55.891  1677    42 I Unity   : UnityEngine.XR.Tango.TangoInputTracking:.cctor()
01-20 11:49:55.891  1677    42 I Unity   : UnityEngine.DebugLogHandler:Internal_Log(LogType, String, Object)
01-20 11:49:55.891  1677    42 I Unity   : UnityEngine.DebugLogHandler:LogFormat(LogType, Object, String, Object[])
01-20 11:49:55.891  1677    42 I Unity   : UnityEngine.Logger:Log(LogType, Object)
01-20 11:49:55.891  1677    42 I Unity   : UnityEngine.Debug:Log(Object)
01-20 11:49:55.891  1677    42 I Unity   : UDPPacketIO:ReceivePacket(Byte[])
01-20 11:49:55.891  1677    42 I Unity   : OSC:Read()
01-20 11:49:55.891  1677    42 I Unity   : System.Threading.ThreadStart:Invoke()
01-20 11:49:55.891  1677    42 I Unity   : UnityEngine.ImageConversion:LoadImage(Texture2D, Byte[])
01-20 11:49:55.891  1677    42 I Unity   : UnityEngine.XR.Tango.TangoInputTracking:.cctor()
01-20 11:49:55.891  1677    42 I Unity   : UnityEngine.XR.Tango.TangoInputTracking:.cctor()
01-20 11:49:55.891  1677    42 I Unity   : UnityEngine.ImageConversion:LoadImage(Texture2D, Byte[])
01-20 11:49:55.891  1677    42 I Unity   : UnityEngine.ImageConversion:LoadImage(Texture2D, Byte[])
01-20 11:49:55.891  1677    42 I Unity   :  
01-20 11:49:55.891  1677    42 I Unity   : (Filename: C:/buildslave/unity/build\Runtime/Export/Debug.bindings.h Line: 43)
01-20 11:49:55.891  1677    42 I Unity   : 
01-20 11:49:55.902  1677    42 I Unity   : Count = 56
01-20 11:49:55.902  1677    42 I Unity   : System.Diagnostics.StackTrace:.ctor(Int32, Boolean)
01-20 11:49:55.902  1677    42 I Unity   : UnityEngine.StackTraceUtility:ExtractStackTrace()
01-20 11:49:55.902  1677    42 I Unity   : UnityEngine.XR.Tango.TangoInputTracking:.cctor()
01-20 11:49:55.902  1677    42 I Unity   : UnityEngine.DebugLogHandler:Internal_Log(LogType, String, Object)
01-20 11:49:55.902  1677    42 I Unity   : UnityEngine.DebugLogHandler:LogFormat(LogType, Object, String, Object[])
01-20 11:49:55.902  1677    42 I Unity   : UnityEngine.Logger:Log(LogType, Object)
01-20 11:49:55.902  1677    42 I Unity   : UnityEngine.Debug:Log(Object)
01-20 11:49:55.902  1677    42 I Unity   : UDPPacketIO:ReceivePacket(Byte[])
01-20 11:49:55.902  1677    42 I Unity   : OSC:Read()
01-20 11:49:55.902  1677    42 I Unity   : System.Threading.ThreadStart:Invoke()
01-20 11:49:55.902  1677    42 I Unity   : UnityEngine.ImageConversion:LoadImage(Texture2D, Byte[])
01-20 11:49:55.902  1677    42 I Unity   : UnityEngine.XR.Tango.TangoInputTracking:.cctor()
01-20 11:49:55.902  1677    42 I Unity   : UnityEngine.XR.Tango.TangoInputTracking:.cctor()
01-20 11:49:55.902  1677    42 I Unity   : UnityEngine.ImageConversion:LoadImage(Texture2D, Byte[])
01-20 11:49:55.902  1677    42 I Unity   : UnityEngine.ImageConversion:LoadImage(Texture2D, Byte[])
01-20 11:49:55.902  1677    42 I Unity   :  
01-20 11:49:55.902  1677    42 I Unity   : (Filename: C:/buildslave/unity/build\Runtime/Export/Debug.bindings.h Line: 43)
01-20 11:49:55.902  1677    42 I Unity   : 
01-20 11:49:55.912  1677    42 I Unity   : Read 4
01-20 11:49:55.912  1677    42 I Unity   : System.Diagnostics.StackTrace:.ctor(Int32, Boolean)
01-20 11:49:55.912  1677    42 I Unity   : UnityEngine.StackTraceUtility:ExtractStackTrace()
01-20 11:49:55.912  1677    42 I Unity   : UnityEngine.XR.Tango.TangoInputTracking:.cctor()
01-20 11:49:55.912  1677    42 I Unity   : UnityEngine.DebugLogHandler:Internal_Log(LogType, String, Object)
01-20 11:49:55.912  1677    42 I Unity   : UnityEngine.DebugLogHandler:LogFormat(LogType, Object, String, Object[])
01-20 11:49:55.912  1677    42 I Unity   : UnityEngine.Logger:Log(LogType, Object)
01-20 11:49:55.912  1677    42 I Unity   : UnityEngine.Debug:Log(Object)
01-20 11:49:55.912  1677    42 I Unity   : OSC:Read()
01-20 11:49:55.912  1677    42 I Unity   : System.Threading.ThreadStart:Invoke()
01-20 11:49:55.912  1677    42 I Unity   : UnityEngine.ImageConversion:LoadImage(Texture2D, Byte[])
01-20 11:49:55.912  1677    42 I Unity   : UnityEngine.XR.Tango.TangoInputTracking:.cctor()
01-20 11:49:55.912  1677    42 I Unity   : UnityEngine.XR.Tango.TangoInputTracking:.cctor()
01-20 11:49:55.912  1677    42 I Unity   : UnityEngine.ImageConversion:LoadImage(Texture2D, Byte[])
01-20 11:49:55.912  1677    42 I Unity   : UnityEngine.ImageConversion:LoadImage(Texture2D, Byte[])
01-20 11:49:55.912  1677    42 I Unity   :  
01-20 11:49:55.912  1677    42 I Unity   : (Filename: C:/buildslave/unity/build\Runtime/Export/Debug.bindings.h Line: 43)
01-20 11:49:55.912  1677    42 I Unity   : 
01-20 11:49:55.924  1677    42 I Unity   : Read 5
01-20 11:49:55.924  1677    42 I Unity   : System.Diagnostics.StackTrace:.ctor(Int32, Boolean)
01-20 11:49:55.924  1677    42 I Unity   : UnityEngine.StackTraceUtility:ExtractStackTrace()
01-20 11:49:55.924  1677    42 I Unity   : UnityEngine.XR.Tango.TangoInputTracking:.cctor()
01-20 11:49:55.924  1677    42 I Unity   : UnityEngine.DebugLogHandler:Internal_Log(LogType, String, Object)
01-20 11:49:55.924  1677    42 I Unity   : UnityEngine.DebugLogHandler:LogFormat(LogType, Object, String, Object[])
01-20 11:49:55.924  1677    42 I Unity   : UnityEngine.Logger:Log(LogType, Object)
01-20 11:49:55.924  1677    42 I Unity   : UnityEngine.Debug:Log(Object)
01-20 11:49:55.924  1677    42 I Unity   : OSC:Read()
01-20 11:49:55.924  1677    42 I Unity   : System.Threading.ThreadStart:Invoke()
01-20 11:49:55.924  1677    42 I Unity   : UnityEngine.ImageConversion:LoadImage(Texture2D, Byte[])
01-20 11:49:55.924  1677    42 I Unity   : UnityEngine.XR.Tango.TangoInputTracking:.cctor()
01-20 11:49:55.924  1677    42 I Unity   : UnityEngine.XR.Tango.TangoInputTracking:.cctor()
01-20 11:49:55.924  1677    42 I Unity   : UnityEngine.ImageConversion:LoadImage(Texture2D, Byte[])
01-20 11:49:55.924  1677    42 I Unity   : UnityEngine.ImageConversion:LoadImage(Texture2D, Byte[])
01-20 11:49:55.924  1677    42 I Unity   :  
01-20 11:49:55.924  1677    42 I Unity   : (Filename: C:/buildslave/unity/build\Runtime/Export/Debug.bindings.h Line: 43)
01-20 11:49:55.924  1677    42 I Unity   : 
01-20 11:49:55.933  1677    42 I Unity   : Read 6
01-20 11:49:55.933  1677    42 I Unity   : System.Diagnostics.StackTrace:.ctor(Int32, Boolean)
01-20 11:49:55.933  1677    42 I Unity   : UnityEngine.StackTraceUtility:ExtractStackTrace()
01-20 11:49:55.933  1677    42 I Unity   : UnityEngine.XR.Tango.TangoInputTracking:.cctor()
01-20 11:49:55.933  1677    42 I Unity   : UnityEngine.DebugLogHandler:Internal_Log(LogType, String, Object)
01-20 11:49:55.933  1677    42 I Unity   : UnityEngine.DebugLogHandler:LogFormat(LogType, Object, String, Object[])
01-20 11:49:55.933  1677    42 I Unity   : UnityEngine.Logger:Log(LogType, Object)
01-20 11:49:55.933  1677    42 I Unity   : UnityEngine.Debug:Log(Object)
01-20 11:49:55.933  1677    42 I Unity   : OSC:Read()
01-20 11:49:55.933  1677    42 I Unity   : System.Threading.ThreadStart:Invoke()
01-20 11:49:55.933  1677    42 I Unity   : UnityEngine.ImageConversion:LoadImage(Texture2D, Byte[])
01-20 11:49:55.933  1677    42 I Unity   : UnityEngine.XR.Tango.TangoInputTracking:.cctor()
01-20 11:49:55.933  1677    42 I Unity   : UnityEngine.XR.Tango.TangoInputTracking:.cctor()
01-20 11:49:55.933  1677    42 I Unity   : UnityEngine.ImageConversion:LoadImage(Texture2D, Byte[])
01-20 11:49:55.933  1677    42 I Unity   : UnityEngine.ImageConversion:LoadImage(Texture2D, Byte[])
01-20 11:49:55.933  1677    42 I Unity   :  
01-20 11:49:55.933  1677    42 I Unity   : (Filename: C:/buildslave/unity/build\Runtime/Export/Debug.bindings.h Line: 43)
01-20 11:49:55.933  1677    42 I Unity   : 
01-20 11:49:55.945  1677    42 I Unity   : newMessages!
01-20 11:49:55.945  1677    42 I Unity   : System.Diagnostics.StackTrace:.ctor(Int32, Boolean)
01-20 11:49:55.945  1677    42 I Unity   : UnityEngine.StackTraceUtility:ExtractStackTrace()
01-20 11:49:55.945  1677    42 I Unity   : UnityEngine.XR.Tango.TangoInputTracking:.cctor()
01-20 11:49:55.945  1677    42 I Unity   : UnityEngine.DebugLogHandler:Internal_Log(LogType, String, Object)
01-20 11:49:55.945  1677    42 I Unity   : UnityEngine.DebugLogHandler:LogFormat(LogType, Object, String, Object[])
01-20 11:49:55.945  1677    42 I Unity   : UnityEngine.Logger:Log(LogType, Object)
01-20 11:49:55.945  1677    42 I Unity   : UnityEngine.Debug:Log(Object)
01-20 11:49:55.945  1677    42 I Unity   : OSC:Read()
01-20 11:49:55.945  1677    42 I Unity   : System.Threading.ThreadStart:Invoke()
01-20 11:49:55.945  1677    42 I Unity   : UnityEngine.ImageConversion:LoadImage(Texture2D, Byte[])
01-20 11:49:55.945  1677    42 I Unity   : UnityEngine.XR.Tango.TangoInputTracking:.cctor()
01-20 11:49:55.945  1677    42 I Unity   : UnityEngine.XR.Tango.TangoInputTracking:.cctor()
01-20 11:49:55.945  1677    42 I Unity   : UnityEngine.ImageConversion:LoadImage(Texture2D, Byte[])
01-20 11:49:55.945  1677    42 I Unity   : UnityEngine.ImageConversion:LoadImage(Texture2D, Byte[])
01-20 11:49:55.945  1677    42 I Unity   :  
01-20 11:49:55.945  1677    42 I Unity   : (Filename: C:/buildslave/unity/build\Runtime/Export/Debug.bindings.h Line: 43)
01-20 11:49:55.945  1677    42 I Unity   : 
01-20 11:49:55.955  1677    42 I Unity   : System.Collections.ArrayList
01-20 11:49:55.955  1677    42 I Unity   : System.Diagnostics.StackTrace:.ctor(Int32, Boolean)
01-20 11:49:55.955  1677    42 I Unity   : UnityEngine.StackTraceUtility:ExtractStackTrace()
01-20 11:49:55.955  1677    42 I Unity   : UnityEngine.XR.Tango.TangoInputTracking:.cctor()
01-20 11:49:55.955  1677    42 I Unity   : UnityEngine.DebugLogHandler:Internal_Log(LogType, String, Object)
01-20 11:49:55.955  1677    42 I Unity   : UnityEngine.DebugLogHandler:LogFormat(LogType, Object, String, Object[])
01-20 11:49:55.955  1677    42 I Unity   : UnityEngine.Logger:Log(LogType, Object)
01-20 11:49:55.955  1677    42 I Unity   : UnityEngine.Debug:Log(Object)
01-20 11:49:55.955  1677    42 I Unity   : OSC:Read()
01-20 11:49:55.955  1677    42 I Unity   : System.Threading.ThreadStart:Invoke()
01-20 11:49:55.955  1677    42 I Unity   : UnityEngine.ImageConversion:LoadImage(Texture2D, Byte[])
01-20 11:49:55.955  1677    42 I Unity   : UnityEngine.XR.Tango.TangoInputTracking:.cctor()
01-20 11:49:55.955  1677    42 I Unity   : UnityEngine.XR.Tango.TangoInputTracking:.cctor()
01-20 11:49:55.955  1677    42 I Unity   : UnityEngine.ImageConversion:LoadImage(Texture2D, Byte[])
01-20 11:49:55.955  1677    42 I Unity   : UnityEngine.ImageConversion:LoadImage(Texture2D, Byte[])
01-20 11:49:55.955  1677    42 I Unity   :  
01-20 11:49:55.955  1677    42 I Unity   : (Filename: C:/buildslave/unity/build\Runtime/Export/Debug.bindings.h Line: 43)
01-20 11:49:55.955  1677    42 I Unity   : 
01-20 11:49:55.965  1677    42 I Unity   : Read 3
01-20 11:49:55.965  1677    42 I Unity   : System.Diagnostics.StackTrace:.ctor(Int32, Boolean)
01-20 11:49:55.965  1677    42 I Unity   : UnityEngine.StackTraceUtility:ExtractStackTrace()
01-20 11:49:55.965  1677    42 I Unity   : UnityEngine.XR.Tango.TangoInputTracking:.cctor()
01-20 11:49:55.965  1677    42 I Unity   : UnityEngine.DebugLogHandler:Internal_Log(LogType, String, Object)
01-20 11:49:55.965  1677    42 I Unity   : UnityEngine.DebugLogHandler:LogFormat(LogType, Object, String, Object[])
01-20 11:49:55.965  1677    42 I Unity   : UnityEngine.Logger:Log(LogType, Object)
01-20 11:49:55.965  1677    42 I Unity   : UnityEngine.Debug:Log(Object)
01-20 11:49:55.965  1677    42 I Unity   : OSC:Read()
01-20 11:49:55.965  1677    42 I Unity   : System.Threading.ThreadStart:Invoke()
01-20 11:49:55.965  1677    42 I Unity   : UnityEngine.ImageConversion:LoadImage(Texture2D, Byte[])
01-20 11:49:55.965  1677    42 I Unity   : UnityEngine.XR.Tango.TangoInputTracking:.cctor()
01-20 11:49:55.965  1677    42 I Unity   : UnityEngine.XR.Tango.TangoInputTracking:.cctor()
01-20 11:49:55.965  1677    42 I Unity   : UnityEngine.ImageConversion:LoadImage(Texture2D, Byte[])
01-20 11:49:55.965  1677    42 I Unity   : UnityEngine.ImageConversion:LoadImage(Texture2D, Byte[])
01-20 11:49:55.965  1677    42 I Unity   :  
01-20 11:49:55.965  1677    42 I Unity   : (Filename: C:/buildslave/unity/build\Runtime/Export/Debug.bindings.h Line: 43)
01-20 11:49:55.965  1677    42 I Unity   : 
01-20 11:49:55.977  1677    42 I Unity   : ReceivePacket!
01-20 11:49:55.977  1677    42 I Unity   : System.Diagnostics.StackTrace:.ctor(Int32, Boolean)
01-20 11:49:55.977  1677    42 I Unity   : UnityEngine.StackTraceUtility:ExtractStackTrace()
01-20 11:49:55.977  1677    42 I Unity   : UnityEngine.XR.Tango.TangoInputTracking:.cctor()
01-20 11:49:55.977  1677    42 I Unity   : UnityEngine.DebugLogHandler:Internal_Log(LogType, String, Object)
01-20 11:49:55.977  1677    42 I Unity   : UnityEngine.DebugLogHandler:LogFormat(LogType, Object, String, Object[])
01-20 11:49:55.977  1677    42 I Unity   : UnityEngine.Logger:Log(LogType, Object)
01-20 11:49:55.977  1677    42 I Unity   : UnityEngine.Debug:Log(Object)
01-20 11:49:55.977  1677    42 I Unity   : UDPPacketIO:ReceivePacket(Byte[])
01-20 11:49:55.977  1677    42 I Unity   : OSC:Read()
01-20 11:49:55.977  1677    42 I Unity   : System.Threading.ThreadStart:Invoke()
01-20 11:49:55.977  1677    42 I Unity   : UnityEngine.ImageConversion:LoadImage(Texture2D, Byte[])
01-20 11:49:55.977  1677    42 I Unity   : UnityEngine.XR.Tango.TangoInputTracking:.cctor()
01-20 11:49:55.977  1677    42 I Unity   : UnityEngine.XR.Tango.TangoInputTracking:.cctor()
01-20 11:49:55.977  1677    42 I Unity   : UnityEngine.ImageConversion:LoadImage(Texture2D, Byte[])
01-20 11:49:55.977  1677    42 I Unity   : UnityEngine.ImageConversion:LoadImage(Texture2D, Byte[])
01-20 11:49:55.977  1677    42 I Unity   :  
01-20 11:49:55.977  1677    42 I Unity   : (Filename: C:/buildslave/unity/build\Runtime/Export/Debug.bindings.h Line: 43)
01-20 11:49:55.977  1677    42 I Unity   : 
01-20 11:49:55.989  1677    42 I Unity   : True
01-20 11:49:55.989  1677    42 I Unity   : System.Diagnostics.StackTrace:.ctor(Int32, Boolean)
01-20 11:49:55.989  1677    42 I Unity   : UnityEngine.StackTraceUtility:ExtractStackTrace()
01-20 11:49:55.989  1677    42 I Unity   : UnityEngine.XR.Tango.TangoInputTracking:.cctor()
01-20 11:49:55.989  1677    42 I Unity   : UnityEngine.DebugLogHandler:Internal_Log(LogType, String, Object)
01-20 11:49:55.989  1677    42 I Unity   : UnityEngine.DebugLogHandler:LogFormat(LogType, Object, String, Object[])
01-20 11:49:55.989  1677    42 I Unity   : UnityEngine.Logger:Log(LogType, Object)
01-20 11:49:55.989  1677    42 I Unity   : UnityEngine.Debug:Log(Object)
01-20 11:49:55.989  1677    42 I Unity   : UDPPacketIO:ReceivePacket(Byte[])
01-20 11:49:55.989  1677    42 I Unity   : OSC:Read()
01-20 11:49:55.989  1677    42 I Unity   : System.Threading.ThreadStart:Invoke()
01-20 11:49:55.989  1677    42 I Unity   : UnityEngine.ImageConversion:LoadImage(Texture2D, Byte[])
01-20 11:49:55.989  1677    42 I Unity   : UnityEngine.XR.Tango.TangoInputTracking:.cctor()
01-20 11:49:55.989  1677    42 I Unity   : UnityEngine.XR.Tango.TangoInputTracking:.cctor()
01-20 11:49:55.989  1677    42 I Unity   : UnityEngine.ImageConversion:LoadImage(Texture2D, Byte[])
01-20 11:49:55.989  1677    42 I Unity   : UnityEngine.ImageConversion:LoadImage(Texture2D, Byte[])
01-20 11:49:55.989  1677    42 I Unity   :  
01-20 11:49:55.989  1677    42 I Unity   : (Filename: C:/buildslave/unity/build\Runtime/Export/Debug.bindings.h Line: 43)
01-20 11:49:55.989  1677    42 I Unity   : 
01-20 11:49:56.000  1677    42 I Unity   : Count = 56
01-20 11:49:56.000  1677    42 I Unity   : System.Diagnostics.StackTrace:.ctor(Int32, Boolean)
01-20 11:49:56.000  1677    42 I Unity   : UnityEngine.StackTraceUtility:ExtractStackTrace()
01-20 11:49:56.000  1677    42 I Unity   : UnityEngine.XR.Tango.TangoInputTracking:.cctor()
01-20 11:49:56.000  1677    42 I Unity   : UnityEngine.DebugLogHandler:Internal_Log(LogType, String, Object)
01-20 11:49:56.000  1677    42 I Unity   : UnityEngine.DebugLogHandler:LogFormat(LogType, Object, String, Object[])
01-20 11:49:56.000  1677    42 I Unity   : UnityEngine.Logger:Log(LogType, Object)
01-20 11:49:56.000  1677    42 I Unity   : UnityEngine.Debug:Log(Object)
01-20 11:49:56.000  1677    42 I Unity   : UDPPacketIO:ReceivePacket(Byte[])
01-20 11:49:56.000  1677    42 I Unity   : OSC:Read()
01-20 11:49:56.000  1677    42 I Unity   : System.Threading.ThreadStart:Invoke()
01-20 11:49:56.000  1677    42 I Unity   : UnityEngine.ImageConversion:LoadImage(Texture2D, Byte[])
01-20 11:49:56.000  1677    42 I Unity   : UnityEngine.XR.Tango.TangoInputTracking:.cctor()
01-20 11:49:56.000  1677    42 I Unity   : UnityEngine.XR.Tango.TangoInputTracking:.cctor()
01-20 11:49:56.000  1677    42 I Unity   : UnityEngine.ImageConversion:LoadImage(Texture2D, Byte[])
01-20 11:49:56.000  1677    42 I Unity   : UnityEngine.ImageConversion:LoadImage(Texture2D, Byte[])
01-20 11:49:56.000  1677    42 I Unity   :  
01-20 11:49:56.000  1677    42 I Unity   : (Filename: C:/buildslave/unity/build\Runtime/Export/Debug.bindings.h Line: 43)
01-20 11:49:56.000  1677    42 I Unity   : 
01-20 11:49:56.012  1677    42 I Unity   : Read 4
01-20 11:49:56.012  1677    42 I Unity   : System.Diagnostics.StackTrace:.ctor(Int32, Boolean)
01-20 11:49:56.012  1677    42 I Unity   : UnityEngine.StackTraceUtility:ExtractStackTrace()
01-20 11:49:56.012  1677    42 I Unity   : UnityEngine.XR.Tango.TangoInputTracking:.cctor()
01-20 11:49:56.012  1677    42 I Unity   : UnityEngine.DebugLogHandler:Internal_Log(LogType, String, Object)
01-20 11:49:56.012  1677    42 I Unity   : UnityEngine.DebugLogHandler:LogFormat(LogType, Object, String, Object[])
01-20 11:49:56.012  1677    42 I Unity   : UnityEngine.Logger:Log(LogType, Object)
01-20 11:49:56.012  1677    42 I Unity   : UnityEngine.Debug:Log(Object)
01-20 11:49:56.012  1677    42 I Unity   : OSC:Read()
01-20 11:49:56.012  1677    42 I Unity   : System.Threading.ThreadStart:Invoke()
01-20 11:49:56.012  1677    42 I Unity   : UnityEngine.ImageConversion:LoadImage(Texture2D, Byte[])
01-20 11:49:56.012  1677    42 I Unity   : UnityEngine.XR.Tango.TangoInputTracking:.cctor()
01-20 11:49:56.012  1677    42 I Unity   : UnityEngine.XR.Tango.TangoInputTracking:.cctor()
01-20 11:49:56.012  1677    42 I Unity   : UnityEngine.ImageConversion:LoadImage(Texture2D, Byte[])
01-20 11:49:56.012  1677    42 I Unity   : UnityEngine.ImageConversion:LoadImage(Texture2D, Byte[])
01-20 11:49:56.012  1677    42 I Unity   :  
01-20 11:49:56.012  1677    42 I Unity   : (Filename: C:/buildslave/unity/build\Runtime/Export/Debug.bindings.h Line: 43)
01-20 11:49:56.012  1677    42 I Unity   : 
01-20 11:49:56.025  1677    42 I Unity   : Read 5
01-20 11:49:56.025  1677    42 I Unity   : System.Diagnostics.StackTrace:.ctor(Int32, Boolean)
01-20 11:49:56.025  1677    42 I Unity   : UnityEngine.StackTraceUtility:ExtractStackTrace()
01-20 11:49:56.025  1677    42 I Unity   : UnityEngine.XR.Tango.TangoInputTracking:.cctor()
01-20 11:49:56.025  1677    42 I Unity   : UnityEngine.DebugLogHandler:Internal_Log(LogType, String, Object)
01-20 11:49:56.025  1677    42 I Unity   : UnityEngine.DebugLogHandler:LogFormat(LogType, Object, String, Object[])
01-20 11:49:56.025  1677    42 I Unity   : UnityEngine.Logger:Log(LogType, Object)
01-20 11:49:56.025  1677    42 I Unity   : UnityEngine.Debug:Log(Object)
01-20 11:49:56.025  1677    42 I Unity   : OSC:Read()
01-20 11:49:56.025  1677    42 I Unity   : System.Threading.ThreadStart:Invoke()
01-20 11:49:56.025  1677    42 I Unity   : UnityEngine.ImageConversion:LoadImage(Texture2D, Byte[])
01-20 11:49:56.025  1677    42 I Unity   : UnityEngine.XR.Tango.TangoInputTracking:.cctor()
01-20 11:49:56.025  1677    42 I Unity   : UnityEngine.XR.Tango.TangoInputTracking:.cctor()
01-20 11:49:56.025  1677    42 I Unity   : UnityEngine.ImageConversion:LoadImage(Texture2D, Byte[])
01-20 11:49:56.025  1677    42 I Unity   : UnityEngine.ImageConversion:LoadImage(Texture2D, Byte[])
01-20 11:49:56.025  1677    42 I Unity   :  
01-20 11:49:56.025  1677    42 I Unity   : (Filename: C:/buildslave/unity/build\Runtime/Export/Debug.bindings.h Line: 43)
01-20 11:49:56.025  1677    42 I Unity   : 
01-20 11:49:56.035  1677    42 I Unity   : Read 6
01-20 11:49:56.035  1677    42 I Unity   : System.Diagnostics.StackTrace:.ctor(Int32, Boolean)
01-20 11:49:56.035  1677    42 I Unity   : UnityEngine.StackTraceUtility:ExtractStackTrace()
01-20 11:49:56.035  1677    42 I Unity   : UnityEngine.XR.Tango.TangoInputTracking:.cctor()
01-20 11:49:56.035  1677    42 I Unity   : UnityEngine.DebugLogHandler:Internal_Log(LogType, String, Object)
01-20 11:49:56.035  1677    42 I Unity   : UnityEngine.DebugLogHandler:LogFormat(LogType, Object, String, Object[])
01-20 11:49:56.035  1677    42 I Unity   : UnityEngine.Logger:Log(LogType, Object)
01-20 11:49:56.035  1677    42 I Unity   : UnityEngine.Debug:Log(Object)
01-20 11:49:56.035  1677    42 I Unity   : OSC:Read()
01-20 11:49:56.035  1677    42 I Unity   : System.Threading.ThreadStart:Invoke()
01-20 11:49:56.035  1677    42 I Unity   : UnityEngine.ImageConversion:LoadImage(Texture2D, Byte[])
01-20 11:49:56.035  1677    42 I Unity   : UnityEngine.XR.Tango.TangoInputTracking:.cctor()
01-20 11:49:56.035  1677    42 I Unity   : UnityEngine.XR.Tango.TangoInputTracking:.cctor()
01-20 11:49:56.035  1677    42 I Unity   : UnityEngine.ImageConversion:LoadImage(Texture2D, Byte[])
01-20 11:49:56.035  1677    42 I Unity   : UnityEngine.ImageConversion:LoadImage(Texture2D, Byte[])
01-20 11:49:56.035  1677    42 I Unity   :  
01-20 11:49:56.035  1677    42 I Unity   : (Filename: C:/buildslave/unity/build\Runtime/Export/Debug.bindings.h Line: 43)
01-20 11:49:56.035  1677    42 I Unity   : 
01-20 11:49:56.047  1677    42 I Unity   : newMessages!
01-20 11:49:56.047  1677    42 I Unity   : System.Diagnostics.StackTrace:.ctor(Int32, Boolean)
01-20 11:49:56.047  1677    42 I Unity   : UnityEngine.StackTraceUtility:ExtractStackTrace()
01-20 11:49:56.047  1677    42 I Unity   : UnityEngine.XR.Tango.TangoInputTracking:.cctor()
01-20 11:49:56.047  1677    42 I Unity   : UnityEngine.DebugLogHandler:Internal_Log(LogType, String, Object)
01-20 11:49:56.047  1677    42 I Unity   : UnityEngine.DebugLogHandler:LogFormat(LogType, Object, String, Object[])
01-20 11:49:56.047  1677    42 I Unity   : UnityEngine.Logger:Log(LogType, Object)
01-20 11:49:56.047  1677    42 I Unity   : UnityEngine.Debug:Log(Object)
01-20 11:49:56.047  1677    42 I Unity   : OSC:Read()
01-20 11:49:56.047  1677    42 I Unity   : System.Threading.ThreadStart:Invoke()
01-20 11:49:56.047  1677    42 I Unity   : UnityEngine.ImageConversion:LoadImage(Texture2D, Byte[])
01-20 11:49:56.047  1677    42 I Unity   : UnityEngine.XR.Tango.TangoInputTracking:.cctor()
01-20 11:49:56.047  1677    42 I Unity   : UnityEngine.XR.Tango.TangoInputTracking:.cctor()
01-20 11:49:56.047  1677    42 I Unity   : UnityEngine.ImageConversion:LoadImage(Texture2D, Byte[])
01-20 11:49:56.047  1677    42 I Unity   : UnityEngine.ImageConversion:LoadImage(Texture2D, Byte[])
01-20 11:49:56.047  1677    42 I Unity   :  
01-20 11:49:56.047  1677    42 I Unity   : (Filename: C:/buildslave/unity/build\Runtime/Export/Debug.bindings.h Line: 43)
01-20 11:49:56.047  1677    42 I Unity   : 
01-20 11:49:56.058  1677    42 I Unity   : System.Collections.ArrayList
01-20 11:49:56.058  1677    42 I Unity   : System.Diagnostics.StackTrace:.ctor(Int32, Boolean)
01-20 11:49:56.058  1677    42 I Unity   : UnityEngine.StackTraceUtility:ExtractStackTrace()
01-20 11:49:56.058  1677    42 I Unity   : UnityEngine.XR.Tango.TangoInputTracking:.cctor()
01-20 11:49:56.058  1677    42 I Unity   : UnityEngine.DebugLogHandler:Internal_Log(LogType, String, Object)
01-20 11:49:56.058  1677    42 I Unity   : UnityEngine.DebugLogHandler:LogFormat(LogType, Object, String, Object[])
01-20 11:49:56.058  1677    42 I Unity   : UnityEngine.Logger:Log(LogType, Object)
01-20 11:49:56.058  1677    42 I Unity   : UnityEngine.Debug:Log(Object)
01-20 11:49:56.058  1677    42 I Unity   : OSC:Read()
01-20 11:49:56.058  1677    42 I Unity   : System.Threading.ThreadStart:Invoke()
01-20 11:49:56.058  1677    42 I Unity   : UnityEngine.ImageConversion:LoadImage(Texture2D, Byte[])
01-20 11:49:56.058  1677    42 I Unity   : UnityEngine.XR.Tango.TangoInputTracking:.cctor()
01-20 11:49:56.058  1677    42 I Unity   : UnityEngine.XR.Tango.TangoInputTracking:.cctor()
01-20 11:49:56.058  1677    42 I Unity   : UnityEngine.ImageConversion:LoadImage(Texture2D, Byte[])
01-20 11:49:56.058  1677    42 I Unity   : UnityEngine.ImageConversion:LoadImage(Texture2D, Byte[])
01-20 11:49:56.058  1677    42 I Unity   :  
01-20 11:49:56.058  1677    42 I Unity   : (Filename: C:/buildslave/unity/build\Runtime/Export/Debug.bindings.h Line: 43)
01-20 11:49:56.058  1677    42 I Unity   : 
01-20 11:49:56.068  1677    42 I Unity   : Read 3
01-20 11:49:56.068  1677    42 I Unity   : System.Diagnostics.StackTrace:.ctor(Int32, Boolean)
01-20 11:49:56.068  1677    42 I Unity   : UnityEngine.StackTraceUtility:ExtractStackTrace()
01-20 11:49:56.068  1677    42 I Unity   : UnityEngine.XR.Tango.TangoInputTracking:.cctor()
01-20 11:49:56.068  1677    42 I Unity   : UnityEngine.DebugLogHandler:Internal_Log(LogType, String, Object)
01-20 11:49:56.068  1677    42 I Unity   : UnityEngine.DebugLogHandler:LogFormat(LogType, Object, String, Object[])
01-20 11:49:56.068  1677    42 I Unity   : UnityEngine.Logger:Log(LogType, Object)
01-20 11:49:56.068  1677    42 I Unity   : UnityEngine.Debug:Log(Object)
01-20 11:49:56.068  1677    42 I Unity   : OSC:Read()
01-20 11:49:56.068  1677    42 I Unity   : System.Threading.ThreadStart:Invoke()
01-20 11:49:56.068  1677    42 I Unity   : UnityEngine.ImageConversion:LoadImage(Texture2D, Byte[])
01-20 11:49:56.068  1677    42 I Unity   : UnityEngine.XR.Tango.TangoInputTracking:.cctor()
01-20 11:49:56.068  1677    42 I Unity   : UnityEngine.XR.Tango.TangoInputTracking:.cctor()
01-20 11:49:56.068  1677    42 I Unity   : UnityEngine.ImageConversion:LoadImage(Texture2D, Byte[])
01-20 11:49:56.068  1677    42 I Unity   : UnityEngine.ImageConversion:LoadImage(Texture2D, Byte[])
01-20 11:49:56.068  1677    42 I Unity   :  
01-20 11:49:56.068  1677    42 I Unity   : (Filename: C:/buildslave/unity/build\Runtime/Export/Debug.bindings.h Line: 43)
01-20 11:49:56.068  1677    42 I Unity   : 
01-20 11:49:56.080  1677    42 I Unity   : ReceivePacket!
01-20 11:49:56.080  1677    42 I Unity   : System.Diagnostics.StackTrace:.ctor(Int32, Boolean)
01-20 11:49:56.080  1677    42 I Unity   : UnityEngine.StackTraceUtility:ExtractStackTrace()
01-20 11:49:56.080  1677    42 I Unity   : UnityEngine.XR.Tango.TangoInputTracking:.cctor()
01-20 11:49:56.080  1677    42 I Unity   : UnityEngine.DebugLogHandler:Internal_Log(LogType, String, Object)
01-20 11:49:56.080  1677    42 I Unity   : UnityEngine.DebugLogHandler:LogFormat(LogType, Object, String, Object[])
01-20 11:49:56.080  1677    42 I Unity   : UnityEngine.Logger:Log(LogType, Object)
01-20 11:49:56.080  1677    42 I Unity   : UnityEngine.Debug:Log(Object)
01-20 11:49:56.080  1677    42 I Unity   : UDPPacketIO:ReceivePacket(Byte[])
01-20 11:49:56.080  1677    42 I Unity   : OSC:Read()
01-20 11:49:56.080  1677    42 I Unity   : System.Threading.ThreadStart:Invoke()
01-20 11:49:56.080  1677    42 I Unity   : UnityEngine.ImageConversion:LoadImage(Texture2D, Byte[])
01-20 11:49:56.080  1677    42 I Unity   : UnityEngine.XR.Tango.TangoInputTracking:.cctor()
01-20 11:49:56.080  1677    42 I Unity   : UnityEngine.XR.Tango.TangoInputTracking:.cctor()
01-20 11:49:56.080  1677    42 I Unity   : UnityEngine.ImageConversion:LoadImage(Texture2D, Byte[])
01-20 11:49:56.080  1677    42 I Unity   : UnityEngine.ImageConversion:LoadImage(Texture2D, Byte[])
01-20 11:49:56.080  1677    42 I Unity   :  
01-20 11:49:56.080  1677    42 I Unity   : (Filename: C:/buildslave/unity/build\Runtime/Export/Debug.bindings.h Line: 43)
01-20 11:49:56.080  1677    42 I Unity   : 
01-20 11:49:56.092  1677    42 I Unity   : True
01-20 11:49:56.092  1677    42 I Unity   : System.Diagnostics.StackTrace:.ctor(Int32, Boolean)
01-20 11:49:56.092  1677    42 I Unity   : UnityEngine.StackTraceUtility:ExtractStackTrace()
01-20 11:49:56.092  1677    42 I Unity   : UnityEngine.XR.Tango.TangoInputTracking:.cctor()
01-20 11:49:56.092  1677    42 I Unity   : UnityEngine.DebugLogHandler:Internal_Log(LogType, String, Object)
01-20 11:49:56.092  1677    42 I Unity   : UnityEngine.DebugLogHandler:LogFormat(LogType, Object, String, Object[])
01-20 11:49:56.092  1677    42 I Unity   : UnityEngine.Logger:Log(LogType, Object)
01-20 11:49:56.092  1677    42 I Unity   : UnityEngine.Debug:Log(Object)
01-20 11:49:56.092  1677    42 I Unity   : UDPPacketIO:ReceivePacket(Byte[])
01-20 11:49:56.092  1677    42 I Unity   : OSC:Read()
01-20 11:49:56.092  1677    42 I Unity   : System.Threading.ThreadStart:Invoke()
01-20 11:49:56.092  1677    42 I Unity   : UnityEngine.ImageConversion:LoadImage(Texture2D, Byte[])
01-20 11:49:56.092  1677    42 I Unity   : UnityEngine.XR.Tango.TangoInputTracking:.cctor()
01-20 11:49:56.092  1677    42 I Unity   : UnityEngine.XR.Tango.TangoInputTracking:.cctor()
01-20 11:49:56.092  1677    42 I Unity   : UnityEngine.ImageConversion:LoadImage(Texture2D, Byte[])
01-20 11:49:56.092  1677    42 I Unity   : UnityEngine.ImageConversion:LoadImage(Texture2D, Byte[])
01-20 11:49:56.092  1677    42 I Unity   :  
01-20 11:49:56.092  1677    42 I Unity   : (Filename: C:/buildslave/unity/build\Runtime/Export/Debug.bindings.h Line: 43)
01-20 11:49:56.092  1677    42 I Unity   : 
01-20 11:49:56.104  1677    42 I Unity   : Count = 52
01-20 11:49:56.104  1677    42 I Unity   : System.Diagnostics.StackTrace:.ctor(Int32, Boolean)
01-20 11:49:56.104  1677    42 I Unity   : UnityEngine.StackTraceUtility:ExtractStackTrace()
01-20 11:49:56.104  1677    42 I Unity   : UnityEngine.XR.Tango.TangoInputTracking:.cctor()
01-20 11:49:56.104  1677    42 I Unity   : UnityEngine.DebugLogHandler:Internal_Log(LogType, String, Object)
01-20 11:49:56.104  1677    42 I Unity   : UnityEngine.DebugLogHandler:LogFormat(LogType, Object, String, Object[])
01-20 11:49:56.104  1677    42 I Unity   : UnityEngine.Logger:Log(LogType, Object)
01-20 11:49:56.104  1677    42 I Unity   : UnityEngine.Debug:Log(Object)
01-20 11:49:56.104  1677    42 I Unity   : UDPPacketIO:ReceivePacket(Byte[])
01-20 11:49:56.104  1677    42 I Unity   : OSC:Read()
01-20 11:49:56.104  1677    42 I Unity   : System.Threading.ThreadStart:Invoke()
01-20 11:49:56.104  1677    42 I Unity   : UnityEngine.ImageConversion:LoadImage(Texture2D, Byte[])
01-20 11:49:56.104  1677    42 I Unity   : UnityEngine.XR.Tango.TangoInputTracking:.cctor()
01-20 11:49:56.104  1677    42 I Unity   : UnityEngine.XR.Tango.TangoInputTracking:.cctor()
01-20 11:49:56.104  1677    42 I Unity   : UnityEngine.ImageConversion:LoadImage(Texture2D, Byte[])
01-20 11:49:56.104  1677    42 I Unity   : UnityEngine.ImageConversion:LoadImage(Texture2D, Byte[])
01-20 11:49:56.104  1677    42 I Unity   :  
01-20 11:49:56.104  1677    42 I Unity   : (Filename: C:/buildslave/unity/build\Runtime/Export/Debug.bindings.h Line: 43)
01-20 11:49:56.104  1677    42 I Unity   : 
01-20 11:49:56.113  1677    42 I Unity   : Read 4
01-20 11:49:56.113  1677    42 I Unity   : System.Diagnostics.StackTrace:.ctor(Int32, Boolean)
01-20 11:49:56.113  1677    42 I Unity   : UnityEngine.StackTraceUtility:ExtractStackTrace()
01-20 11:49:56.113  1677    42 I Unity   : UnityEngine.XR.Tango.TangoInputTracking:.cctor()
01-20 11:49:56.113  1677    42 I Unity   : UnityEngine.DebugLogHandler:Internal_Log(LogType, String, Object)
01-20 11:49:56.113  1677    42 I Unity   : UnityEngine.DebugLogHandler:LogFormat(LogType, Object, String, Object[])
01-20 11:49:56.113  1677    42 I Unity   : UnityEngine.Logger:Log(LogType, Object)
01-20 11:49:56.113  1677    42 I Unity   : UnityEngine.Debug:Log(Object)
01-20 11:49:56.113  1677    42 I Unity   : OSC:Read()
01-20 11:49:56.113  1677    42 I Unity   : System.Threading.ThreadStart:Invoke()
01-20 11:49:56.113  1677    42 I Unity   : UnityEngine.ImageConversion:LoadImage(Texture2D, Byte[])
01-20 11:49:56.113  1677    42 I Unity   : UnityEngine.XR.Tango.TangoInputTracking:.cctor()
01-20 11:49:56.113  1677    42 I Unity   : UnityEngine.XR.Tango.TangoInputTracking:.cctor()
01-20 11:49:56.113  1677    42 I Unity   : UnityEngine.ImageConversion:LoadImage(Texture2D, Byte[])
01-20 11:49:56.113  1677    42 I Unity   : UnityEngine.ImageConversion:LoadImage(Texture2D, Byte[])
01-20 11:49:56.113  1677    42 I Unity   :  
01-20 11:49:56.113  1677    42 I Unity   : (Filename: C:/buildslave/unity/build\Runtime/Export/Debug.bindings.h Line: 43)
01-20 11:49:56.113  1677    42 I Unity   : 
01-20 11:49:56.124  1677    42 I Unity   : Read 5
01-20 11:49:56.124  1677    42 I Unity   : System.Diagnostics.StackTrace:.ctor(Int32, Boolean)
01-20 11:49:56.124  1677    42 I Unity   : UnityEngine.StackTraceUtility:ExtractStackTrace()
01-20 11:49:56.124  1677    42 I Unity   : UnityEngine.XR.Tango.TangoInputTracking:.cctor()
01-20 11:49:56.124  1677    42 I Unity   : UnityEngine.DebugLogHandler:Internal_Log(LogType, String, Object)
01-20 11:49:56.124  1677    42 I Unity   : UnityEngine.DebugLogHandler:LogFormat(LogType, Object, String, Object[])
01-20 11:49:56.124  1677    42 I Unity   : UnityEngine.Logger:Log(LogType, Object)
01-20 11:49:56.124  1677    42 I Unity   : UnityEngine.Debug:Log(Object)
01-20 11:49:56.124  1677    42 I Unity   : OSC:Read()
01-20 11:49:56.124  1677    42 I Unity   : System.Threading.ThreadStart:Invoke()
01-20 11:49:56.124  1677    42 I Unity   : UnityEngine.ImageConversion:LoadImage(Texture2D, Byte[])
01-20 11:49:56.124  1677    42 I Unity   : UnityEngine.XR.Tango.TangoInputTracking:.cctor()
01-20 11:49:56.124  1677    42 I Unity   : UnityEngine.XR.Tango.TangoInputTracking:.cctor()
01-20 11:49:56.124  1677    42 I Unity   : UnityEngine.ImageConversion:LoadImage(Texture2D, Byte[])
01-20 11:49:56.124  1677    42 I Unity   : UnityEngine.ImageConversion:LoadImage(Texture2D, Byte[])
01-20 11:49:56.124  1677    42 I Unity   :  
01-20 11:49:56.124  1677    42 I Unity   : (Filename: C:/buildslave/unity/build\Runtime/Export/Debug.bindings.h Line: 43)
01-20 11:49:56.124  1677    42 I Unity   : 
01-20 11:49:56.134  1677    42 I Unity   : Read 6
01-20 11:49:56.134  1677    42 I Unity   : System.Diagnostics.StackTrace:.ctor(Int32, Boolean)
01-20 11:49:56.134  1677    42 I Unity   : UnityEngine.StackTraceUtility:ExtractStackTrace()
01-20 11:49:56.134  1677    42 I Unity   : UnityEngine.XR.Tango.TangoInputTracking:.cctor()
01-20 11:49:56.134  1677    42 I Unity   : UnityEngine.DebugLogHandler:Internal_Log(LogType, String, Object)
01-20 11:49:56.134  1677    42 I Unity   : UnityEngine.DebugLogHandler:LogFormat(LogType, Object, String, Object[])
01-20 11:49:56.134  1677    42 I Unity   : UnityEngine.Logger:Log(LogType, Object)
01-20 11:49:56.134  1677    42 I Unity   : UnityEngine.Debug:Log(Object)
01-20 11:49:56.134  1677    42 I Unity   : OSC:Read()
01-20 11:49:56.134  1677    42 I Unity   : System.Threading.ThreadStart:Invoke()
01-20 11:49:56.134  1677    42 I Unity   : UnityEngine.ImageConversion:LoadImage(Texture2D, Byte[])
01-20 11:49:56.134  1677    42 I Unity   : UnityEngine.XR.Tango.TangoInputTracking:.cctor()
01-20 11:49:56.134  1677    42 I Unity   : UnityEngine.XR.Tango.TangoInputTracking:.cctor()
01-20 11:49:56.134  1677    42 I Unity   : UnityEngine.ImageConversion:LoadImage(Texture2D, Byte[])
01-20 11:49:56.134  1677    42 I Unity   : UnityEngine.ImageConversion:LoadImage(Texture2D, Byte[])
01-20 11:49:56.134  1677    42 I Unity   :  
01-20 11:49:56.134  1677    42 I Unity   : (Filename: C:/buildslave/unity/build\Runtime/Export/Debug.bindings.h Line: 43)
01-20 11:49:56.134  1677    42 I Unity   : 
01-20 11:49:56.145  1677    42 I Unity   : newMessages!
01-20 11:49:56.145  1677    42 I Unity   : System.Diagnostics.StackTrace:.ctor(Int32, Boolean)
01-20 11:49:56.145  1677    42 I Unity   : UnityEngine.StackTraceUtility:ExtractStackTrace()
01-20 11:49:56.145  1677    42 I Unity   : UnityEngine.XR.Tango.TangoInputTracking:.cctor()
01-20 11:49:56.145  1677    42 I Unity   : UnityEngine.DebugLogHandler:Internal_Log(LogType, String, Object)
01-20 11:49:56.145  1677    42 I Unity   : UnityEngine.DebugLogHandler:LogFormat(LogType, Object, String, Object[])
01-20 11:49:56.145  1677    42 I Unity   : UnityEngine.Logger:Log(LogType, Object)
01-20 11:49:56.145  1677    42 I Unity   : UnityEngine.Debug:Log(Object)
01-20 11:49:56.145  1677    42 I Unity   : OSC:Read()
01-20 11:49:56.145  1677    42 I Unity   : System.Threading.ThreadStart:Invoke()
01-20 11:49:56.145  1677    42 I Unity   : UnityEngine.ImageConversion:LoadImage(Texture2D, Byte[])
01-20 11:49:56.145  1677    42 I Unity   : UnityEngine.XR.Tango.TangoInputTracking:.cctor()
01-20 11:49:56.145  1677    42 I Unity   : UnityEngine.XR.Tango.TangoInputTracking:.cctor()
01-20 11:49:56.145  1677    42 I Unity   : UnityEngine.ImageConversion:LoadImage(Texture2D, Byte[])
01-20 11:49:56.145  1677    42 I Unity   : UnityEngine.ImageConversion:LoadImage(Texture2D, Byte[])
01-20 11:49:56.145  1677    42 I Unity   :  
01-20 11:49:56.145  1677    42 I Unity   : (Filename: C:/buildslave/unity/build\Runtime/Export/Debug.bindings.h Line: 43)
01-20 11:49:56.145  1677    42 I Unity   : 
01-20 11:49:56.158  1677    42 I Unity   : System.Collections.ArrayList
01-20 11:49:56.158  1677    42 I Unity   : System.Diagnostics.StackTrace:.ctor(Int32, Boolean)
01-20 11:49:56.158  1677    42 I Unity   : UnityEngine.StackTraceUtility:ExtractStackTrace()
01-20 11:49:56.158  1677    42 I Unity   : UnityEngine.XR.Tango.TangoInputTracking:.cctor()
01-20 11:49:56.158  1677    42 I Unity   : UnityEngine.DebugLogHandler:Internal_Log(LogType, String, Object)
01-20 11:49:56.158  1677    42 I Unity   : UnityEngine.DebugLogHandler:LogFormat(LogType, Object, String, Object[])
01-20 11:49:56.158  1677    42 I Unity   : UnityEngine.Logger:Log(LogType, Object)
01-20 11:49:56.158  1677    42 I Unity   : UnityEngine.Debug:Log(Object)
01-20 11:49:56.158  1677    42 I Unity   : OSC:Read()
01-20 11:49:56.158  1677    42 I Unity   : System.Threading.ThreadStart:Invoke()
01-20 11:49:56.158  1677    42 I Unity   : UnityEngine.ImageConversion:LoadImage(Texture2D, Byte[])
01-20 11:49:56.158  1677    42 I Unity   : UnityEngine.XR.Tango.TangoInputTracking:.cctor()
01-20 11:49:56.158  1677    42 I Unity   : UnityEngine.XR.Tango.TangoInputTracking:.cctor()
01-20 11:49:56.158  1677    42 I Unity   : UnityEngine.ImageConversion:LoadImage(Texture2D, Byte[])
01-20 11:49:56.158  1677    42 I Unity   : UnityEngine.ImageConversion:LoadImage(Texture2D, Byte[])
01-20 11:49:56.158  1677    42 I Unity   :  
01-20 11:49:56.158  1677    42 I Unity   : (Filename: C:/buildslave/unity/build\Runtime/Export/Debug.bindings.h Line: 43)
01-20 11:49:56.158  1677    42 I Unity   : 
01-20 11:49:56.168  1677    42 I Unity   : Read 3
01-20 11:49:56.168  1677    42 I Unity   : System.Diagnostics.StackTrace:.ctor(Int32, Boolean)
01-20 11:49:56.168  1677    42 I Unity   : UnityEngine.StackTraceUtility:ExtractStackTrace()
01-20 11:49:56.168  1677    42 I Unity   : UnityEngine.XR.Tango.TangoInputTracking:.cctor()
01-20 11:49:56.168  1677    42 I Unity   : UnityEngine.DebugLogHandler:Internal_Log(LogType, String, Object)
01-20 11:49:56.168  1677    42 I Unity   : UnityEngine.DebugLogHandler:LogFormat(LogType, Object, String, Object[])
01-20 11:49:56.168  1677    42 I Unity   : UnityEngine.Logger:Log(LogType, Object)
01-20 11:49:56.168  1677    42 I Unity   : UnityEngine.Debug:Log(Object)
01-20 11:49:56.168  1677    42 I Unity   : OSC:Read()
01-20 11:49:56.168  1677    42 I Unity   : System.Threading.ThreadStart:Invoke()
01-20 11:49:56.168  1677    42 I Unity   : UnityEngine.ImageConversion:LoadImage(Texture2D, Byte[])
01-20 11:49:56.168  1677    42 I Unity   : UnityEngine.XR.Tango.TangoInputTracking:.cctor()
01-20 11:49:56.168  1677    42 I Unity   : UnityEngine.XR.Tango.TangoInputTracking:.cctor()
01-20 11:49:56.168  1677    42 I Unity   : UnityEngine.ImageConversion:LoadImage(Texture2D, Byte[])
01-20 11:49:56.168  1677    42 I Unity   : UnityEngine.ImageConversion:LoadImage(Texture2D, Byte[])
01-20 11:49:56.168  1677    42 I Unity   :  
01-20 11:49:56.168  1677    42 I Unity   : (Filename: C:/buildslave/unity/build\Runtime/Export/Debug.bindings.h Line: 43)
01-20 11:49:56.168  1677    42 I Unity   : 
01-20 11:49:56.181  1677    42 I Unity   : ReceivePacket!
01-20 11:49:56.181  1677    42 I Unity   : System.Diagnostics.StackTrace:.ctor(Int32, Boolean)
01-20 11:49:56.181  1677    42 I Unity   : UnityEngine.StackTraceUtility:ExtractStackTrace()
01-20 11:49:56.181  1677    42 I Unity   : UnityEngine.XR.Tango.TangoInputTracking:.cctor()
01-20 11:49:56.181  1677    42 I Unity   : UnityEngine.DebugLogHandler:Internal_Log(LogType, String, Object)
01-20 11:49:56.181  1677    42 I Unity   : UnityEngine.DebugLogHandler:LogFormat(LogType, Object, String, Object[])
01-20 11:49:56.181  1677    42 I Unity   : UnityEngine.Logger:Log(LogType, Object)
01-20 11:49:56.181  1677    42 I Unity   : UnityEngine.Debug:Log(Object)
01-20 11:49:56.181  1677    42 I Unity   : UDPPacketIO:ReceivePacket(Byte[])
01-20 11:49:56.181  1677    42 I Unity   : OSC:Read()
01-20 11:49:56.181  1677    42 I Unity   : System.Threading.ThreadStart:Invoke()
01-20 11:49:56.181  1677    42 I Unity   : UnityEngine.ImageConversion:LoadImage(Texture2D, Byte[])
01-20 11:49:56.181  1677    42 I Unity   : UnityEngine.XR.Tango.TangoInputTracking:.cctor()
01-20 11:49:56.181  1677    42 I Unity   : UnityEngine.XR.Tango.TangoInputTracking:.cctor()
01-20 11:49:56.181  1677    42 I Unity   : UnityEngine.ImageConversion:LoadImage(Texture2D, Byte[])
01-20 11:49:56.181  1677    42 I Unity   : UnityEngine.ImageConversion:LoadImage(Texture2D, Byte[])
01-20 11:49:56.181  1677    42 I Unity   :  
01-20 11:49:56.181  1677    42 I Unity   : (Filename: C:/buildslave/unity/build\Runtime/Export/Debug.bindings.h Line: 43)
01-20 11:49:56.181  1677    42 I Unity   : 
01-20 11:49:56.193  1677    42 I Unity   : True
01-20 11:49:56.193  1677    42 I Unity   : System.Diagnostics.StackTrace:.ctor(Int32, Boolean)
01-20 11:49:56.193  1677    42 I Unity   : UnityEngine.StackTraceUtility:ExtractStackTrace()
01-20 11:49:56.193  1677    42 I Unity   : UnityEngine.XR.Tango.TangoInputTracking:.cctor()
01-20 11:49:56.193  1677    42 I Unity   : UnityEngine.DebugLogHandler:Internal_Log(LogType, String, Object)
01-20 11:49:56.193  1677    42 I Unity   : UnityEngine.DebugLogHandler:LogFormat(LogType, Object, String, Object[])
01-20 11:49:56.193  1677    42 I Unity   : UnityEngine.Logger:Log(LogType, Object)
01-20 11:49:56.193  1677    42 I Unity   : UnityEngine.Debug:Log(Object)
01-20 11:49:56.193  1677    42 I Unity   : UDPPacketIO:ReceivePacket(Byte[])
01-20 11:49:56.193  1677    42 I Unity   : OSC:Read()
01-20 11:49:56.193  1677    42 I Unity   : System.Threading.ThreadStart:Invoke()
01-20 11:49:56.193  1677    42 I Unity   : UnityEngine.ImageConversion:LoadImage(Texture2D, Byte[])
01-20 11:49:56.193  1677    42 I Unity   : UnityEngine.XR.Tango.TangoInputTracking:.cctor()
01-20 11:49:56.193  1677    42 I Unity   : UnityEngine.XR.Tango.TangoInputTracking:.cctor()
01-20 11:49:56.193  1677    42 I Unity   : UnityEngine.ImageConversion:LoadImage(Texture2D, Byte[])
01-20 11:49:56.193  1677    42 I Unity   : UnityEngine.ImageConversion:LoadImage(Texture2D, Byte[])
01-20 11:49:56.193  1677    42 I Unity   :  
01-20 11:49:56.193  1677    42 I Unity   : (Filename: C:/buildslave/unity/build\Runtime/Export/Debug.bindings.h Line: 43)
01-20 11:49:56.193  1677    42 I Unity   : 
01-20 11:49:56.207  1677    42 I Unity   : Count = 56
01-20 11:49:56.207  1677    42 I Unity   : System.Diagnostics.StackTrace:.ctor(Int32, Boolean)
01-20 11:49:56.207  1677    42 I Unity   : UnityEngine.StackTraceUtility:ExtractStackTrace()
01-20 11:49:56.207  1677    42 I Unity   : UnityEngine.XR.Tango.TangoInputTracking:.cctor()
01-20 11:49:56.207  1677    42 I Unity   : UnityEngine.DebugLogHandler:Internal_Log(LogType, String, Object)
01-20 11:49:56.207  1677    42 I Unity   : UnityEngine.DebugLogHandler:LogFormat(LogType, Object, String, Object[])
01-20 11:49:56.207  1677    42 I Unity   : UnityEngine.Logger:Log(LogType, Object)
01-20 11:49:56.207  1677    42 I Unity   : UnityEngine.Debug:Log(Object)
01-20 11:49:56.207  1677    42 I Unity   : UDPPacketIO:ReceivePacket(Byte[])
01-20 11:49:56.207  1677    42 I Unity   : OSC:Read()
01-20 11:49:56.207  1677    42 I Unity   : System.Threading.ThreadStart:Invoke()
01-20 11:49:56.207  1677    42 I Unity   : UnityEngine.ImageConversion:LoadImage(Texture2D, Byte[])
01-20 11:49:56.207  1677    42 I Unity   : UnityEngine.XR.Tango.TangoInputTracking:.cctor()
01-20 11:49:56.207  1677    42 I Unity   : UnityEngine.XR.Tango.TangoInputTracking:.cctor()
01-20 11:49:56.207  1677    42 I Unity   : UnityEngine.ImageConversion:LoadImage(Texture2D, Byte[])
01-20 11:49:56.207  1677    42 I Unity   : UnityEngine.ImageConversion:LoadImage(Texture2D, Byte[])
01-20 11:49:56.207  1677    42 I Unity   :  
01-20 11:49:56.207  1677    42 I Unity   : (Filename: C:/buildslave/unity/build\Runtime/Export/Debug.bindings.h Line: 43)
01-20 11:49:56.207  1677    42 I Unity   : 
01-20 11:49:56.219  1677    42 I Unity   : Read 4
01-20 11:49:56.219  1677    42 I Unity   : System.Diagnostics.StackTrace:.ctor(Int32, Boolean)
01-20 11:49:56.219  1677    42 I Unity   : UnityEngine.StackTraceUtility:ExtractStackTrace()
01-20 11:49:56.219  1677    42 I Unity   : UnityEngine.XR.Tango.TangoInputTracking:.cctor()
01-20 11:49:56.219  1677    42 I Unity   : UnityEngine.DebugLogHandler:Internal_Log(LogType, String, Object)
01-20 11:49:56.219  1677    42 I Unity   : UnityEngine.DebugLogHandler:LogFormat(LogType, Object, String, Object[])
01-20 11:49:56.219  1677    42 I Unity   : UnityEngine.Logger:Log(LogType, Object)
01-20 11:49:56.219  1677    42 I Unity   : UnityEngine.Debug:Log(Object)
01-20 11:49:56.219  1677    42 I Unity   : OSC:Read()
01-20 11:49:56.219  1677    42 I Unity   : System.Threading.ThreadStart:Invoke()
01-20 11:49:56.219  1677    42 I Unity   : UnityEngine.ImageConversion:LoadImage(Texture2D, Byte[])
01-20 11:49:56.219  1677    42 I Unity   : UnityEngine.XR.Tango.TangoInputTracking:.cctor()
01-20 11:49:56.219  1677    42 I Unity   : UnityEngine.XR.Tango.TangoInputTracking:.cctor()
01-20 11:49:56.219  1677    42 I Unity   : UnityEngine.ImageConversion:LoadImage(Texture2D, Byte[])
01-20 11:49:56.219  1677    42 I Unity   : UnityEngine.ImageConversion:LoadImage(Texture2D, Byte[])
01-20 11:49:56.219  1677    42 I Unity   :  
01-20 11:49:56.219  1677    42 I Unity   : (Filename: C:/buildslave/unity/build\Runtime/Export/Debug.bindings.h Line: 43)
01-20 11:49:56.219  1677    42 I Unity   : 
01-20 11:49:56.231  1677    42 I Unity   : Read 5
01-20 11:49:56.231  1677    42 I Unity   : System.Diagnostics.StackTrace:.ctor(Int32, Boolean)
01-20 11:49:56.231  1677    42 I Unity   : UnityEngine.StackTraceUtility:ExtractStackTrace()
01-20 11:49:56.231  1677    42 I Unity   : UnityEngine.XR.Tango.TangoInputTracking:.cctor()
01-20 11:49:56.231  1677    42 I Unity   : UnityEngine.DebugLogHandler:Internal_Log(LogType, String, Object)
01-20 11:49:56.231  1677    42 I Unity   : UnityEngine.DebugLogHandler:LogFormat(LogType, Object, String, Object[])
01-20 11:49:56.231  1677    42 I Unity   : UnityEngine.Logger:Log(LogType, Object)
