01-20 11:50:32.894  1677    42 I Unity   : System.Collections.ArrayList
01-20 11:50:32.894  1677    42 I Unity   : System.Diagnostics.StackTrace:.ctor(Int32, Boolean)
01-20 11:50:32.894  1677    42 I Unity   : UnityEngine.StackTraceUtility:ExtractStackTrace()
01-20 11:50:32.894  1677    42 I Unity   : UnityEngine.XR.Tango.TangoInputTracking:.cctor()
01-20 11:50:32.894  1677    42 I Unity   : UnityEngine.DebugLogHandler:Internal_Log(LogType, String, Object)
01-20 11:50:32.894  1677    42 I Unity   : UnityEngine.DebugLogHandler:LogFormat(LogType, Object, String, Object[])
01-20 11:50:32.894  1677    42 I Unity   : UnityEngine.Logger:Log(LogType, Object)
01-20 11:50:32.894  1677    42 I Unity   : UnityEngine.Debug:Log(Object)
01-20 11:50:32.894  1677    42 I Unity   : OSC:Read()
01-20 11:50:32.894  1677    42 I Unity   : System.Threading.ThreadStart:Invoke()
01-20 11:50:32.894  1677    42 I Unity   : UnityEngine.ImageConversion:LoadImage(Texture2D, Byte[])
01-20 11:50:32.894  1677    42 I Unity   : UnityEngine.XR.Tango.TangoInputTracking:.cctor()
01-20 11:50:32.894  1677    42 I Unity   : UnityEngine.XR.Tango.TangoInputTracking:.cctor()
01-20 11:50:32.894  1677    42 I Unity   : UnityEngine.ImageConversion:LoadImage(Texture2D, Byte[])
01-20 11:50:32.894  1677    42 I Unity   : UnityEngine.ImageConversion:LoadImage(Texture2D, Byte[])
01-20 11:50:32.894  1677    42 I Unity   :  
01-20 11:50:32.894  1677    42 I Unity   : (Filename: C:/buildslave/unity/build\Runtime/Export/Debug.bindings.h Line: 43)
01-20 11:50:32.894  1677    42 I Unity   : 
01-20 11:50:32.904  1677    42 I Unity   : Read 3
01-20 11:50:32.904  1677    42 I Unity   : System.Diagnostics.StackTrace:.ctor(Int32, Boolean)
01-20 11:50:32.904  1677    42 I Unity   : UnityEngine.StackTraceUtility:ExtractStackTrace()
01-20 11:50:32.904  1677    42 I Unity   : UnityEngine.XR.Tango.TangoInputTracking:.cctor()
01-20 11:50:32.904  1677    42 I Unity   : UnityEngine.DebugLogHandler:Internal_Log(LogType, String, Object)
01-20 11:50:32.904  1677    42 I Unity   : UnityEngine.DebugLogHandler:LogFormat(LogType, Object, String, Object[])
01-20 11:50:32.904  1677    42 I Unity   : UnityEngine.Logger:Log(LogType, Object)
01-20 11:50:32.904  1677    42 I Unity   : UnityEngine.Debug:Log(Object)
01-20 11:50:32.904  1677    42 I Unity   : OSC:Read()
01-20 11:50:32.904  1677    42 I Unity   : System.Threading.ThreadStart:Invoke()
01-20 11:50:32.904  1677    42 I Unity   : UnityEngine.ImageConversion:LoadImage(Texture2D, Byte[])
01-20 11:50:32.904  1677    42 I Unity   : UnityEngine.XR.Tango.TangoInputTracking:.cctor()
01-20 11:50:32.904  1677    42 I Unity   : UnityEngine.XR.Tango.TangoInputTracking:.cctor()
01-20 11:50:32.904  1677    42 I Unity   : UnityEngine.ImageConversion:LoadImage(Texture2D, Byte[])
01-20 11:50:32.904  1677    42 I Unity   : UnityEngine.ImageConversion:LoadImage(Texture2D, Byte[])
01-20 11:50:32.904  1677    42 I Unity   :  
01-20 11:50:32.904  1677    42 I Unity   : (Filename: C:/buildslave/unity/build\Runtime/Export/Debug.bindings.h Line: 43)
01-20 11:50:32.904  1677    42 I Unity   : 
01-20 11:50:32.915  1677    42 I Unity   : ReceivePacket!
01-20 11:50:32.915  1677    42 I Unity   : System.Diagnostics.StackTrace:.ctor(Int32, Boolean)
01-20 11:50:32.915  1677    42 I Unity   : UnityEngine.StackTraceUtility:ExtractStackTrace()
01-20 11:50:32.915  1677    42 I Unity   : UnityEngine.XR.Tango.TangoInputTracking:.cctor()
01-20 11:50:32.915  1677    42 I Unity   : UnityEngine.DebugLogHandler:Internal_Log(LogType, String, Object)
01-20 11:50:32.915  1677    42 I Unity   : UnityEngine.DebugLogHandler:LogFormat(LogType, Object, String, Object[])
01-20 11:50:32.915  1677    42 I Unity   : UnityEngine.Logger:Log(LogType, Object)
01-20 11:50:32.915  1677    42 I Unity   : UnityEngine.Debug:Log(Object)
01-20 11:50:32.915  1677    42 I Unity   : UDPPacketIO:ReceivePacket(Byte[])
01-20 11:50:32.915  1677    42 I Unity   : OSC:Read()
01-20 11:50:32.915  1677    42 I Unity   : System.Threading.ThreadStart:Invoke()
01-20 11:50:32.915  1677    42 I Unity   : UnityEngine.ImageConversion:LoadImage(Texture2D, Byte[])
01-20 11:50:32.915  1677    42 I Unity   : UnityEngine.XR.Tango.TangoInputTracking:.cctor()
01-20 11:50:32.915  1677    42 I Unity   : UnityEngine.XR.Tango.TangoInputTracking:.cctor()
01-20 11:50:32.915  1677    42 I Unity   : UnityEngine.ImageConversion:LoadImage(Texture2D, Byte[])
01-20 11:50:32.915  1677    42 I Unity   : UnityEngine.ImageConversion:LoadImage(Texture2D, Byte[])
01-20 11:50:32.915  1677    42 I Unity   :  
01-20 11:50:32.915  1677    42 I Unity   : (Filename: C:/buildslave/unity/build\Runtime/Export/Debug.bindings.h Line: 43)
01-20 11:50:32.915  1677    42 I Unity   : 
01-20 11:50:32.925  1677    42 I Unity   : True
01-20 11:50:32.925  1677    42 I Unity   : System.Diagnostics.StackTrace:.ctor(Int32, Boolean)
01-20 11:50:32.925  1677    42 I Unity   : UnityEngine.StackTraceUtility:ExtractStackTrace()
01-20 11:50:32.925  1677    42 I Unity   : UnityEngine.XR.Tango.TangoInputTracking:.cctor()
01-20 11:50:32.925  1677    42 I Unity   : UnityEngine.DebugLogHandler:Internal_Log(LogType, String, Object)
01-20 11:50:32.925  1677    42 I Unity   : UnityEngine.DebugLogHandler:LogFormat(LogType, Object, String, Object[])
01-20 11:50:32.925  1677    42 I Unity   : UnityEngine.Logger:Log(LogType, Object)
01-20 11:50:32.925  1677    42 I Unity   : UnityEngine.Debug:Log(Object)
01-20 11:50:32.925  1677    42 I Unity   : UDPPacketIO:ReceivePacket(Byte[])
01-20 11:50:32.925  1677    42 I Unity   : OSC:Read()
01-20 11:50:32.925  1677    42 I Unity   : System.Threading.ThreadStart:Invoke()
01-20 11:50:32.925  1677    42 I Unity   : UnityEngine.ImageConversion:LoadImage(Texture2D, Byte[])
01-20 11:50:32.925  1677    42 I Unity   : UnityEngine.XR.Tango.TangoInputTracking:.cctor()
01-20 11:50:32.925  1677    42 I Unity   : UnityEngine.XR.Tango.TangoInputTracking:.cctor()
01-20 11:50:32.925  1677    42 I Unity   : UnityEngine.ImageConversion:LoadImage(Texture2D, Byte[])
01-20 11:50:32.925  1677    42 I Unity   : UnityEngine.ImageConversion:LoadImage(Texture2D, Byte[])
01-20 11:50:32.925  1677    42 I Unity   :  
01-20 11:50:32.925  1677    42 I Unity   : (Filename: C:/buildslave/unity/build\Runtime/Export/Debug.bindings.h Line: 43)
01-20 11:50:32.925  1677    42 I Unity   : 
01-20 11:50:32.937  1677    42 I Unity   : Count = 48
01-20 11:50:32.937  1677    42 I Unity   : System.Diagnostics.StackTrace:.ctor(Int32, Boolean)
01-20 11:50:32.937  1677    42 I Unity   : UnityEngine.StackTraceUtility:ExtractStackTrace()
01-20 11:50:32.937  1677    42 I Unity   : UnityEngine.XR.Tango.TangoInputTracking:.cctor()
01-20 11:50:32.937  1677    42 I Unity   : UnityEngine.DebugLogHandler:Internal_Log(LogType, String, Object)
01-20 11:50:32.937  1677    42 I Unity   : UnityEngine.DebugLogHandler:LogFormat(LogType, Object, String, Object[])
01-20 11:50:32.937  1677    42 I Unity   : UnityEngine.Logger:Log(LogType, Object)
01-20 11:50:32.937  1677    42 I Unity   : UnityEngine.Debug:Log(Object)
01-20 11:50:32.937  1677    42 I Unity   : UDPPacketIO:ReceivePacket(Byte[])
01-20 11:50:32.937  1677    42 I Unity   : OSC:Read()
01-20 11:50:32.937  1677    42 I Unity   : System.Threading.ThreadStart:Invoke()
01-20 11:50:32.937  1677    42 I Unity   : UnityEngine.ImageConversion:LoadImage(Texture2D, Byte[])
01-20 11:50:32.937  1677    42 I Unity   : UnityEngine.XR.Tango.TangoInputTracking:.cctor()
01-20 11:50:32.937  1677    42 I Unity   : UnityEngine.XR.Tango.TangoInputTracking:.cctor()
01-20 11:50:32.937  1677    42 I Unity   : UnityEngine.ImageConversion:LoadImage(Texture2D, Byte[])
01-20 11:50:32.937  1677    42 I Unity   : UnityEngine.ImageConversion:LoadImage(Texture2D, Byte[])
01-20 11:50:32.937  1677    42 I Unity   :  
01-20 11:50:32.937  1677    42 I Unity   : (Filename: C:/buildslave/unity/build\Runtime/Export/Debug.bindings.h Line: 43)
01-20 11:50:32.937  1677    42 I Unity   : 
01-20 11:50:32.947  1677    42 I Unity   : Read 4
01-20 11:50:32.947  1677    42 I Unity   : System.Diagnostics.StackTrace:.ctor(Int32, Boolean)
01-20 11:50:32.947  1677    42 I Unity   : UnityEngine.StackTraceUtility:ExtractStackTrace()
01-20 11:50:32.947  1677    42 I Unity   : UnityEngine.XR.Tango.TangoInputTracking:.cctor()
01-20 11:50:32.947  1677    42 I Unity   : UnityEngine.DebugLogHandler:Internal_Log(LogType, String, Object)
01-20 11:50:32.947  1677    42 I Unity   : UnityEngine.DebugLogHandler:LogFormat(LogType, Object, String, Object[])
01-20 11:50:32.947  1677    42 I Unity   : UnityEngine.Logger:Log(LogType, Object)
01-20 11:50:32.947  1677    42 I Unity   : UnityEngine.Debug:Log(Object)
01-20 11:50:32.947  1677    42 I Unity   : OSC:Read()
01-20 11:50:32.947  1677    42 I Unity   : System.Threading.ThreadStart:Invoke()
01-20 11:50:32.947  1677    42 I Unity   : UnityEngine.ImageConversion:LoadImage(Texture2D, Byte[])
01-20 11:50:32.947  1677    42 I Unity   : UnityEngine.XR.Tango.TangoInputTracking:.cctor()
01-20 11:50:32.947  1677    42 I Unity   : UnityEngine.XR.Tango.TangoInputTracking:.cctor()
01-20 11:50:32.947  1677    42 I Unity   : UnityEngine.ImageConversion:LoadImage(Texture2D, Byte[])
01-20 11:50:32.947  1677    42 I Unity   : UnityEngine.ImageConversion:LoadImage(Texture2D, Byte[])
01-20 11:50:32.947  1677    42 I Unity   :  
01-20 11:50:32.947  1677    42 I Unity   : (Filename: C:/buildslave/unity/build\Runtime/Export/Debug.bindings.h Line: 43)
01-20 11:50:32.947  1677    42 I Unity   : 
01-20 11:50:32.957  1677    42 I Unity   : Read 5
01-20 11:50:32.957  1677    42 I Unity   : System.Diagnostics.StackTrace:.ctor(Int32, Boolean)
01-20 11:50:32.957  1677    42 I Unity   : UnityEngine.StackTraceUtility:ExtractStackTrace()
01-20 11:50:32.957  1677    42 I Unity   : UnityEngine.XR.Tango.TangoInputTracking:.cctor()
01-20 11:50:32.957  1677    42 I Unity   : UnityEngine.DebugLogHandler:Internal_Log(LogType, String, Object)
01-20 11:50:32.957  1677    42 I Unity   : UnityEngine.DebugLogHandler:LogFormat(LogType, Object, String, Object[])
01-20 11:50:32.957  1677    42 I Unity   : UnityEngine.Logger:Log(LogType, Object)
01-20 11:50:32.957  1677    42 I Unity   : UnityEngine.Debug:Log(Object)
01-20 11:50:32.957  1677    42 I Unity   : OSC:Read()
01-20 11:50:32.957  1677    42 I Unity   : System.Threading.ThreadStart:Invoke()
01-20 11:50:32.957  1677    42 I Unity   : UnityEngine.ImageConversion:LoadImage(Texture2D, Byte[])
01-20 11:50:32.957  1677    42 I Unity   : UnityEngine.XR.Tango.TangoInputTracking:.cctor()
01-20 11:50:32.957  1677    42 I Unity   : UnityEngine.XR.Tango.TangoInputTracking:.cctor()
01-20 11:50:32.957  1677    42 I Unity   : UnityEngine.ImageConversion:LoadImage(Texture2D, Byte[])
01-20 11:50:32.957  1677    42 I Unity   : UnityEngine.ImageConversion:LoadImage(Texture2D, Byte[])
01-20 11:50:32.957  1677    42 I Unity   :  
01-20 11:50:32.957  1677    42 I Unity   : (Filename: C:/buildslave/unity/build\Runtime/Export/Debug.bindings.h Line: 43)
01-20 11:50:32.957  1677    42 I Unity   : 
01-20 11:50:32.968  1677    42 I Unity   : Read 6
01-20 11:50:32.968  1677    42 I Unity   : System.Diagnostics.StackTrace:.ctor(Int32, Boolean)
01-20 11:50:32.968  1677    42 I Unity   : UnityEngine.StackTraceUtility:ExtractStackTrace()
01-20 11:50:32.968  1677    42 I Unity   : UnityEngine.XR.Tango.TangoInputTracking:.cctor()
01-20 11:50:32.968  1677    42 I Unity   : UnityEngine.DebugLogHandler:Internal_Log(LogType, String, Object)
01-20 11:50:32.968  1677    42 I Unity   : UnityEngine.DebugLogHandler:LogFormat(LogType, Object, String, Object[])
01-20 11:50:32.968  1677    42 I Unity   : UnityEngine.Logger:Log(LogType, Object)
01-20 11:50:32.968  1677    42 I Unity   : UnityEngine.Debug:Log(Object)
01-20 11:50:32.968  1677    42 I Unity   : OSC:Read()
01-20 11:50:32.968  1677    42 I Unity   : System.Threading.ThreadStart:Invoke()
01-20 11:50:32.968  1677    42 I Unity   : UnityEngine.ImageConversion:LoadImage(Texture2D, Byte[])
01-20 11:50:32.968  1677    42 I Unity   : UnityEngine.XR.Tango.TangoInputTracking:.cctor()
01-20 11:50:32.968  1677    42 I Unity   : UnityEngine.XR.Tango.TangoInputTracking:.cctor()
01-20 11:50:32.968  1677    42 I Unity   : UnityEngine.ImageConversion:LoadImage(Texture2D, Byte[])
01-20 11:50:32.968  1677    42 I Unity   : UnityEngine.ImageConversion:LoadImage(Texture2D, Byte[])
01-20 11:50:32.968  1677    42 I Unity   :  
01-20 11:50:32.968  1677    42 I Unity   : (Filename: C:/buildslave/unity/build\Runtime/Export/Debug.bindings.h Line: 43)
01-20 11:50:32.968  1677    42 I Unity   : 
01-20 11:50:32.977  1677    42 I Unity   : newMessages!
01-20 11:50:32.977  1677    42 I Unity   : System.Diagnostics.StackTrace:.ctor(Int32, Boolean)
01-20 11:50:32.977  1677    42 I Unity   : UnityEngine.StackTraceUtility:ExtractStackTrace()
01-20 11:50:32.977  1677    42 I Unity   : UnityEngine.XR.Tango.TangoInputTracking:.cctor()
01-20 11:50:32.977  1677    42 I Unity   : UnityEngine.DebugLogHandler:Internal_Log(LogType, String, Object)
01-20 11:50:32.977  1677    42 I Unity   : UnityEngine.DebugLogHandler:LogFormat(LogType, Object, String, Object[])
01-20 11:50:32.977  1677    42 I Unity   : UnityEngine.Logger:Log(LogType, Object)
01-20 11:50:32.977  1677    42 I Unity   : UnityEngine.Debug:Log(Object)
01-20 11:50:32.977  1677    42 I Unity   : OSC:Read()
01-20 11:50:32.977  1677    42 I Unity   : System.Threading.ThreadStart:Invoke()
01-20 11:50:32.977  1677    42 I Unity   : UnityEngine.ImageConversion:LoadImage(Texture2D, Byte[])
01-20 11:50:32.977  1677    42 I Unity   : UnityEngine.XR.Tango.TangoInputTracking:.cctor()
01-20 11:50:32.977  1677    42 I Unity   : UnityEngine.XR.Tango.TangoInputTracking:.cctor()
01-20 11:50:32.977  1677    42 I Unity   : UnityEngine.ImageConversion:LoadImage(Texture2D, Byte[])
01-20 11:50:32.977  1677    42 I Unity   : UnityEngine.ImageConversion:LoadImage(Texture2D, Byte[])
01-20 11:50:32.977  1677    42 I Unity   :  
01-20 11:50:32.977  1677    42 I Unity   : (Filename: C:/buildslave/unity/build\Runtime/Export/Debug.bindings.h Line: 43)
01-20 11:50:32.977  1677    42 I Unity   : 
01-20 11:50:32.987  1677    42 I Unity   : System.Collections.ArrayList
01-20 11:50:32.987  1677    42 I Unity   : System.Diagnostics.StackTrace:.ctor(Int32, Boolean)
01-20 11:50:32.987  1677    42 I Unity   : UnityEngine.StackTraceUtility:ExtractStackTrace()
01-20 11:50:32.987  1677    42 I Unity   : UnityEngine.XR.Tango.TangoInputTracking:.cctor()
01-20 11:50:32.987  1677    42 I Unity   : UnityEngine.DebugLogHandler:Internal_Log(LogType, String, Object)
01-20 11:50:32.987  1677    42 I Unity   : UnityEngine.DebugLogHandler:LogFormat(LogType, Object, String, Object[])
01-20 11:50:32.987  1677    42 I Unity   : UnityEngine.Logger:Log(LogType, Object)
01-20 11:50:32.987  1677    42 I Unity   : UnityEngine.Debug:Log(Object)
01-20 11:50:32.987  1677    42 I Unity   : OSC:Read()
01-20 11:50:32.987  1677    42 I Unity   : System.Threading.ThreadStart:Invoke()
01-20 11:50:32.987  1677    42 I Unity   : UnityEngine.ImageConversion:LoadImage(Texture2D, Byte[])
01-20 11:50:32.987  1677    42 I Unity   : UnityEngine.XR.Tango.TangoInputTracking:.cctor()
01-20 11:50:32.987  1677    42 I Unity   : UnityEngine.XR.Tango.TangoInputTracking:.cctor()
01-20 11:50:32.987  1677    42 I Unity   : UnityEngine.ImageConversion:LoadImage(Texture2D, Byte[])
01-20 11:50:32.987  1677    42 I Unity   : UnityEngine.ImageConversion:LoadImage(Texture2D, Byte[])
01-20 11:50:32.987  1677    42 I Unity   :  
01-20 11:50:32.987  1677    42 I Unity   : (Filename: C:/buildslave/unity/build\Runtime/Export/Debug.bindings.h Line: 43)
01-20 11:50:32.987  1677    42 I Unity   : 
01-20 11:50:32.997  1677    42 I Unity   : Read 3
01-20 11:50:32.997  1677    42 I Unity   : System.Diagnostics.StackTrace:.ctor(Int32, Boolean)
01-20 11:50:32.997  1677    42 I Unity   : UnityEngine.StackTraceUtility:ExtractStackTrace()
01-20 11:50:32.997  1677    42 I Unity   : UnityEngine.XR.Tango.TangoInputTracking:.cctor()
01-20 11:50:32.997  1677    42 I Unity   : UnityEngine.DebugLogHandler:Internal_Log(LogType, String, Object)
01-20 11:50:32.997  1677    42 I Unity   : UnityEngine.DebugLogHandler:LogFormat(LogType, Object, String, Object[])
01-20 11:50:32.997  1677    42 I Unity   : UnityEngine.Logger:Log(LogType, Object)
01-20 11:50:32.997  1677    42 I Unity   : UnityEngine.Debug:Log(Object)
01-20 11:50:32.997  1677    42 I Unity   : OSC:Read()
01-20 11:50:32.997  1677    42 I Unity   : System.Threading.ThreadStart:Invoke()
01-20 11:50:32.997  1677    42 I Unity   : UnityEngine.ImageConversion:LoadImage(Texture2D, Byte[])
01-20 11:50:32.997  1677    42 I Unity   : UnityEngine.XR.Tango.TangoInputTracking:.cctor()
01-20 11:50:32.997  1677    42 I Unity   : UnityEngine.XR.Tango.TangoInputTracking:.cctor()
01-20 11:50:32.997  1677    42 I Unity   : UnityEngine.ImageConversion:LoadImage(Texture2D, Byte[])
01-20 11:50:32.997  1677    42 I Unity   : UnityEngine.ImageConversion:LoadImage(Texture2D, Byte[])
01-20 11:50:32.997  1677    42 I Unity   :  
01-20 11:50:32.997  1677    42 I Unity   : (Filename: C:/buildslave/unity/build\Runtime/Export/Debug.bindings.h Line: 43)
01-20 11:50:32.997  1677    42 I Unity   : 
01-20 11:50:33.007  1677    42 I Unity   : ReceivePacket!
01-20 11:50:33.007  1677    42 I Unity   : System.Diagnostics.StackTrace:.ctor(Int32, Boolean)
01-20 11:50:33.007  1677    42 I Unity   : UnityEngine.StackTraceUtility:ExtractStackTrace()
01-20 11:50:33.007  1677    42 I Unity   : UnityEngine.XR.Tango.TangoInputTracking:.cctor()
01-20 11:50:33.007  1677    42 I Unity   : UnityEngine.DebugLogHandler:Internal_Log(LogType, String, Object)
01-20 11:50:33.007  1677    42 I Unity   : UnityEngine.DebugLogHandler:LogFormat(LogType, Object, String, Object[])
01-20 11:50:33.007  1677    42 I Unity   : UnityEngine.Logger:Log(LogType, Object)
01-20 11:50:33.007  1677    42 I Unity   : UnityEngine.Debug:Log(Object)
01-20 11:50:33.007  1677    42 I Unity   : UDPPacketIO:ReceivePacket(Byte[])
01-20 11:50:33.007  1677    42 I Unity   : OSC:Read()
01-20 11:50:33.007  1677    42 I Unity   : System.Threading.ThreadStart:Invoke()
01-20 11:50:33.007  1677    42 I Unity   : UnityEngine.ImageConversion:LoadImage(Texture2D, Byte[])
01-20 11:50:33.007  1677    42 I Unity   : UnityEngine.XR.Tango.TangoInputTracking:.cctor()
01-20 11:50:33.007  1677    42 I Unity   : UnityEngine.XR.Tango.TangoInputTracking:.cctor()
01-20 11:50:33.007  1677    42 I Unity   : UnityEngine.ImageConversion:LoadImage(Texture2D, Byte[])
01-20 11:50:33.007  1677    42 I Unity   : UnityEngine.ImageConversion:LoadImage(Texture2D, Byte[])
01-20 11:50:33.007  1677    42 I Unity   :  
01-20 11:50:33.007  1677    42 I Unity   : (Filename: C:/buildslave/unity/build\Runtime/Export/Debug.bindings.h Line: 43)
01-20 11:50:33.007  1677    42 I Unity   : 
01-20 11:50:33.019  1677    42 I Unity   : True
01-20 11:50:33.019  1677    42 I Unity   : System.Diagnostics.StackTrace:.ctor(Int32, Boolean)
01-20 11:50:33.019  1677    42 I Unity   : UnityEngine.StackTraceUtility:ExtractStackTrace()
01-20 11:50:33.019  1677    42 I Unity   : UnityEngine.XR.Tango.TangoInputTracking:.cctor()
01-20 11:50:33.019  1677    42 I Unity   : UnityEngine.DebugLogHandler:Internal_Log(LogType, String, Object)
01-20 11:50:33.019  1677    42 I Unity   : UnityEngine.DebugLogHandler:LogFormat(LogType, Object, String, Object[])
01-20 11:50:33.019  1677    42 I Unity   : UnityEngine.Logger:Log(LogType, Object)
01-20 11:50:33.019  1677    42 I Unity   : UnityEngine.Debug:Log(Object)
01-20 11:50:33.019  1677    42 I Unity   : UDPPacketIO:ReceivePacket(Byte[])
01-20 11:50:33.019  1677    42 I Unity   : OSC:Read()
01-20 11:50:33.019  1677    42 I Unity   : System.Threading.ThreadStart:Invoke()
01-20 11:50:33.019  1677    42 I Unity   : UnityEngine.ImageConversion:LoadImage(Texture2D, Byte[])
01-20 11:50:33.019  1677    42 I Unity   : UnityEngine.XR.Tango.TangoInputTracking:.cctor()
01-20 11:50:33.019  1677    42 I Unity   : UnityEngine.XR.Tango.TangoInputTracking:.cctor()
01-20 11:50:33.019  1677    42 I Unity   : UnityEngine.ImageConversion:LoadImage(Texture2D, Byte[])
01-20 11:50:33.019  1677    42 I Unity   : UnityEngine.ImageConversion:LoadImage(Texture2D, Byte[])
01-20 11:50:33.019  1677    42 I Unity   :  
01-20 11:50:33.019  1677    42 I Unity   : (Filename: C:/buildslave/unity/build\Runtime/Export/Debug.bindings.h Line: 43)
01-20 11:50:33.019  1677    42 I Unity   : 
01-20 11:50:33.030  1677    42 I Unity   : Count = 24
01-20 11:50:33.030  1677    42 I Unity   : System.Diagnostics.StackTrace:.ctor(Int32, Boolean)
01-20 11:50:33.030  1677    42 I Unity   : UnityEngine.StackTraceUtility:ExtractStackTrace()
01-20 11:50:33.030  1677    42 I Unity   : UnityEngine.XR.Tango.TangoInputTracking:.cctor()
01-20 11:50:33.030  1677    42 I Unity   : UnityEngine.DebugLogHandler:Internal_Log(LogType, String, Object)
01-20 11:50:33.030  1677    42 I Unity   : UnityEngine.DebugLogHandler:LogFormat(LogType, Object, String, Object[])
01-20 11:50:33.030  1677    42 I Unity   : UnityEngine.Logger:Log(LogType, Object)
01-20 11:50:33.030  1677    42 I Unity   : UnityEngine.Debug:Log(Object)
01-20 11:50:33.030  1677    42 I Unity   : UDPPacketIO:ReceivePacket(Byte[])
01-20 11:50:33.030  1677    42 I Unity   : OSC:Read()
01-20 11:50:33.030  1677    42 I Unity   : System.Threading.ThreadStart:Invoke()
01-20 11:50:33.030  1677    42 I Unity   : UnityEngine.ImageConversion:LoadImage(Texture2D, Byte[])
01-20 11:50:33.030  1677    42 I Unity   : UnityEngine.XR.Tango.TangoInputTracking:.cctor()
01-20 11:50:33.030  1677    42 I Unity   : UnityEngine.XR.Tango.TangoInputTracking:.cctor()
01-20 11:50:33.030  1677    42 I Unity   : UnityEngine.ImageConversion:LoadImage(Texture2D, Byte[])
01-20 11:50:33.030  1677    42 I Unity   : UnityEngine.ImageConversion:LoadImage(Texture2D, Byte[])
01-20 11:50:33.030  1677    42 I Unity   :  
01-20 11:50:33.030  1677    42 I Unity   : (Filename: C:/buildslave/unity/build\Runtime/Export/Debug.bindings.h Line: 43)
01-20 11:50:33.030  1677    42 I Unity   : 
01-20 11:50:33.039  1677    42 I Unity   : Read 4
01-20 11:50:33.039  1677    42 I Unity   : System.Diagnostics.StackTrace:.ctor(Int32, Boolean)
01-20 11:50:33.039  1677    42 I Unity   : UnityEngine.StackTraceUtility:ExtractStackTrace()
01-20 11:50:33.039  1677    42 I Unity   : UnityEngine.XR.Tango.TangoInputTracking:.cctor()
01-20 11:50:33.039  1677    42 I Unity   : UnityEngine.DebugLogHandler:Internal_Log(LogType, String, Object)
01-20 11:50:33.039  1677    42 I Unity   : UnityEngine.DebugLogHandler:LogFormat(LogType, Object, String, Object[])
01-20 11:50:33.039  1677    42 I Unity   : UnityEngine.Logger:Log(LogType, Object)
01-20 11:50:33.039  1677    42 I Unity   : UnityEngine.Debug:Log(Object)
01-20 11:50:33.039  1677    42 I Unity   : OSC:Read()
01-20 11:50:33.039  1677    42 I Unity   : System.Threading.ThreadStart:Invoke()
01-20 11:50:33.039  1677    42 I Unity   : UnityEngine.ImageConversion:LoadImage(Texture2D, Byte[])
01-20 11:50:33.039  1677    42 I Unity   : UnityEngine.XR.Tango.TangoInputTracking:.cctor()
01-20 11:50:33.039  1677    42 I Unity   : UnityEngine.XR.Tango.TangoInputTracking:.cctor()
01-20 11:50:33.039  1677    42 I Unity   : UnityEngine.ImageConversion:LoadImage(Texture2D, Byte[])
01-20 11:50:33.039  1677    42 I Unity   : UnityEngine.ImageConversion:LoadImage(Texture2D, Byte[])
01-20 11:50:33.039  1677    42 I Unity   :  
01-20 11:50:33.039  1677    42 I Unity   : (Filename: C:/buildslave/unity/build\Runtime/Export/Debug.bindings.h Line: 43)
01-20 11:50:33.039  1677    42 I Unity   : 
01-20 11:50:33.050  1677    42 I Unity   : Read 5
01-20 11:50:33.050  1677    42 I Unity   : System.Diagnostics.StackTrace:.ctor(Int32, Boolean)
01-20 11:50:33.050  1677    42 I Unity   : UnityEngine.StackTraceUtility:ExtractStackTrace()
01-20 11:50:33.050  1677    42 I Unity   : UnityEngine.XR.Tango.TangoInputTracking:.cctor()
01-20 11:50:33.050  1677    42 I Unity   : UnityEngine.DebugLogHandler:Internal_Log(LogType, String, Object)
01-20 11:50:33.050  1677    42 I Unity   : UnityEngine.DebugLogHandler:LogFormat(LogType, Object, String, Object[])
01-20 11:50:33.050  1677    42 I Unity   : UnityEngine.Logger:Log(LogType, Object)
01-20 11:50:33.050  1677    42 I Unity   : UnityEngine.Debug:Log(Object)
01-20 11:50:33.050  1677    42 I Unity   : OSC:Read()
01-20 11:50:33.050  1677    42 I Unity   : System.Threading.ThreadStart:Invoke()
01-20 11:50:33.050  1677    42 I Unity   : UnityEngine.ImageConversion:LoadImage(Texture2D, Byte[])
01-20 11:50:33.050  1677    42 I Unity   : UnityEngine.XR.Tango.TangoInputTracking:.cctor()
01-20 11:50:33.050  1677    42 I Unity   : UnityEngine.XR.Tango.TangoInputTracking:.cctor()
01-20 11:50:33.050  1677    42 I Unity   : UnityEngine.ImageConversion:LoadImage(Texture2D, Byte[])
01-20 11:50:33.050  1677    42 I Unity   : UnityEngine.ImageConversion:LoadImage(Texture2D, Byte[])
01-20 11:50:33.050  1677    42 I Unity   :  
01-20 11:50:33.050  1677    42 I Unity   : (Filename: C:/buildslave/unity/build\Runtime/Export/Debug.bindings.h Line: 43)
01-20 11:50:33.050  1677    42 I Unity   : 
01-20 11:50:33.059  1677    42 I Unity   : Read 6
01-20 11:50:33.059  1677    42 I Unity   : System.Diagnostics.StackTrace:.ctor(Int32, Boolean)
01-20 11:50:33.059  1677    42 I Unity   : UnityEngine.StackTraceUtility:ExtractStackTrace()
01-20 11:50:33.059  1677    42 I Unity   : UnityEngine.XR.Tango.TangoInputTracking:.cctor()
01-20 11:50:33.059  1677    42 I Unity   : UnityEngine.DebugLogHandler:Internal_Log(LogType, String, Object)
01-20 11:50:33.059  1677    42 I Unity   : UnityEngine.DebugLogHandler:LogFormat(LogType, Object, String, Object[])
01-20 11:50:33.059  1677    42 I Unity   : UnityEngine.Logger:Log(LogType, Object)
01-20 11:50:33.059  1677    42 I Unity   : UnityEngine.Debug:Log(Object)
01-20 11:50:33.059  1677    42 I Unity   : OSC:Read()
01-20 11:50:33.059  1677    42 I Unity   : System.Threading.ThreadStart:Invoke()
01-20 11:50:33.059  1677    42 I Unity   : UnityEngine.ImageConversion:LoadImage(Texture2D, Byte[])
01-20 11:50:33.059  1677    42 I Unity   : UnityEngine.XR.Tango.TangoInputTracking:.cctor()
01-20 11:50:33.059  1677    42 I Unity   : UnityEngine.XR.Tango.TangoInputTracking:.cctor()
01-20 11:50:33.059  1677    42 I Unity   : UnityEngine.ImageConversion:LoadImage(Texture2D, Byte[])
01-20 11:50:33.059  1677    42 I Unity   : UnityEngine.ImageConversion:LoadImage(Texture2D, Byte[])
01-20 11:50:33.059  1677    42 I Unity   :  
01-20 11:50:33.059  1677    42 I Unity   : (Filename: C:/buildslave/unity/build\Runtime/Export/Debug.bindings.h Line: 43)
01-20 11:50:33.059  1677    42 I Unity   : 
01-20 11:50:33.069  1677    42 I Unity   : newMessages!
01-20 11:50:33.069  1677    42 I Unity   : System.Diagnostics.StackTrace:.ctor(Int32, Boolean)
01-20 11:50:33.069  1677    42 I Unity   : UnityEngine.StackTraceUtility:ExtractStackTrace()
01-20 11:50:33.069  1677    42 I Unity   : UnityEngine.XR.Tango.TangoInputTracking:.cctor()
01-20 11:50:33.069  1677    42 I Unity   : UnityEngine.DebugLogHandler:Internal_Log(LogType, String, Object)
01-20 11:50:33.069  1677    42 I Unity   : UnityEngine.DebugLogHandler:LogFormat(LogType, Object, String, Object[])
01-20 11:50:33.069  1677    42 I Unity   : UnityEngine.Logger:Log(LogType, Object)
01-20 11:50:33.069  1677    42 I Unity   : UnityEngine.Debug:Log(Object)
01-20 11:50:33.069  1677    42 I Unity   : OSC:Read()
01-20 11:50:33.069  1677    42 I Unity   : System.Threading.ThreadStart:Invoke()
01-20 11:50:33.069  1677    42 I Unity   : UnityEngine.ImageConversion:LoadImage(Texture2D, Byte[])
01-20 11:50:33.069  1677    42 I Unity   : UnityEngine.XR.Tango.TangoInputTracking:.cctor()
01-20 11:50:33.069  1677    42 I Unity   : UnityEngine.XR.Tango.TangoInputTracking:.cctor()
01-20 11:50:33.069  1677    42 I Unity   : UnityEngine.ImageConversion:LoadImage(Texture2D, Byte[])
01-20 11:50:33.069  1677    42 I Unity   : UnityEngine.ImageConversion:LoadImage(Texture2D, Byte[])
01-20 11:50:33.069  1677    42 I Unity   :  
01-20 11:50:33.069  1677    42 I Unity   : (Filename: C:/buildslave/unity/build\Runtime/Export/Debug.bindings.h Line: 43)
01-20 11:50:33.069  1677    42 I Unity   : 
01-20 11:50:33.079  1677    42 I Unity   : System.Collections.ArrayList
01-20 11:50:33.079  1677    42 I Unity   : System.Diagnostics.StackTrace:.ctor(Int32, Boolean)
01-20 11:50:33.079  1677    42 I Unity   : UnityEngine.StackTraceUtility:ExtractStackTrace()
01-20 11:50:33.079  1677    42 I Unity   : UnityEngine.XR.Tango.TangoInputTracking:.cctor()
01-20 11:50:33.079  1677    42 I Unity   : UnityEngine.DebugLogHandler:Internal_Log(LogType, String, Object)
01-20 11:50:33.079  1677    42 I Unity   : UnityEngine.DebugLogHandler:LogFormat(LogType, Object, String, Object[])
01-20 11:50:33.079  1677    42 I Unity   : UnityEngine.Logger:Log(LogType, Object)
01-20 11:50:33.079  1677    42 I Unity   : UnityEngine.Debug:Log(Object)
01-20 11:50:33.079  1677    42 I Unity   : OSC:Read()
01-20 11:50:33.079  1677    42 I Unity   : System.Threading.ThreadStart:Invoke()
01-20 11:50:33.079  1677    42 I Unity   : UnityEngine.ImageConversion:LoadImage(Texture2D, Byte[])
01-20 11:50:33.079  1677    42 I Unity   : UnityEngine.XR.Tango.TangoInputTracking:.cctor()
01-20 11:50:33.079  1677    42 I Unity   : UnityEngine.XR.Tango.TangoInputTracking:.cctor()
01-20 11:50:33.079  1677    42 I Unity   : UnityEngine.ImageConversion:LoadImage(Texture2D, Byte[])
01-20 11:50:33.079  1677    42 I Unity   : UnityEngine.ImageConversion:LoadImage(Texture2D, Byte[])
01-20 11:50:33.079  1677    42 I Unity   :  
01-20 11:50:33.079  1677    42 I Unity   : (Filename: C:/buildslave/unity/build\Runtime/Export/Debug.bindings.h Line: 43)
01-20 11:50:33.079  1677    42 I Unity   : 
01-20 11:50:33.089  1677    42 I Unity   : Read 3
01-20 11:50:33.089  1677    42 I Unity   : System.Diagnostics.StackTrace:.ctor(Int32, Boolean)
01-20 11:50:33.089  1677    42 I Unity   : UnityEngine.StackTraceUtility:ExtractStackTrace()
01-20 11:50:33.089  1677    42 I Unity   : UnityEngine.XR.Tango.TangoInputTracking:.cctor()
01-20 11:50:33.089  1677    42 I Unity   : UnityEngine.DebugLogHandler:Internal_Log(LogType, String, Object)
01-20 11:50:33.089  1677    42 I Unity   : UnityEngine.DebugLogHandler:LogFormat(LogType, Object, String, Object[])
01-20 11:50:33.089  1677    42 I Unity   : UnityEngine.Logger:Log(LogType, Object)
01-20 11:50:33.089  1677    42 I Unity   : UnityEngine.Debug:Log(Object)
01-20 11:50:33.089  1677    42 I Unity   : OSC:Read()
01-20 11:50:33.089  1677    42 I Unity   : System.Threading.ThreadStart:Invoke()
01-20 11:50:33.089  1677    42 I Unity   : UnityEngine.ImageConversion:LoadImage(Texture2D, Byte[])
01-20 11:50:33.089  1677    42 I Unity   : UnityEngine.XR.Tango.TangoInputTracking:.cctor()
01-20 11:50:33.089  1677    42 I Unity   : UnityEngine.XR.Tango.TangoInputTracking:.cctor()
01-20 11:50:33.089  1677    42 I Unity   : UnityEngine.ImageConversion:LoadImage(Texture2D, Byte[])
01-20 11:50:33.089  1677    42 I Unity   : UnityEngine.ImageConversion:LoadImage(Texture2D, Byte[])
01-20 11:50:33.089  1677    42 I Unity   :  
01-20 11:50:33.089  1677    42 I Unity   : (Filename: C:/buildslave/unity/build\Runtime/Export/Debug.bindings.h Line: 43)
01-20 11:50:33.089  1677    42 I Unity   : 
01-20 11:50:33.100  1677    42 I Unity   : ReceivePacket!
01-20 11:50:33.100  1677    42 I Unity   : System.Diagnostics.StackTrace:.ctor(Int32, Boolean)
01-20 11:50:33.100  1677    42 I Unity   : UnityEngine.StackTraceUtility:ExtractStackTrace()
01-20 11:50:33.100  1677    42 I Unity   : UnityEngine.XR.Tango.TangoInputTracking:.cctor()
01-20 11:50:33.100  1677    42 I Unity   : UnityEngine.DebugLogHandler:Internal_Log(LogType, String, Object)
01-20 11:50:33.100  1677    42 I Unity   : UnityEngine.DebugLogHandler:LogFormat(LogType, Object, String, Object[])
01-20 11:50:33.100  1677    42 I Unity   : UnityEngine.Logger:Log(LogType, Object)
01-20 11:50:33.100  1677    42 I Unity   : UnityEngine.Debug:Log(Object)
01-20 11:50:33.100  1677    42 I Unity   : UDPPacketIO:ReceivePacket(Byte[])
01-20 11:50:33.100  1677    42 I Unity   : OSC:Read()
01-20 11:50:33.100  1677    42 I Unity   : System.Threading.ThreadStart:Invoke()
01-20 11:50:33.100  1677    42 I Unity   : UnityEngine.ImageConversion:LoadImage(Texture2D, Byte[])
01-20 11:50:33.100  1677    42 I Unity   : UnityEngine.XR.Tango.TangoInputTracking:.cctor()
01-20 11:50:33.100  1677    42 I Unity   : UnityEngine.XR.Tango.TangoInputTracking:.cctor()
01-20 11:50:33.100  1677    42 I Unity   : UnityEngine.ImageConversion:LoadImage(Texture2D, Byte[])
01-20 11:50:33.100  1677    42 I Unity   : UnityEngine.ImageConversion:LoadImage(Texture2D, Byte[])
01-20 11:50:33.100  1677    42 I Unity   :  
01-20 11:50:33.100  1677    42 I Unity   : (Filename: C:/buildslave/unity/build\Runtime/Export/Debug.bindings.h Line: 43)
01-20 11:50:33.100  1677    42 I Unity   : 
01-20 11:50:33.111  1677    42 I Unity   : True
01-20 11:50:33.111  1677    42 I Unity   : System.Diagnostics.StackTrace:.ctor(Int32, Boolean)
01-20 11:50:33.111  1677    42 I Unity   : UnityEngine.StackTraceUtility:ExtractStackTrace()
01-20 11:50:33.111  1677    42 I Unity   : UnityEngine.XR.Tango.TangoInputTracking:.cctor()
01-20 11:50:33.111  1677    42 I Unity   : UnityEngine.DebugLogHandler:Internal_Log(LogType, String, Object)
01-20 11:50:33.111  1677    42 I Unity   : UnityEngine.DebugLogHandler:LogFormat(LogType, Object, String, Object[])
01-20 11:50:33.111  1677    42 I Unity   : UnityEngine.Logger:Log(LogType, Object)
01-20 11:50:33.111  1677    42 I Unity   : UnityEngine.Debug:Log(Object)
01-20 11:50:33.111  1677    42 I Unity   : UDPPacketIO:ReceivePacket(Byte[])
01-20 11:50:33.111  1677    42 I Unity   : OSC:Read()
01-20 11:50:33.111  1677    42 I Unity   : System.Threading.ThreadStart:Invoke()
01-20 11:50:33.111  1677    42 I Unity   : UnityEngine.ImageConversion:LoadImage(Texture2D, Byte[])
01-20 11:50:33.111  1677    42 I Unity   : UnityEngine.XR.Tango.TangoInputTracking:.cctor()
01-20 11:50:33.111  1677    42 I Unity   : UnityEngine.XR.Tango.TangoInputTracking:.cctor()
01-20 11:50:33.111  1677    42 I Unity   : UnityEngine.ImageConversion:LoadImage(Texture2D, Byte[])
01-20 11:50:33.111  1677    42 I Unity   : UnityEngine.ImageConversion:LoadImage(Texture2D, Byte[])
01-20 11:50:33.111  1677    42 I Unity   :  
01-20 11:50:33.111  1677    42 I Unity   : (Filename: C:/buildslave/unity/build\Runtime/Export/Debug.bindings.h Line: 43)
01-20 11:50:33.111  1677    42 I Unity   : 
01-20 11:50:33.122  1677    42 I Unity   : Count = 32
01-20 11:50:33.122  1677    42 I Unity   : System.Diagnostics.StackTrace:.ctor(Int32, Boolean)
01-20 11:50:33.122  1677    42 I Unity   : UnityEngine.StackTraceUtility:ExtractStackTrace()
01-20 11:50:33.122  1677    42 I Unity   : UnityEngine.XR.Tango.TangoInputTracking:.cctor()
01-20 11:50:33.122  1677    42 I Unity   : UnityEngine.DebugLogHandler:Internal_Log(LogType, String, Object)
01-20 11:50:33.122  1677    42 I Unity   : UnityEngine.DebugLogHandler:LogFormat(LogType, Object, String, Object[])
01-20 11:50:33.122  1677    42 I Unity   : UnityEngine.Logger:Log(LogType, Object)
01-20 11:50:33.122  1677    42 I Unity   : UnityEngine.Debug:Log(Object)
01-20 11:50:33.122  1677    42 I Unity   : UDPPacketIO:ReceivePacket(Byte[])
01-20 11:50:33.122  1677    42 I Unity   : OSC:Read()
01-20 11:50:33.122  1677    42 I Unity   : System.Threading.ThreadStart:Invoke()
01-20 11:50:33.122  1677    42 I Unity   : UnityEngine.ImageConversion:LoadImage(Texture2D, Byte[])
01-20 11:50:33.122  1677    42 I Unity   : UnityEngine.XR.Tango.TangoInputTracking:.cctor()
01-20 11:50:33.122  1677    42 I Unity   : UnityEngine.XR.Tango.TangoInputTracking:.cctor()
01-20 11:50:33.122  1677    42 I Unity   : UnityEngine.ImageConversion:LoadImage(Texture2D, Byte[])
01-20 11:50:33.122  1677    42 I Unity   : UnityEngine.ImageConversion:LoadImage(Texture2D, Byte[])
01-20 11:50:33.122  1677    42 I Unity   :  
01-20 11:50:33.122  1677    42 I Unity   : (Filename: C:/buildslave/unity/build\Runtime/Export/Debug.bindings.h Line: 43)
01-20 11:50:33.122  1677    42 I Unity   : 
01-20 11:50:33.132  1677    42 I Unity   : Read 4
01-20 11:50:33.132  1677    42 I Unity   : System.Diagnostics.StackTrace:.ctor(Int32, Boolean)
01-20 11:50:33.132  1677    42 I Unity   : UnityEngine.StackTraceUtility:ExtractStackTrace()
01-20 11:50:33.132  1677    42 I Unity   : UnityEngine.XR.Tango.TangoInputTracking:.cctor()
01-20 11:50:33.132  1677    42 I Unity   : UnityEngine.DebugLogHandler:Internal_Log(LogType, String, Object)
01-20 11:50:33.132  1677    42 I Unity   : UnityEngine.DebugLogHandler:LogFormat(LogType, Object, String, Object[])
01-20 11:50:33.132  1677    42 I Unity   : UnityEngine.Logger:Log(LogType, Object)
01-20 11:50:33.132  1677    42 I Unity   : UnityEngine.Debug:Log(Object)
01-20 11:50:33.132  1677    42 I Unity   : OSC:Read()
01-20 11:50:33.132  1677    42 I Unity   : System.Threading.ThreadStart:Invoke()
01-20 11:50:33.132  1677    42 I Unity   : UnityEngine.ImageConversion:LoadImage(Texture2D, Byte[])
01-20 11:50:33.132  1677    42 I Unity   : UnityEngine.XR.Tango.TangoInputTracking:.cctor()
01-20 11:50:33.132  1677    42 I Unity   : UnityEngine.XR.Tango.TangoInputTracking:.cctor()
01-20 11:50:33.132  1677    42 I Unity   : UnityEngine.ImageConversion:LoadImage(Texture2D, Byte[])
01-20 11:50:33.132  1677    42 I Unity   : UnityEngine.ImageConversion:LoadImage(Texture2D, Byte[])
01-20 11:50:33.132  1677    42 I Unity   :  
01-20 11:50:33.132  1677    42 I Unity   : (Filename: C:/buildslave/unity/build\Runtime/Export/Debug.bindings.h Line: 43)
01-20 11:50:33.132  1677    42 I Unity   : 
01-20 11:50:33.142  1677    42 I Unity   : Read 5
01-20 11:50:33.142  1677    42 I Unity   : System.Diagnostics.StackTrace:.ctor(Int32, Boolean)
01-20 11:50:33.142  1677    42 I Unity   : UnityEngine.StackTraceUtility:ExtractStackTrace()
01-20 11:50:33.142  1677    42 I Unity   : UnityEngine.XR.Tango.TangoInputTracking:.cctor()
01-20 11:50:33.142  1677    42 I Unity   : UnityEngine.DebugLogHandler:Internal_Log(LogType, String, Object)
01-20 11:50:33.142  1677    42 I Unity   : UnityEngine.DebugLogHandler:LogFormat(LogType, Object, String, Object[])
01-20 11:50:33.142  1677    42 I Unity   : UnityEngine.Logger:Log(LogType, Object)
01-20 11:50:33.142  1677    42 I Unity   : UnityEngine.Debug:Log(Object)
01-20 11:50:33.142  1677    42 I Unity   : OSC:Read()
01-20 11:50:33.142  1677    42 I Unity   : System.Threading.ThreadStart:Invoke()
01-20 11:50:33.142  1677    42 I Unity   : UnityEngine.ImageConversion:LoadImage(Texture2D, Byte[])
01-20 11:50:33.142  1677    42 I Unity   : UnityEngine.XR.Tango.TangoInputTracking:.cctor()
01-20 11:50:33.142  1677    42 I Unity   : UnityEngine.XR.Tango.TangoInputTracking:.cctor()
01-20 11:50:33.142  1677    42 I Unity   : UnityEngine.ImageConversion:LoadImage(Texture2D, Byte[])
01-20 11:50:33.142  1677    42 I Unity   : UnityEngine.ImageConversion:LoadImage(Texture2D, Byte[])
01-20 11:50:33.142  1677    42 I Unity   :  
01-20 11:50:33.142  1677    42 I Unity   : (Filename: C:/buildslave/unity/build\Runtime/Export/Debug.bindings.h Line: 43)
01-20 11:50:33.142  1677    42 I Unity   : 
01-20 11:50:33.152  1677    42 I Unity   : Read 6
01-20 11:50:33.152  1677    42 I Unity   : System.Diagnostics.StackTrace:.ctor(Int32, Boolean)
01-20 11:50:33.152  1677    42 I Unity   : UnityEngine.StackTraceUtility:ExtractStackTrace()
01-20 11:50:33.152  1677    42 I Unity   : UnityEngine.XR.Tango.TangoInputTracking:.cctor()
01-20 11:50:33.152  1677    42 I Unity   : UnityEngine.DebugLogHandler:Internal_Log(LogType, String, Object)
01-20 11:50:33.152  1677    42 I Unity   : UnityEngine.DebugLogHandler:LogFormat(LogType, Object, String, Object[])
01-20 11:50:33.152  1677    42 I Unity   : UnityEngine.Logger:Log(LogType, Object)
01-20 11:50:33.152  1677    42 I Unity   : UnityEngine.Debug:Log(Object)
01-20 11:50:33.152  1677    42 I Unity   : OSC:Read()
01-20 11:50:33.152  1677    42 I Unity   : System.Threading.ThreadStart:Invoke()
01-20 11:50:33.152  1677    42 I Unity   : UnityEngine.ImageConversion:LoadImage(Texture2D, Byte[])
01-20 11:50:33.152  1677    42 I Unity   : UnityEngine.XR.Tango.TangoInputTracking:.cctor()
01-20 11:50:33.152  1677    42 I Unity   : UnityEngine.XR.Tango.TangoInputTracking:.cctor()
01-20 11:50:33.152  1677    42 I Unity   : UnityEngine.ImageConversion:LoadImage(Texture2D, Byte[])
01-20 11:50:33.152  1677    42 I Unity   : UnityEngine.ImageConversion:LoadImage(Texture2D, Byte[])
01-20 11:50:33.152  1677    42 I Unity   :  
01-20 11:50:33.152  1677    42 I Unity   : (Filename: C:/buildslave/unity/build\Runtime/Export/Debug.bindings.h Line: 43)
01-20 11:50:33.152  1677    42 I Unity   : 
01-20 11:50:33.162  1677    42 I Unity   : newMessages!
01-20 11:50:33.162  1677    42 I Unity   : System.Diagnostics.StackTrace:.ctor(Int32, Boolean)
01-20 11:50:33.162  1677    42 I Unity   : UnityEngine.StackTraceUtility:ExtractStackTrace()
01-20 11:50:33.162  1677    42 I Unity   : UnityEngine.XR.Tango.TangoInputTracking:.cctor()
01-20 11:50:33.162  1677    42 I Unity   : UnityEngine.DebugLogHandler:Internal_Log(LogType, String, Object)
01-20 11:50:33.162  1677    42 I Unity   : UnityEngine.DebugLogHandler:LogFormat(LogType, Object, String, Object[])
01-20 11:50:33.162  1677    42 I Unity   : UnityEngine.Logger:Log(LogType, Object)
01-20 11:50:33.162  1677    42 I Unity   : UnityEngine.Debug:Log(Object)
01-20 11:50:33.162  1677    42 I Unity   : OSC:Read()
01-20 11:50:33.162  1677    42 I Unity   : System.Threading.ThreadStart:Invoke()
01-20 11:50:33.162  1677    42 I Unity   : UnityEngine.ImageConversion:LoadImage(Texture2D, Byte[])
01-20 11:50:33.162  1677    42 I Unity   : UnityEngine.XR.Tango.TangoInputTracking:.cctor()
01-20 11:50:33.162  1677    42 I Unity   : UnityEngine.XR.Tango.TangoInputTracking:.cctor()
01-20 11:50:33.162  1677    42 I Unity   : UnityEngine.ImageConversion:LoadImage(Texture2D, Byte[])
01-20 11:50:33.162  1677    42 I Unity   : UnityEngine.ImageConversion:LoadImage(Texture2D, Byte[])
01-20 11:50:33.162  1677    42 I Unity   :  
01-20 11:50:33.162  1677    42 I Unity   : (Filename: C:/buildslave/unity/build\Runtime/Export/Debug.bindings.h Line: 43)
01-20 11:50:33.162  1677    42 I Unity   : 
01-20 11:50:33.171  1677    42 I Unity   : System.Collections.ArrayList
01-20 11:50:33.171  1677    42 I Unity   : System.Diagnostics.StackTrace:.ctor(Int32, Boolean)
01-20 11:50:33.171  1677    42 I Unity   : UnityEngine.StackTraceUtility:ExtractStackTrace()
01-20 11:50:33.171  1677    42 I Unity   : UnityEngine.XR.Tango.TangoInputTracking:.cctor()
01-20 11:50:33.171  1677    42 I Unity   : UnityEngine.DebugLogHandler:Internal_Log(LogType, String, Object)
01-20 11:50:33.171  1677    42 I Unity   : UnityEngine.DebugLogHandler:LogFormat(LogType, Object, String, Object[])
01-20 11:50:33.171  1677    42 I Unity   : UnityEngine.Logger:Log(LogType, Object)
01-20 11:50:33.171  1677    42 I Unity   : UnityEngine.Debug:Log(Object)
01-20 11:50:33.171  1677    42 I Unity   : OSC:Read()
01-20 11:50:33.171  1677    42 I Unity   : System.Threading.ThreadStart:Invoke()
01-20 11:50:33.171  1677    42 I Unity   : UnityEngine.ImageConversion:LoadImage(Texture2D, Byte[])
01-20 11:50:33.171  1677    42 I Unity   : UnityEngine.XR.Tango.TangoInputTracking:.cctor()
01-20 11:50:33.171  1677    42 I Unity   : UnityEngine.XR.Tango.TangoInputTracking:.cctor()
01-20 11:50:33.171  1677    42 I Unity   : UnityEngine.ImageConversion:LoadImage(Texture2D, Byte[])
01-20 11:50:33.171  1677    42 I Unity   : UnityEngine.ImageConversion:LoadImage(Texture2D, Byte[])
01-20 11:50:33.171  1677    42 I Unity   :  
01-20 11:50:33.171  1677    42 I Unity   : (Filename: C:/buildslave/unity/build\Runtime/Export/Debug.bindings.h Line: 43)
01-20 11:50:33.171  1677    42 I Unity   : 
01-20 11:50:33.183  1677    42 I Unity   : Read 3
01-20 11:50:33.183  1677    42 I Unity   : System.Diagnostics.StackTrace:.ctor(Int32, Boolean)
01-20 11:50:33.183  1677    42 I Unity   : UnityEngine.StackTraceUtility:ExtractStackTrace()
01-20 11:50:33.183  1677    42 I Unity   : UnityEngine.XR.Tango.TangoInputTracking:.cctor()
01-20 11:50:33.183  1677    42 I Unity   : UnityEngine.DebugLogHandler:Internal_Log(LogType, String, Object)
01-20 11:50:33.183  1677    42 I Unity   : UnityEngine.DebugLogHandler:LogFormat(LogType, Object, String, Object[])
01-20 11:50:33.183  1677    42 I Unity   : UnityEngine.Logger:Log(LogType, Object)
01-20 11:50:33.183  1677    42 I Unity   : UnityEngine.Debug:Log(Object)
01-20 11:50:33.183  1677    42 I Unity   : OSC:Read()
01-20 11:50:33.183  1677    42 I Unity   : System.Threading.ThreadStart:Invoke()
01-20 11:50:33.183  1677    42 I Unity   : UnityEngine.ImageConversion:LoadImage(Texture2D, Byte[])
01-20 11:50:33.183  1677    42 I Unity   : UnityEngine.XR.Tango.TangoInputTracking:.cctor()
01-20 11:50:33.183  1677    42 I Unity   : UnityEngine.XR.Tango.TangoInputTracking:.cctor()
01-20 11:50:33.183  1677    42 I Unity   : UnityEngine.ImageConversion:LoadImage(Texture2D, Byte[])
01-20 11:50:33.183  1677    42 I Unity   : UnityEngine.ImageConversion:LoadImage(Texture2D, Byte[])
01-20 11:50:33.183  1677    42 I Unity   :  
01-20 11:50:33.183  1677    42 I Unity   : (Filename: C:/buildslave/unity/build\Runtime/Export/Debug.bindings.h Line: 43)
01-20 11:50:33.183  1677    42 I Unity   : 
01-20 11:50:33.193  1677    42 I Unity   : ReceivePacket!
01-20 11:50:33.193  1677    42 I Unity   : System.Diagnostics.StackTrace:.ctor(Int32, Boolean)
01-20 11:50:33.193  1677    42 I Unity   : UnityEngine.StackTraceUtility:ExtractStackTrace()
01-20 11:50:33.193  1677    42 I Unity   : UnityEngine.XR.Tango.TangoInputTracking:.cctor()
01-20 11:50:33.193  1677    42 I Unity   : UnityEngine.DebugLogHandler:Internal_Log(LogType, String, Object)
01-20 11:50:33.193  1677    42 I Unity   : UnityEngine.DebugLogHandler:LogFormat(LogType, Object, String, Object[])
01-20 11:50:33.193  1677    42 I Unity   : UnityEngine.Logger:Log(LogType, Object)
01-20 11:50:33.193  1677    42 I Unity   : UnityEngine.Debug:Log(Object)
01-20 11:50:33.193  1677    42 I Unity   : UDPPacketIO:ReceivePacket(Byte[])
01-20 11:50:33.193  1677    42 I Unity   : OSC:Read()
01-20 11:50:33.193  1677    42 I Unity   : System.Threading.ThreadStart:Invoke()
01-20 11:50:33.193  1677    42 I Unity   : UnityEngine.ImageConversion:LoadImage(Texture2D, Byte[])
01-20 11:50:33.193  1677    42 I Unity   : UnityEngine.XR.Tango.TangoInputTracking:.cctor()
01-20 11:50:33.193  1677    42 I Unity   : UnityEngine.XR.Tango.TangoInputTracking:.cctor()
01-20 11:50:33.193  1677    42 I Unity   : UnityEngine.ImageConversion:LoadImage(Texture2D, Byte[])
01-20 11:50:33.193  1677    42 I Unity   : UnityEngine.ImageConversion:LoadImage(Texture2D, Byte[])
01-20 11:50:33.193  1677    42 I Unity   :  
01-20 11:50:33.193  1677    42 I Unity   : (Filename: C:/buildslave/unity/build\Runtime/Export/Debug.bindings.h Line: 43)
01-20 11:50:33.193  1677    42 I Unity   : 
01-20 11:50:33.205  1677    42 I Unity   : True
01-20 11:50:33.205  1677    42 I Unity   : System.Diagnostics.StackTrace:.ctor(Int32, Boolean)
01-20 11:50:33.205  1677    42 I Unity   : UnityEngine.StackTraceUtility:ExtractStackTrace()
01-20 11:50:33.205  1677    42 I Unity   : UnityEngine.XR.Tango.TangoInputTracking:.cctor()
01-20 11:50:33.205  1677    42 I Unity   : UnityEngine.DebugLogHandler:Internal_Log(LogType, String, Object)
01-20 11:50:33.205  1677    42 I Unity   : UnityEngine.DebugLogHandler:LogFormat(LogType, Object, String, Object[])
01-20 11:50:33.205  1677    42 I Unity   : UnityEngine.Logger:Log(LogType, Object)
01-20 11:50:33.205  1677    42 I Unity   : UnityEngine.Debug:Log(Object)
01-20 11:50:33.205  1677    42 I Unity   : UDPPacketIO:ReceivePacket(Byte[])
01-20 11:50:33.205  1677    42 I Unity   : OSC:Read()
01-20 11:50:33.205  1677    42 I Unity   : System.Threading.ThreadStart:Invoke()
01-20 11:50:33.205  1677    42 I Unity   : UnityEngine.ImageConversion:LoadImage(Texture2D, Byte[])
01-20 11:50:33.205  1677    42 I Unity   : UnityEngine.XR.Tango.TangoInputTracking:.cctor()
01-20 11:50:33.205  1677    42 I Unity   : UnityEngine.XR.Tango.TangoInputTracking:.cctor()
01-20 11:50:33.205  1677    42 I Unity   : UnityEngine.ImageConversion:LoadImage(Texture2D, Byte[])
01-20 11:50:33.205  1677    42 I Unity   : UnityEngine.ImageConversion:LoadImage(Texture2D, Byte[])
01-20 11:50:33.205  1677    42 I Unity   :  
01-20 11:50:33.205  1677    42 I Unity   : (Filename: C:/buildslave/unity/build\Runtime/Export/Debug.bindings.h Line: 43)
01-20 11:50:33.205  1677    42 I Unity   : 
01-20 11:50:33.216  1677    42 I Unity   : Count = 44
01-20 11:50:33.216  1677    42 I Unity   : System.Diagnostics.StackTrace:.ctor(Int32, Boolean)
01-20 11:50:33.216  1677    42 I Unity   : UnityEngine.StackTraceUtility:ExtractStackTrace()
01-20 11:50:33.216  1677    42 I Unity   : UnityEngine.XR.Tango.TangoInputTracking:.cctor()
01-20 11:50:33.216  1677    42 I Unity   : UnityEngine.DebugLogHandler:Internal_Log(LogType, String, Object)
01-20 11:50:33.216  1677    42 I Unity   : UnityEngine.DebugLogHandler:LogFormat(LogType, Object, String, Object[])
01-20 11:50:33.216  1677    42 I Unity   : UnityEngine.Logger:Log(LogType, Object)
01-20 11:50:33.216  1677    42 I Unity   : UnityEngine.Debug:Log(Object)
01-20 11:50:33.216  1677    42 I Unity   : UDPPacketIO:ReceivePacket(Byte[])
01-20 11:50:33.216  1677    42 I Unity   : OSC:Read()
01-20 11:50:33.216  1677    42 I Unity   : System.Threading.ThreadStart:Invoke()
01-20 11:50:33.216  1677    42 I Unity   : UnityEngine.ImageConversion:LoadImage(Texture2D, Byte[])
01-20 11:50:33.216  1677    42 I Unity   : UnityEngine.XR.Tango.TangoInputTracking:.cctor()
01-20 11:50:33.216  1677    42 I Unity   : UnityEngine.XR.Tango.TangoInputTracking:.cctor()
01-20 11:50:33.216  1677    42 I Unity   : UnityEngine.ImageConversion:LoadImage(Texture2D, Byte[])
01-20 11:50:33.216  1677    42 I Unity   : UnityEngine.ImageConversion:LoadImage(Texture2D, Byte[])
01-20 11:50:33.216  1677    42 I Unity   :  
01-20 11:50:33.216  1677    42 I Unity   : (Filename: C:/buildslave/unity/build\Runtime/Export/Debug.bindings.h Line: 43)
01-20 11:50:33.216  1677    42 I Unity   : 
01-20 11:50:33.225  1677    42 I Unity   : Read 4
01-20 11:50:33.225  1677    42 I Unity   : System.Diagnostics.StackTrace:.ctor(Int32, Boolean)
01-20 11:50:33.225  1677    42 I Unity   : UnityEngine.StackTraceUtility:ExtractStackTrace()
01-20 11:50:33.225  1677    42 I Unity   : UnityEngine.XR.Tango.TangoInputTracking:.cctor()
01-20 11:50:33.225  1677    42 I Unity   : UnityEngine.DebugLogHandler:Internal_Log(LogType, String, Object)
01-20 11:50:33.225  1677    42 I Unity   : UnityEngine.DebugLogHandler:LogFormat(LogType, Object, String, Object[])
01-20 11:50:33.225  1677    42 I Unity   : UnityEngine.Logger:Log(LogType, Object)
01-20 11:50:33.225  1677    42 I Unity   : UnityEngine.Debug:Log(Object)
01-20 11:50:33.225  1677    42 I Unity   : OSC:Read()
01-20 11:50:33.225  1677    42 I Unity   : System.Threading.ThreadStart:Invoke()
01-20 11:50:33.225  1677    42 I Unity   : UnityEngine.ImageConversion:LoadImage(Texture2D, Byte[])
01-20 11:50:33.050  1677    42 I Unity   : Read 5
01-20 11:50:33.050  1677    42 I Unity   : System.Diagnostics.StackTrace:.ctor(Int32, Boolean)
01-20 11:50:33.050  1677    42 I Unity   : UnityEngine.StackTraceUtility:ExtractStackTrace()
01-20 11:50:33.225  1677    42 I Unity   : UnityEngine.ImageConversion:LoadImage(Texture2D, Byte[])
01-20 11:50:33.050  1677    42 I Unity   : UnityEngine.DebugLogHandler:LogFormat(LogType, Object, String, Object[])
01-20 11:50:33.050  1677    42 I Unity   : UnityEngine.Logger:Log(LogType, Object)
01-20 11:50:33.050  1677    42 I Unity   : UnityEngine.Debug:Log(Object)
01-20 11:50:33.050  1677    42 I Unity   : OSC:Read()
01-20 11:50:33.050  1677    42 I Unity   : System.Threading.ThreadStart:Invoke()
01-20 11:50:33.050  1677    42 I Unity   : UnityEngine.ImageConversion:LoadImage(Texture2D, Byte[])
01-20 11:50:33.050  1677    42 I Unity   : UnityEngine.XR.Tango.TangoInputTracking:.cctor()
01-20 11:50:33.235  1677    42 I Unity   : UnityEngine.StackTraceUtility:ExtractStackTrace()
01-20 11:50:33.235  1677    42 I Unity   : UnityEngine.XR.Tango.TangoInputTracking:.cctor()
01-20 11:50:33.050  1677    42 I Unity   : UnityEngine.ImageConversion:LoadImage(Texture2D, Byte[])
01-20 11:50:33.050  1677    42 I Unity   : UnityEngine.ImageConversion:LoadImage(Texture2D, Byte[])
01-20 11:50:33.050  1677    42 I Unity   :  
01-20 11:50:33.235  1677    42 I Unity   : System.Threading.ThreadStart:Invoke()
01-20 11:50:33.235  1677    42 I Unity   : UnityEngine.ImageConversion:LoadImage(Texture2D, Byte[])
01-20 11:50:33.235  1677    42 I Unity   : UnityEngine.XR.Tango.TangoInputTracking:.cctor()
01-20 11:50:33.235  1677    42 I Unity   : UnityEngine.XR.Tango.TangoInputTracking:.cctor()
01-20 11:50:33.235  1677    42 I Unity   : UnityEngine.ImageConversion:LoadImage(Texture2D, Byte[])
01-20 11:50:33.235  1677    42 I Unity   : UnityEngine.ImageConversion:LoadImage(Texture2D, Byte[])
01-20 11:50:33.235  1677    42 I Unity   :  
01-20 11:50:33.235  1677    42 I Unity   : (Filename: C:/buildslave/unity/build\Runtime/Export/Debug.bindings.h Line: 43)
01-20 11:50:33.235  1677    42 I Unity   : 
01-20 11:50:33.245  1677    42 I Unity   : Read 6
01-20 11:50:33.059  1677    42 I Unity   : UnityEngine.XR.Tango.TangoInputTracking:.cctor()
01-20 11:50:33.059  1677    42 I Unity   : UnityEngine.DebugLogHandler:Internal_Log(LogType, String, Object)
01-20 11:50:33.245  1677    42 I Unity   : UnityEngine.DebugLogHandler:Internal_Log(LogType, String, Object)
01-20 11:50:33.245  1677    42 I Unity   : UnityEngine.DebugLogHandler:LogFormat(LogType, Object, String, Object[])
01-20 11:50:33.059  1677    42 I Unity   : UnityEngine.Logger:Log(LogType, Object)
01-20 11:50:33.059  1677    42 I Unity   : UnityEngine.Debug:Log(Object)
01-20 11:50:33.245  1677    42 I Unity   : System.Threading.ThreadStart:Invoke()
01-20 11:50:33.245  1677    42 I Unity   : UnityEngine.ImageConversion:LoadImage(Texture2D, Byte[])
01-20 11:50:33.245  1677    42 I Unity   : UnityEngine.XR.Tango.TangoInputTracking:.cctor()
01-20 11:50:33.059  1677    42 I Unity   : UnityEngine.XR.Tango.TangoInputTracking:.cctor()
01-20 11:50:33.059  1677    42 I Unity   : UnityEngine.XR.Tango.TangoInputTracking:.cctor()
01-20 11:50:33.059  1677    42 I Unity   : UnityEngine.ImageConversion:LoadImage(Texture2D, Byte[])
01-20 11:50:33.245  1677    42 I Unity   :  
01-20 11:50:33.245  1677    42 I Unity   : (Filename: C:/buildslave/unity/build\Runtime/Export/Debug.bindings.h Line: 43)
01-20 11:50:33.059  1677    42 I Unity   : (Filename: C:/buildslave/unity/build\Runtime/Export/Debug.bindings.h Line: 43)
01-20 11:50:33.059  1677    42 I Unity   : 
01-20 11:50:33.255  1677    42 I Unity   : newMessages!
01-20 11:50:33.069  1677    42 I Unity   : newMessages!
01-20 11:50:33.069  1677    42 I Unity   : System.Diagnostics.StackTrace:.ctor(Int32, Boolean)
01-20 11:50:33.069  1677    42 I Unity   : UnityEngine.StackTraceUtility:ExtractStackTrace()
01-20 11:50:33.255  1677    42 I Unity   : UnityEngine.DebugLogHandler:Internal_Log(LogType, String, Object)
01-20 11:50:33.255  1677    42 I Unity   : UnityEngine.DebugLogHandler:LogFormat(LogType, Object, String, Object[])
01-20 11:50:33.255  1677    42 I Unity   : UnityEngine.Logger:Log(LogType, Object)
01-20 11:50:33.255  1677    42 I Unity   : UnityEngine.Debug:Log(Object)
01-20 11:50:33.255  1677    42 I Unity   : OSC:Read()
01-20 11:50:33.069  1677    42 I Unity   : UnityEngine.Debug:Log(Object)
01-20 11:50:33.069  1677    42 I Unity   : OSC:Read()
01-20 11:50:33.069  1677    42 I Unity   : System.Threading.ThreadStart:Invoke()
01-20 11:50:33.069  1677    42 I Unity   : UnityEngine.ImageConversion:LoadImage(Texture2D, Byte[])
01-20 11:50:33.255  1677    42 I Unity   : UnityEngine.XR.Tango.TangoInputTracking:.cctor()
01-20 11:50:33.069  1677    42 I Unity   : UnityEngine.ImageConversion:LoadImage(Texture2D, Byte[])
01-20 11:50:33.069  1677    42 I Unity   : UnityEngine.ImageConversion:LoadImage(Texture2D, Byte[])
01-20 11:50:33.069  1677    42 I Unity   :  
01-20 11:50:33.069  1677    42 I Unity   : (Filename: C:/buildslave/unity/build\Runtime/Export/Debug.bindings.h Line: 43)
01-20 11:50:33.069  1677    42 I Unity   : 
01-20 11:50:33.255  1677    42 I Unity   :  
01-20 11:50:33.255  1677    42 I Unity   : (Filename: C:/buildslave/unity/build\Runtime/Export/Debug.bindings.h Line: 43)
01-20 11:50:33.255  1677    42 I Unity   : 
01-20 11:50:33.264  1677    42 I Unity   : System.Collections.ArrayList
01-20 11:50:33.264  1677    42 I Unity   : System.Diagnostics.StackTrace:.ctor(Int32, Boolean)
01-20 11:50:33.264  1677    42 I Unity   : UnityEngine.StackTraceUtility:ExtractStackTrace()
01-20 11:50:33.264  1677    42 I Unity   : UnityEngine.XR.Tango.TangoInputTracking:.cctor()
01-20 11:50:33.079  1677    42 I Unity   : UnityEngine.Debug:Log(Object)
01-20 11:50:33.079  1677    42 I Unity   : OSC:Read()
01-20 11:50:33.079  1677    42 I Unity   : System.Threading.ThreadStart:Invoke()
01-20 11:50:33.079  1677    42 I Unity   : UnityEngine.ImageConversion:LoadImage(Texture2D, Byte[])
01-20 11:50:33.079  1677    42 I Unity   : UnityEngine.XR.Tango.TangoInputTracking:.cctor()
01-20 11:50:33.079  1677    42 I Unity   : UnityEngine.XR.Tango.TangoInputTracking:.cctor()
01-20 11:50:33.079  1677    42 I Unity   : UnityEngine.ImageConversion:LoadImage(Texture2D, Byte[])
01-20 11:50:33.079  1677    42 I Unity   : UnityEngine.ImageConversion:LoadImage(Texture2D, Byte[])
01-20 11:50:33.079  1677    42 I Unity   :  
01-20 11:50:33.079  1677    42 I Unity   : (Filename: C:/buildslave/unity/build\Runtime/Export/Debug.bindings.h Line: 43)
01-20 11:50:33.079  1677    42 I Unity   : 
01-20 11:50:33.089  1677    42 I Unity   : Read 3
01-20 11:50:33.089  1677    42 I Unity   : System.Diagnostics.StackTrace:.ctor(Int32, Boolean)
01-20 11:50:33.089  1677    42 I Unity   : UnityEngine.StackTraceUtility:ExtractStackTrace()
01-20 11:50:33.089  1677    42 I Unity   : UnityEngine.XR.Tango.TangoInputTracking:.cctor()
01-20 11:50:33.089  1677    42 I Unity   : UnityEngine.DebugLogHandler:Internal_Log(LogType, String, Object)
01-20 11:50:33.089  1677    42 I Unity   : UnityEngine.DebugLogHandler:LogFormat(LogType, Object, String, Object[])
01-20 11:50:33.089  1677    42 I Unity   : UnityEngine.Logger:Log(LogType, Object)
01-20 11:50:33.089  1677    42 I Unity   : UnityEngine.Debug:Log(Object)
01-20 11:50:33.274  1677    42 I Unity   : UnityEngine.Logger:Log(LogType, Object)
01-20 11:50:33.274  1677    42 I Unity   : UnityEngine.Debug:Log(Object)
01-20 11:50:33.274  1677    42 I Unity   : OSC:Read()
01-20 11:50:33.274  1677    42 I Unity   : System.Threading.ThreadStart:Invoke()
01-20 11:50:33.274  1677    42 I Unity   : UnityEngine.ImageConversion:LoadImage(Texture2D, Byte[])
01-20 11:50:33.274  1677    42 I Unity   : UnityEngine.XR.Tango.TangoInputTracking:.cctor()
01-20 11:50:33.274  1677    42 I Unity   : UnityEngine.XR.Tango.TangoInputTracking:.cctor()
01-20 11:50:33.274  1677    42 I Unity   : UnityEngine.ImageConversion:LoadImage(Texture2D, Byte[])
01-20 11:50:33.274  1677    42 I Unity   : UnityEngine.ImageConversion:LoadImage(Texture2D, Byte[])
01-20 11:50:33.274  1677    42 I Unity   :  
01-20 11:50:33.274  1677    42 I Unity   : (Filename: C:/buildslave/unity/build\Runtime/Export/Debug.bindings.h Line: 43)
01-20 11:50:33.274  1677    42 I Unity   : 
01-20 11:50:33.286  1677    42 I Unity   : ReceivePacket!
01-20 11:50:33.100  1677    42 I Unity   : ReceivePacket!
01-20 11:50:33.100  1677    42 I Unity   : System.Diagnostics.StackTrace:.ctor(Int32, Boolean)
01-20 11:50:33.100  1677    42 I Unity   : UnityEngine.StackTraceUtility:ExtractStackTrace()
01-20 11:50:33.100  1677    42 I Unity   : UnityEngine.XR.Tango.TangoInputTracking:.cctor()
01-20 11:50:33.100  1677    42 I Unity   : UnityEngine.DebugLogHandler:Internal_Log(LogType, String, Object)
01-20 11:50:33.286  1677    42 I Unity   : UnityEngine.Logger:Log(LogType, Object)
01-20 11:50:33.100  1677    42 I Unity   : UnityEngine.Logger:Log(LogType, Object)
01-20 11:50:33.100  1677    42 I Unity   : UnityEngine.Debug:Log(Object)
01-20 11:50:33.286  1677    42 I Unity   : UnityEngine.Debug:Log(Object)
01-20 11:50:33.286  1677    42 I Unity   : UDPPacketIO:ReceivePacket(Byte[])
01-20 11:50:33.286  1677    42 I Unity   : OSC:Read()
01-20 11:50:33.286  1677    42 I Unity   : System.Threading.ThreadStart:Invoke()
01-20 11:50:33.286  1677    42 I Unity   : UnityEngine.ImageConversion:LoadImage(Texture2D, Byte[])
01-20 11:50:33.286  1677    42 I Unity   : UnityEngine.XR.Tango.TangoInputTracking:.cctor()
01-20 11:50:33.286  1677    42 I Unity   : UnityEngine.XR.Tango.TangoInputTracking:.cctor()
01-20 11:50:33.286  1677    42 I Unity   : UnityEngine.ImageConversion:LoadImage(Texture2D, Byte[])
01-20 11:50:33.286  1677    42 I Unity   : UnityEngine.ImageConversion:LoadImage(Texture2D, Byte[])
01-20 11:50:33.100  1677    42 I Unity   : (Filename: C:/buildslave/unity/build\Runtime/Export/Debug.bindings.h Line: 43)
01-20 11:50:33.100  1677    42 I Unity   : 
01-20 11:50:33.296  1677    42 I Unity   : True
01-20 11:50:33.296  1677    42 I Unity   : System.Diagnostics.StackTrace:.ctor(Int32, Boolean)
01-20 11:50:33.111  1677    42 I Unity   : UnityEngine.StackTraceUtility:ExtractStackTrace()
01-20 11:50:33.111  1677    42 I Unity   : UnityEngine.XR.Tango.TangoInputTracking:.cctor()
01-20 11:50:33.296  1677    42 I Unity   : UnityEngine.XR.Tango.TangoInputTracking:.cctor()
01-20 11:50:33.111  1677    42 I Unity   : UnityEngine.DebugLogHandler:LogFormat(LogType, Object, String, Object[])
01-20 11:50:33.296  1677    42 I Unity   : UnityEngine.DebugLogHandler:LogFormat(LogType, Object, String, Object[])
01-20 11:50:33.296  1677    42 I Unity   : UnityEngine.Logger:Log(LogType, Object)
01-20 11:50:33.296  1677    42 I Unity   : UnityEngine.Debug:Log(Object)
01-20 11:50:33.111  1677    42 I Unity   : UDPPacketIO:ReceivePacket(Byte[])
01-20 11:50:33.111  1677    42 I Unity   : OSC:Read()
01-20 11:50:33.296  1677    42 I Unity   : System.Threading.ThreadStart:Invoke()
01-20 11:50:33.296  1677    42 I Unity   : UnityEngine.ImageConversion:LoadImage(Texture2D, Byte[])
01-20 11:50:33.111  1677    42 I Unity   : UnityEngine.ImageConversion:LoadImage(Texture2D, Byte[])
01-20 11:50:33.296  1677    42 I Unity   : UnityEngine.XR.Tango.TangoInputTracking:.cctor()
01-20 11:50:33.296  1677    42 I Unity   : UnityEngine.ImageConversion:LoadImage(Texture2D, Byte[])
01-20 11:50:33.296  1677    42 I Unity   : UnityEngine.ImageConversion:LoadImage(Texture2D, Byte[])
01-20 11:50:33.296  1677    42 I Unity   :  
01-20 11:50:33.296  1677    42 I Unity   : (Filename: C:/buildslave/unity/build\Runtime/Export/Debug.bindings.h Line: 43)
01-20 11:50:33.296  1677    42 I Unity   : 
01-20 11:50:33.111  1677    42 I Unity   :  
01-20 11:50:33.309  1677    42 I Unity   : System.Diagnostics.StackTrace:.ctor(Int32, Boolean)
01-20 11:50:33.309  1677    42 I Unity   : UnityEngine.StackTraceUtility:ExtractStackTrace()
01-20 11:50:33.309  1677    42 I Unity   : UnityEngine.XR.Tango.TangoInputTracking:.cctor()
01-20 11:50:33.309  1677    42 I Unity   : UnityEngine.DebugLogHandler:Internal_Log(LogType, String, Object)
01-20 11:50:33.122  1677    42 I Unity   : Count = 32
01-20 11:50:33.122  1677    42 I Unity   : System.Diagnostics.StackTrace:.ctor(Int32, Boolean)
01-20 11:50:33.309  1677    42 I Unity   : UDPPacketIO:ReceivePacket(Byte[])
01-20 11:50:33.309  1677    42 I Unity   : OSC:Read()
01-20 11:50:33.122  1677    42 I Unity   : UnityEngine.XR.Tango.TangoInputTracking:.cctor()
01-20 11:50:33.309  1677    42 I Unity   : UnityEngine.ImageConversion:LoadImage(Texture2D, Byte[])
01-20 11:50:33.309  1677    42 I Unity   : UnityEngine.XR.Tango.TangoInputTracking:.cctor()
01-20 11:50:33.309  1677    42 I Unity   : UnityEngine.XR.Tango.TangoInputTracking:.cctor()
01-20 11:50:33.122  1677    42 I Unity   : UnityEngine.DebugLogHandler:LogFormat(LogType, Object, String, Object[])
01-20 11:50:33.122  1677    42 I Unity   : UnityEngine.Logger:Log(LogType, Object)
01-20 11:50:33.122  1677    42 I Unity   : UnityEngine.Debug:Log(Object)
01-20 11:50:33.122  1677    42 I Unity   : UDPPacketIO:ReceivePacket(Byte[])
01-20 11:50:33.122  1677    42 I Unity   : OSC:Read()
01-20 11:50:33.122  1677    42 I Unity   : System.Threading.ThreadStart:Invoke()
01-20 11:50:33.122  1677    42 I Unity   : UnityEngine.ImageConversion:LoadImage(Texture2D, Byte[])
01-20 11:50:33.122  1677    42 I Unity   : UnityEngine.XR.Tango.TangoInputTracking:.cctor()
01-20 11:50:33.319  1677    42 I Unity   : Read 4
01-20 11:50:33.319  1677    42 I Unity   : System.Diagnostics.StackTrace:.ctor(Int32, Boolean)
01-20 11:50:33.319  1677    42 I Unity   : UnityEngine.StackTraceUtility:ExtractStackTrace()
01-20 11:50:33.319  1677    42 I Unity   : UnityEngine.XR.Tango.TangoInputTracking:.cctor()
01-20 11:50:33.319  1677    42 I Unity   : UnityEngine.DebugLogHandler:Internal_Log(LogType, String, Object)
01-20 11:50:33.319  1677    42 I Unity   : UnityEngine.DebugLogHandler:LogFormat(LogType, Object, String, Object[])
01-20 11:50:33.319  1677    42 I Unity   : UnityEngine.Logger:Log(LogType, Object)
01-20 11:50:33.319  1677    42 I Unity   : UnityEngine.Debug:Log(Object)
01-20 11:50:33.319  1677    42 I Unity   : OSC:Read()
01-20 11:50:33.319  1677    42 I Unity   : System.Threading.ThreadStart:Invoke()
01-20 11:50:33.132  1677    42 I Unity   : UnityEngine.DebugLogHandler:LogFormat(LogType, Object, String, Object[])
01-20 11:50:33.132  1677    42 I Unity   : UnityEngine.Logger:Log(LogType, Object)
01-20 11:50:33.132  1677    42 I Unity   : UnityEngine.Debug:Log(Object)
01-20 11:50:33.132  1677    42 I Unity   : OSC:Read()
01-20 11:50:33.132  1677    42 I Unity   : System.Threading.ThreadStart:Invoke()
01-20 11:50:33.132  1677    42 I Unity   : UnityEngine.ImageConversion:LoadImage(Texture2D, Byte[])
01-20 11:50:33.319  1677    42 I Unity   :  
01-20 11:50:33.319  1677    42 I Unity   : (Filename: C:/buildslave/unity/build\Runtime/Export/Debug.bindings.h Line: 43)
01-20 11:50:33.319  1677    42 I Unity   : 
01-20 11:50:33.330  1677    42 I Unity   : Read 5
01-20 11:50:33.132  1677    42 I Unity   :  
01-20 11:50:33.330  1677    42 I Unity   : System.Diagnostics.StackTrace:.ctor(Int32, Boolean)
01-20 11:50:33.132  1677    42 I Unity   : (Filename: C:/buildslave/unity/build\Runtime/Export/Debug.bindings.h Line: 43)
01-20 11:50:33.132  1677    42 I Unity   : 
01-20 11:50:33.142  1677    42 I Unity   : Read 5
01-20 11:50:33.142  1677    42 I Unity   : System.Diagnostics.StackTrace:.ctor(Int32, Boolean)
01-20 11:50:33.142  1677    42 I Unity   : UnityEngine.StackTraceUtility:ExtractStackTrace()
01-20 11:50:33.330  1677    42 I Unity   : UnityEngine.XR.Tango.TangoInputTracking:.cctor()
01-20 11:50:33.330  1677    42 I Unity   : UnityEngine.DebugLogHandler:Internal_Log(LogType, String, Object)
01-20 11:50:33.330  1677    42 I Unity   : UnityEngine.DebugLogHandler:LogFormat(LogType, Object, String, Object[])
01-20 11:50:33.142  1677    42 I Unity   : UnityEngine.Logger:Log(LogType, Object)
01-20 11:50:33.142  1677    42 I Unity   : UnityEngine.Debug:Log(Object)
01-20 11:50:33.330  1677    42 I Unity   : UnityEngine.Debug:Log(Object)
01-20 11:50:33.330  1677    42 I Unity   : OSC:Read()
01-20 11:50:33.330  1677    42 I Unity   : System.Threading.ThreadStart:Invoke()
01-20 11:50:33.142  1677    42 I Unity   : UnityEngine.XR.Tango.TangoInputTracking:.cctor()
01-20 11:50:33.142  1677    42 I Unity   : UnityEngine.ImageConversion:LoadImage(Texture2D, Byte[])
01-20 11:50:33.142  1677    42 I Unity   : UnityEngine.ImageConversion:LoadImage(Texture2D, Byte[])
01-20 11:50:33.142  1677    42 I Unity   :  
01-20 11:50:33.330  1677    42 I Unity   : UnityEngine.ImageConversion:LoadImage(Texture2D, Byte[])
01-20 11:50:33.330  1677    42 I Unity   : UnityEngine.ImageConversion:LoadImage(Texture2D, Byte[])
01-20 11:50:33.142  1677    42 I Unity   : 
01-20 11:50:33.152  1677    42 I Unity   : Read 6
01-20 11:50:33.152  1677    42 I Unity   : System.Diagnostics.StackTrace:.ctor(Int32, Boolean)
01-20 11:50:33.152  1677    42 I Unity   : UnityEngine.StackTraceUtility:ExtractStackTrace()
01-20 11:50:33.152  1677    42 I Unity   : UnityEngine.XR.Tango.TangoInputTracking:.cctor()
01-20 11:50:33.152  1677    42 I Unity   : UnityEngine.DebugLogHandler:Internal_Log(LogType, String, Object)
01-20 11:50:33.152  1677    42 I Unity   : UnityEngine.DebugLogHandler:LogFormat(LogType, Object, String, Object[])
01-20 11:50:33.152  1677    42 I Unity   : UnityEngine.Logger:Log(LogType, Object)
01-20 11:50:33.339  1677    42 I Unity   : UnityEngine.DebugLogHandler:Internal_Log(LogType, String, Object)
01-20 11:50:33.152  1677    42 I Unity   : OSC:Read()
01-20 11:50:33.152  1677    42 I Unity   : System.Threading.ThreadStart:Invoke()
01-20 11:50:33.339  1677    42 I Unity   : UnityEngine.Logger:Log(LogType, Object)
01-20 11:50:33.152  1677    42 I Unity   : UnityEngine.XR.Tango.TangoInputTracking:.cctor()
01-20 11:50:33.152  1677    42 I Unity   : UnityEngine.XR.Tango.TangoInputTracking:.cctor()
01-20 11:50:33.339  1677    42 I Unity   : OSC:Read()
01-20 11:50:33.339  1677    42 I Unity   : System.Threading.ThreadStart:Invoke()
01-20 11:50:33.339  1677    42 I Unity   : UnityEngine.ImageConversion:LoadImage(Texture2D, Byte[])
01-20 11:50:33.152  1677    42 I Unity   : (Filename: C:/buildslave/unity/build\Runtime/Export/Debug.bindings.h Line: 43)
01-20 11:50:33.152  1677    42 I Unity   : 
01-20 11:50:33.162  1677    42 I Unity   : newMessages!
01-20 11:50:33.162  1677    42 I Unity   : System.Diagnostics.StackTrace:.ctor(Int32, Boolean)
01-20 11:50:33.162  1677    42 I Unity   : UnityEngine.StackTraceUtility:ExtractStackTrace()
01-20 11:50:33.162  1677    42 I Unity   : UnityEngine.XR.Tango.TangoInputTracking:.cctor()
01-20 11:50:33.162  1677    42 I Unity   : UnityEngine.DebugLogHandler:Internal_Log(LogType, String, Object)
01-20 11:50:33.339  1677    42 I Unity   : (Filename: C:/buildslave/unity/build\Runtime/Export/Debug.bindings.h Line: 43)
01-20 11:50:33.339  1677    42 I Unity   : 
01-20 11:50:33.350  1677    42 I Unity   : newMessages!
01-20 11:50:33.350  1677    42 I Unity   : System.Diagnostics.StackTrace:.ctor(Int32, Boolean)
01-20 11:50:33.350  1677    42 I Unity   : UnityEngine.StackTraceUtility:ExtractStackTrace()
01-20 11:50:33.162  1677    42 I Unity   : UnityEngine.ImageConversion:LoadImage(Texture2D, Byte[])
01-20 11:50:33.162  1677    42 I Unity   : UnityEngine.XR.Tango.TangoInputTracking:.cctor()
01-20 11:50:33.162  1677    42 I Unity   : UnityEngine.XR.Tango.TangoInputTracking:.cctor()
01-20 11:50:33.162  1677    42 I Unity   : UnityEngine.ImageConversion:LoadImage(Texture2D, Byte[])
01-20 11:50:33.162  1677    42 I Unity   : UnityEngine.ImageConversion:LoadImage(Texture2D, Byte[])
01-20 11:50:33.162  1677    42 I Unity   :  
01-20 11:50:33.162  1677    42 I Unity   : (Filename: C:/buildslave/unity/build\Runtime/Export/Debug.bindings.h Line: 43)
01-20 11:50:33.350  1677    42 I Unity   : System.Threading.ThreadStart:Invoke()
01-20 11:50:33.350  1677    42 I Unity   : UnityEngine.ImageConversion:LoadImage(Texture2D, Byte[])
01-20 11:50:33.350  1677    42 I Unity   : UnityEngine.XR.Tango.TangoInputTracking:.cctor()
01-20 11:50:33.350  1677    42 I Unity   : UnityEngine.XR.Tango.TangoInputTracking:.cctor()
01-20 11:50:33.350  1677    42 I Unity   : UnityEngine.ImageConversion:LoadImage(Texture2D, Byte[])
01-20 11:50:33.171  1677    42 I Unity   : UnityEngine.XR.Tango.TangoInputTracking:.cctor()
01-20 11:50:33.171  1677    42 I Unity   : UnityEngine.DebugLogHandler:Internal_Log(LogType, String, Object)
01-20 11:50:33.171  1677    42 I Unity   : UnityEngine.DebugLogHandler:LogFormat(LogType, Object, String, Object[])
01-20 11:50:33.171  1677    42 I Unity   : UnityEngine.Logger:Log(LogType, Object)
01-20 11:50:33.171  1677    42 I Unity   : UnityEngine.Debug:Log(Object)
01-20 11:50:33.171  1677    42 I Unity   : OSC:Read()
01-20 11:50:33.171  1677    42 I Unity   : System.Threading.ThreadStart:Invoke()
01-20 11:50:33.171  1677    42 I Unity   : UnityEngine.ImageConversion:LoadImage(Texture2D, Byte[])
01-20 11:50:33.205  1677    42 I Unity   : UnityEngine.Logger:Log(LogType, Object)
01-20 11:50:33.359  1677    42 I Unity   : UnityEngine.DebugLogHandler:Internal_Log(LogType, String, Object)
01-20 11:50:33.205  1677    42 I Unity   : UDPPacketIO:ReceivePacket(Byte[])
01-20 11:50:33.205  1677    42 I Unity   : OSC:Read()
01-20 11:50:33.359  1677    42 I Unity   : UnityEngine.Logger:Log(LogType, Object)
01-20 11:50:33.205  1677    42 I Unity   : UnityEngine.ImageConversion:LoadImage(Texture2D, Byte[])
01-20 11:50:33.171  1677    42 I Unity   :  
01-20 11:50:33.205  1677    42 I Unity   : UnityEngine.XR.Tango.TangoInputTracking:.cctor()
01-20 11:50:33.205  1677    42 I Unity   : UnityEngine.ImageConversion:LoadImage(Texture2D, Byte[])
01-20 11:50:33.359  1677    42 I Unity   : UnityEngine.ImageConversion:LoadImage(Texture2D, Byte[])
01-20 11:50:33.359  1677    42 I Unity   : UnityEngine.XR.Tango.TangoInputTracking:.cctor()
01-20 11:50:33.205  1677    42 I Unity   : (Filename: C:/buildslave/unity/build\Runtime/Export/Debug.bindings.h Line: 43)
01-20 11:50:33.205  1677    42 I Unity   : 
01-20 11:50:33.359  1677    42 I Unity   : UnityEngine.ImageConversion:LoadImage(Texture2D, Byte[])
01-20 11:50:33.359  1677    42 I Unity   :  
01-20 11:50:33.359  1677    42 I Unity   : (Filename: C:/buildslave/unity/build\Runtime/Export/Debug.bindings.h Line: 43)
01-20 11:50:33.183  1677    42 I Unity   : UnityEngine.Debug:Log(Object)
01-20 11:50:33.216  1677    42 I Unity   : UnityEngine.DebugLogHandler:Internal_Log(LogType, String, Object)
01-20 11:50:33.216  1677    42 I Unity   : UnityEngine.DebugLogHandler:LogFormat(LogType, Object, String, Object[])
01-20 11:50:33.216  1677    42 I Unity   : UnityEngine.Logger:Log(LogType, Object)
01-20 11:50:33.216  1677    42 I Unity   : UnityEngine.Debug:Log(Object)
01-20 11:50:33.216  1677    42 I Unity   : UDPPacketIO:ReceivePacket(Byte[])
01-20 11:50:33.370  1677    42 I Unity   : UnityEngine.XR.Tango.TangoInputTracking:.cctor()
01-20 11:50:33.183  1677    42 I Unity   : UnityEngine.ImageConversion:LoadImage(Texture2D, Byte[])
01-20 11:50:33.216  1677    42 I Unity   : UnityEngine.ImageConversion:LoadImage(Texture2D, Byte[])
01-20 11:50:33.216  1677    42 I Unity   : UnityEngine.XR.Tango.TangoInputTracking:.cctor()
01-20 11:50:33.216  1677    42 I Unity   : UnityEngine.XR.Tango.TangoInputTracking:.cctor()
01-20 11:50:33.216  1677    42 I Unity   : UnityEngine.ImageConversion:LoadImage(Texture2D, Byte[])
01-20 11:50:33.216  1677    42 I Unity   : UnityEngine.ImageConversion:LoadImage(Texture2D, Byte[])
01-20 11:50:33.370  1677    42 I Unity   : System.Threading.ThreadStart:Invoke()
01-20 11:50:33.193  1677    42 I Unity   : UnityEngine.XR.Tango.TangoInputTracking:.cctor()
01-20 11:50:33.193  1677    42 I Unity   : UnityEngine.DebugLogHandler:Internal_Log(LogType, String, Object)
01-20 11:50:33.193  1677    42 I Unity   : UnityEngine.DebugLogHandler:LogFormat(LogType, Object, String, Object[])
01-20 11:50:33.193  1677    42 I Unity   : UnityEngine.Logger:Log(LogType, Object)
01-20 11:50:33.193  1677    42 I Unity   : UnityEngine.Debug:Log(Object)
01-20 11:50:33.193  1677    42 I Unity   : UDPPacketIO:ReceivePacket(Byte[])
01-20 11:50:33.193  1677    42 I Unity   : OSC:Read()
01-20 11:50:33.193  1677    42 I Unity   : System.Threading.ThreadStart:Invoke()
01-20 11:50:33.193  1677    42 I Unity   : UnityEngine.ImageConversion:LoadImage(Texture2D, Byte[])
01-20 11:50:33.193  1677    42 I Unity   : UnityEngine.XR.Tango.TangoInputTracking:.cctor()
01-20 11:50:33.193  1677    42 I Unity   : UnityEngine.XR.Tango.TangoInputTracking:.cctor()
01-20 11:50:33.193  1677    42 I Unity   : UnityEngine.ImageConversion:LoadImage(Texture2D, Byte[])
01-20 11:50:33.193  1677    42 I Unity   : UnityEngine.ImageConversion:LoadImage(Texture2D, Byte[])
01-20 11:50:33.193  1677    42 I Unity   :  
01-20 11:50:33.193  1677    42 I Unity   : (Filename: C:/buildslave/unity/build\Runtime/Export/Debug.bindings.h Line: 43)
01-20 11:50:33.225  1677    42 I Unity   : UnityEngine.XR.Tango.TangoInputTracking:.cctor()
01-20 11:50:33.225  1677    42 I Unity   : UnityEngine.XR.Tango.TangoInputTracking:.cctor()
01-20 11:50:33.205  1677    42 I Unity   : UnityEngine.StackTraceUtility:ExtractStackTrace()
01-20 11:50:33.205  1677    42 I Unity   : UnityEngine.XR.Tango.TangoInputTracking:.cctor()
01-20 11:50:33.205  1677    42 I Unity   : UnityEngine.DebugLogHandler:Internal_Log(LogType, String, Object)
01-20 11:50:33.205  1677    42 I Unity   : UnityEngine.DebugLogHandler:LogFormat(LogType, Object, String, Object[])
01-20 11:50:33.205  1677    42 I Unity   : UnityEngine.Logger:Log(LogType, Object)
01-20 11:50:33.205  1677    42 I Unity   : UnityEngine.Debug:Log(Object)
01-20 11:50:33.205  1677    42 I Unity   : UDPPacketIO:ReceivePacket(Byte[])
01-20 11:50:33.225  1677    42 I Unity   : (Filename: C:/buildslave/unity/build\Runtime/Export/Debug.bindings.h Line: 43)
01-20 11:50:33.225  1677    42 I Unity   : 
01-20 11:50:33.381  1677    42 I Unity   : UnityEngine.XR.Tango.TangoInputTracking:.cctor()
01-20 11:50:33.205  1677    42 I Unity   : UnityEngine.ImageConversion:LoadImage(Texture2D, Byte[])
01-20 11:50:33.205  1677    42 I Unity   : UnityEngine.XR.Tango.TangoInputTracking:.cctor()
01-20 11:50:33.205  1677    42 I Unity   : UnityEngine.XR.Tango.TangoInputTracking:.cctor()
01-20 11:50:33.381  1677    42 I Unity   : UnityEngine.Debug:Log(Object)
01-20 11:50:33.381  1677    42 I Unity   : UDPPacketIO:ReceivePacket(Byte[])
01-20 11:50:33.381  1677    42 I Unity   : OSC:Read()
01-20 11:50:33.235  1677    42 I Unity   : UnityEngine.Debug:Log(Object)
01-20 11:50:33.235  1677    42 I Unity   : OSC:Read()
01-20 11:50:33.235  1677    42 I Unity   : System.Threading.ThreadStart:Invoke()
01-20 11:50:33.235  1677    42 I Unity   : UnityEngine.ImageConversion:LoadImage(Texture2D, Byte[])
01-20 11:50:33.235  1677    42 I Unity   : UnityEngine.XR.Tango.TangoInputTracking:.cctor()
01-20 11:50:33.235  1677    42 I Unity   : UnityEngine.XR.Tango.TangoInputTracking:.cctor()
01-20 11:50:33.235  1677    42 I Unity   : UnityEngine.ImageConversion:LoadImage(Texture2D, Byte[])
01-20 11:50:33.216  1677    42 I Unity   : System.Threading.ThreadStart:Invoke()
01-20 11:50:33.216  1677    42 I Unity   : UnityEngine.ImageConversion:LoadImage(Texture2D, Byte[])
01-20 11:50:33.216  1677    42 I Unity   : UnityEngine.XR.Tango.TangoInputTracking:.cctor()
01-20 11:50:33.216  1677    42 I Unity   : UnityEngine.XR.Tango.TangoInputTracking:.cctor()
01-20 11:50:33.216  1677    42 I Unity   : UnityEngine.ImageConversion:LoadImage(Texture2D, Byte[])
01-20 11:50:33.216  1677    42 I Unity   : UnityEngine.ImageConversion:LoadImage(Texture2D, Byte[])
01-20 11:50:33.216  1677    42 I Unity   :  
01-20 11:50:33.235  1677    42 I Unity   : (Filename: C:/buildslave/unity/build\Runtime/Export/Debug.bindings.h Line: 43)
01-20 11:50:33.235  1677    42 I Unity   : 
01-20 11:50:33.225  1677    42 I Unity   : System.Diagnostics.StackTrace:.ctor(Int32, Boolean)
01-20 11:50:33.245  1677    42 I Unity   : System.Diagnostics.StackTrace:.ctor(Int32, Boolean)
01-20 11:50:33.245  1677    42 I Unity   : UnityEngine.StackTraceUtility:ExtractStackTrace()
01-20 11:50:33.392  1677    42 I Unity   : UnityEngine.XR.Tango.TangoInputTracking:.cctor()
01-20 11:50:33.225  1677    42 I Unity   : UnityEngine.DebugLogHandler:Internal_Log(LogType, String, Object)
01-20 11:50:33.245  1677    42 I Unity   : UnityEngine.DebugLogHandler:LogFormat(LogType, Object, String, Object[])
01-20 11:50:33.245  1677    42 I Unity   : UnityEngine.Logger:Log(LogType, Object)
01-20 11:50:33.225  1677    42 I Unity   : UnityEngine.Logger:Log(LogType, Object)
01-20 11:50:33.225  1677    42 I Unity   : UnityEngine.Debug:Log(Object)
01-20 11:50:33.225  1677    42 I Unity   : OSC:Read()
01-20 11:50:33.225  1677    42 I Unity   : System.Threading.ThreadStart:Invoke()
01-20 11:50:33.225  1677    42 I Unity   : UnityEngine.ImageConversion:LoadImage(Texture2D, Byte[])
01-20 11:50:33.225  1677    42 I Unity   : UnityEngine.XR.Tango.TangoInputTracking:.cctor()
01-20 11:50:33.225  1677    42 I Unity   : UnityEngine.XR.Tango.TangoInputTracking:.cctor()
01-20 11:50:33.245  1677    42 I Unity   :  
01-20 11:50:33.225  1677    42 I Unity   : UnityEngine.ImageConversion:LoadImage(Texture2D, Byte[])
01-20 11:50:33.392  1677    42 I Unity   : UnityEngine.ImageConversion:LoadImage(Texture2D, Byte[])
01-20 11:50:33.392  1677    42 I Unity   : UnityEngine.XR.Tango.TangoInputTracking:.cctor()
01-20 11:50:33.255  1677    42 I Unity   : UnityEngine.StackTraceUtility:ExtractStackTrace()
01-20 11:50:33.255  1677    42 I Unity   : UnityEngine.XR.Tango.TangoInputTracking:.cctor()
01-20 11:50:33.235  1677    42 I Unity   : Read 5
01-20 11:50:33.392  1677    42 I Unity   : UnityEngine.XR.Tango.TangoInputTracking:.cctor()
01-20 11:50:33.392  1677    42 I Unity   : UnityEngine.ImageConversion:LoadImage(Texture2D, Byte[])
01-20 11:50:33.392  1677    42 I Unity   : UnityEngine.ImageConversion:LoadImage(Texture2D, Byte[])
01-20 11:50:33.392  1677    42 I Unity   :  
01-20 11:50:33.392  1677    42 I Unity   : (Filename: C:/buildslave/unity/build\Runtime/Export/Debug.bindings.h Line: 43)
01-20 11:50:33.392  1677    42 I Unity   : 
01-20 11:50:33.403  1677    42 I Unity   : Count = 44
01-20 11:50:33.255  1677    42 I Unity   : System.Threading.ThreadStart:Invoke()
01-20 11:50:33.255  1677    42 I Unity   : UnityEngine.ImageConversion:LoadImage(Texture2D, Byte[])
01-20 11:50:33.255  1677    42 I Unity   : UnityEngine.XR.Tango.TangoInputTracking:.cctor()
01-20 11:50:33.403  1677    42 I Unity   : UnityEngine.XR.Tango.TangoInputTracking:.cctor()
01-20 11:50:33.255  1677    42 I Unity   : UnityEngine.ImageConversion:LoadImage(Texture2D, Byte[])
01-20 11:50:33.255  1677    42 I Unity   : UnityEngine.ImageConversion:LoadImage(Texture2D, Byte[])
01-20 11:50:33.235  1677    42 I Unity   : UnityEngine.ImageConversion:LoadImage(Texture2D, Byte[])
01-20 11:50:33.235  1677    42 I Unity   : UnityEngine.ImageConversion:LoadImage(Texture2D, Byte[])
01-20 11:50:33.255  1677    42 I Unity   : 
01-20 11:50:33.403  1677    42 I Unity   : UnityEngine.Debug:Log(Object)
01-20 11:50:33.403  1677    42 I Unity   : UDPPacketIO:ReceivePacket(Byte[])
01-20 11:50:33.403  1677    42 I Unity   : OSC:Read()
01-20 11:50:33.245  1677    42 I Unity   : Read 6
01-20 11:50:33.403  1677    42 I Unity   : System.Threading.ThreadStart:Invoke()
01-20 11:50:33.264  1677    42 I Unity   : UnityEngine.XR.Tango.TangoInputTracking:.cctor()
01-20 11:50:33.245  1677    42 I Unity   : UnityEngine.StackTraceUtility:ExtractStackTrace()
01-20 11:50:33.403  1677    42 I Unity   : UnityEngine.XR.Tango.TangoInputTracking:.cctor()
01-20 11:50:33.403  1677    42 I Unity   : UnityEngine.XR.Tango.TangoInputTracking:.cctor()
01-20 11:50:33.403  1677    42 I Unity   : UnityEngine.ImageConversion:LoadImage(Texture2D, Byte[])
01-20 11:50:33.403  1677    42 I Unity   : UnityEngine.ImageConversion:LoadImage(Texture2D, Byte[])
01-20 11:50:33.403  1677    42 I Unity   :  
01-20 11:50:33.403  1677    42 I Unity   : (Filename: C:/buildslave/unity/build\Runtime/Export/Debug.bindings.h Line: 43)
01-20 11:50:33.403  1677    42 I Unity   : 
01-20 11:50:33.413  1677    42 I Unity   : Read 4
01-20 11:50:33.274  1677    42 I Unity   : UnityEngine.DebugLogHandler:Internal_Log(LogType, String, Object)
01-20 11:50:33.274  1677    42 I Unity   : UnityEngine.DebugLogHandler:LogFormat(LogType, Object, String, Object[])
01-20 11:50:33.274  1677    42 I Unity   : UnityEngine.Logger:Log(LogType, Object)
01-20 11:50:33.274  1677    42 I Unity   : UnityEngine.Debug:Log(Object)
01-20 11:50:33.274  1677    42 I Unity   : OSC:Read()
01-20 11:50:33.255  1677    42 I Unity   : newMessages!
01-20 11:50:33.255  1677    42 I Unity   : System.Diagnostics.StackTrace:.ctor(Int32, Boolean)
01-20 11:50:33.413  1677    42 I Unity   : UnityEngine.Logger:Log(LogType, Object)
01-20 11:50:33.413  1677    42 I Unity   : UnityEngine.Debug:Log(Object)
01-20 11:50:33.413  1677    42 I Unity   : OSC:Read()
01-20 11:50:33.413  1677    42 I Unity   : System.Threading.ThreadStart:Invoke()
01-20 11:50:33.413  1677    42 I Unity   : UnityEngine.ImageConversion:LoadImage(Texture2D, Byte[])
01-20 11:50:33.413  1677    42 I Unity   : UnityEngine.XR.Tango.TangoInputTracking:.cctor()
01-20 11:50:33.413  1677    42 I Unity   : UnityEngine.XR.Tango.TangoInputTracking:.cctor()
01-20 11:50:33.413  1677    42 I Unity   : UnityEngine.ImageConversion:LoadImage(Texture2D, Byte[])
01-20 11:50:33.413  1677    42 I Unity   : UnityEngine.ImageConversion:LoadImage(Texture2D, Byte[])
01-20 11:50:33.413  1677    42 I Unity   :  
01-20 11:50:33.413  1677    42 I Unity   : (Filename: C:/buildslave/unity/build\Runtime/Export/Debug.bindings.h Line: 43)
01-20 11:50:33.286  1677    42 I Unity   : System.Diagnostics.StackTrace:.ctor(Int32, Boolean)
01-20 11:50:33.286  1677    42 I Unity   : UnityEngine.StackTraceUtility:ExtractStackTrace()
01-20 11:50:33.286  1677    42 I Unity   : UnityEngine.XR.Tango.TangoInputTracking:.cctor()
01-20 11:50:33.286  1677    42 I Unity   : UnityEngine.DebugLogHandler:Internal_Log(LogType, String, Object)
01-20 11:50:33.286  1677    42 I Unity   : UnityEngine.DebugLogHandler:LogFormat(LogType, Object, String, Object[])
01-20 11:50:33.286  1677    42 I Unity   : UnityEngine.Logger:Log(LogType, Object)
01-20 11:50:33.286  1677    42 I Unity   : UnityEngine.Debug:Log(Object)
01-20 11:50:33.286  1677    42 I Unity   : UDPPacketIO:ReceivePacket(Byte[])
01-20 11:50:33.286  1677    42 I Unity   : OSC:Read()
01-20 11:50:33.286  1677    42 I Unity   : System.Threading.ThreadStart:Invoke()
01-20 11:50:33.264  1677    42 I Unity   : UnityEngine.Logger:Log(LogType, Object)
01-20 11:50:33.264  1677    42 I Unity   : UnityEngine.Debug:Log(Object)
01-20 11:50:33.264  1677    42 I Unity   : OSC:Read()
01-20 11:50:33.264  1677    42 I Unity   : System.Threading.ThreadStart:Invoke()
01-20 11:50:33.264  1677    42 I Unity   : UnityEngine.ImageConversion:LoadImage(Texture2D, Byte[])
01-20 11:50:33.264  1677    42 I Unity   : UnityEngine.XR.Tango.TangoInputTracking:.cctor()
01-20 11:50:33.264  1677    42 I Unity   : UnityEngine.XR.Tango.TangoInputTracking:.cctor()
01-20 11:50:33.264  1677    42 I Unity   : UnityEngine.ImageConversion:LoadImage(Texture2D, Byte[])
01-20 11:50:33.264  1677    42 I Unity   : UnityEngine.ImageConversion:LoadImage(Texture2D, Byte[])
01-20 11:50:33.264  1677    42 I Unity   :  
01-20 11:50:33.264  1677    42 I Unity   : (Filename: C:/buildslave/unity/build\Runtime/Export/Debug.bindings.h Line: 43)
01-20 11:50:33.264  1677    42 I Unity   : 
01-20 11:50:33.274  1677    42 I Unity   : Read 3
01-20 11:50:33.274  1677    42 I Unity   : System.Diagnostics.StackTrace:.ctor(Int32, Boolean)
01-20 11:50:33.274  1677    42 I Unity   : UnityEngine.StackTraceUtility:ExtractStackTrace()
01-20 11:50:33.274  1677    42 I Unity   : UnityEngine.XR.Tango.TangoInputTracking:.cctor()
01-20 11:50:33.296  1677    42 I Unity   : UnityEngine.XR.Tango.TangoInputTracking:.cctor()
01-20 11:50:33.423  1677    42 I Unity   : 
01-20 11:50:33.432  1677    42 I Unity   : Read 6
01-20 11:50:33.432  1677    42 I Unity   : System.Diagnostics.StackTrace:.ctor(Int32, Boolean)
01-20 11:50:33.274  1677    42 I Unity   : UnityEngine.Debug:Log(Object)
01-20 11:50:33.432  1677    42 I Unity   : UnityEngine.XR.Tango.TangoInputTracking:.cctor()
01-20 11:50:33.274  1677    42 I Unity   : System.Threading.ThreadStart:Invoke()
01-20 11:50:33.274  1677    42 I Unity   : UnityEngine.ImageConversion:LoadImage(Texture2D, Byte[])
01-20 11:50:33.274  1677    42 I Unity   : UnityEngine.XR.Tango.TangoInputTracking:.cctor()
01-20 11:50:33.274  1677    42 I Unity   : UnityEngine.XR.Tango.TangoInputTracking:.cctor()
01-20 11:50:33.274  1677    42 I Unity   : UnityEngine.ImageConversion:LoadImage(Texture2D, Byte[])
01-20 11:50:33.296  1677    42 I Unity   : UnityEngine.ImageConversion:LoadImage(Texture2D, Byte[])
01-20 11:50:33.432  1677    42 I Unity   : UnityEngine.Debug:Log(Object)
01-20 11:50:33.432  1677    42 I Unity   : OSC:Read()
