ReceivePacket!
System.Diagnostics.StackTrace:.ctor(Int32, Boolean)
UnityEngine.StackTraceUtility:ExtractStackTrace()
UnityEngine.XR.Tango.TangoInputTracking:.cctor()
UnityEngine.DebugLogHandler:Internal_Log(LogType, String, Object)
UnityEngine.DebugLogHandler:LogFormat(LogType, Object, String, Object[])
UnityEngine.Logger:Log(LogType, Object)
UnityEngine.Debug:Log(Object)
UDPPacketIO:ReceivePacket(Byte[])
OSC:Read()
System.Threading.ThreadStart:Invoke()
UnityEngine.ImageConversion:LoadImage(Texture2D, Byte[])
UnityEngine.XR.Tango.TangoInputTracking:.cctor()
UnityEngine.XR.Tango.TangoInputTracking:.cctor()
UnityEngine.ImageConversion:LoadImage(Texture2D, Byte[])
UnityEngine.ImageConversion:LoadImage(Texture2D, Byte[])
 
(Filename: C:/buildslave/unity/build\Runtime/Export/Debug.bindings.h Line: 43)

True
System.Diagnostics.StackTrace:.ctor(Int32, Boolean)
UnityEngine.StackTraceUtility:ExtractStackTrace()
UnityEngine.XR.Tango.TangoInputTracking:.cctor()
UnityEngine.DebugLogHandler:Internal_Log(LogType, String, Object)
UnityEngine.DebugLogHandler:LogFormat(LogType, Object, String, Object[])
UnityEngine.Logger:Log(LogType, Object)
UnityEngine.Debug:Log(Object)
UDPPacketIO:ReceivePacket(Byte[])
OSC:Read()
System.Threading.ThreadStart:Invoke()
UnityEngine.ImageConversion:LoadImage(Texture2D, Byte[])
UnityEngine.XR.Tango.TangoInputTracking:.cctor()
UnityEngine.XR.Tango.TangoInputTracking:.cctor()
UnityEngine.ImageConversion:LoadImage(Texture2D, Byte[])
UnityEngine.ImageConversion:LoadImage(Texture2D, Byte[])
 
(Filename: C:/buildslave/unity/build\Runtime/Export/Debug.bindings.h Line: 43)

Count = 48
System.Diagnostics.StackTrace:.ctor(Int32, Boolean)
UnityEngine.StackTraceUtility:ExtractStackTrace()
UnityEngine.XR.Tango.TangoInputTracking:.cctor()
UnityEngine.DebugLogHandler:Internal_Log(LogType, String, Object)
UnityEngine.DebugLogHandler:LogFormat(LogType, Object, String, Object[])
UnityEngine.Logger:Log(LogType, Object)
UnityEngine.Debug:Log(Object)
UDPPacketIO:ReceivePacket(Byte[])
OSC:Read()
System.Threading.ThreadStart:Invoke()
UnityEngine.ImageConversion:LoadImage(Texture2D, Byte[])
UnityEngine.XR.Tango.TangoInputTracking:.cctor()
UnityEngine.XR.Tango.TangoInputTracking:.cctor()
UnityEngine.ImageConversion:LoadImage(Texture2D, Byte[])
UnityEngine.ImageConversion:LoadImage(Texture2D, Byte[])
 
(Filename: C:/buildslave/unity/build\Runtime/Export/Debug.bindings.h Line: 43)

Read 4
System.Diagnostics.StackTrace:.ctor(Int32, Boolean)
UnityEngine.StackTraceUtility:ExtractStackTrace()
UnityEngine.XR.Tango.TangoInputTracking:.cctor()
UnityEngine.DebugLogHandler:Internal_Log(LogType, String, Object)
UnityEngine.DebugLogHandler:LogFormat(LogType, Object, String, Object[])
UnityEngine.Logger:Log(LogType, Object)
UnityEngine.Debug:Log(Object)
OSC:Read()
System.Threading.ThreadStart:Invoke()
UnityEngine.ImageConversion:LoadImage(Texture2D, Byte[])
UnityEngine.XR.Tango.TangoInputTracking:.cctor()
UnityEngine.XR.Tango.TangoInputTracking:.cctor()
UnityEngine.ImageConversion:LoadImage(Texture2D, Byte[])
UnityEngine.ImageConversion:LoadImage(Texture2D, Byte[])
 
(Filename: C:/buildslave/unity/build\Runtime/Export/Debug.bindings.h Line: 43)

Read 5
System.Diagnostics.StackTrace:.ctor(Int32, Boolean)
UnityEngine.StackTraceUtility:ExtractStackTrace()
UnityEngine.XR.Tango.TangoInputTracking:.cctor()
UnityEngine.DebugLogHandler:Internal_Log(LogType, String, Object)
UnityEngine.DebugLogHandler:LogFormat(LogType, Object, String, Object[])
UnityEngine.Logger:Log(LogType, Object)
UnityEngine.Debug:Log(Object)
OSC:Read()
System.Threading.ThreadStart:Invoke()
UnityEngine.ImageConversion:LoadImage(Texture2D, Byte[])
UnityEngine.XR.Tango.TangoInputTracking:.cctor()
UnityEngine.XR.Tango.TangoInputTracking:.cctor()
UnityEngine.ImageConversion:LoadImage(Texture2D, Byte[])
UnityEngine.ImageConversion:LoadImage(Texture2D, Byte[])
 
(Filename: C:/buildslave/unity/build\Runtime/Export/Debug.bindings.h Line: 43)

Read 6
System.Diagnostics.StackTrace:.ctor(Int32, Boolean)
UnityEngine.StackTraceUtility:ExtractStackTrace()
UnityEngine.XR.Tango.TangoInputTracking:.cctor()
UnityEngine.DebugLogHandler:Internal_Log(LogType, String, Object)
UnityEngine.DebugLogHandler:LogFormat(LogType, Object, String, Object[])
UnityEngine.Logger:Log(LogType, Object)
UnityEngine.Debug:Log(Object)
OSC:Read()
System.Threading.ThreadStart:Invoke()
UnityEngine.ImageConversion:LoadImage(Texture2D, Byte[])
UnityEngine.XR.Tango.TangoInputTracking:.cctor()
UnityEngine.XR.Tango.TangoInputTracking:.cctor()
UnityEngine.ImageConversion:LoadImage(Texture2D, Byte[])
UnityEngine.ImageConversion:LoadImage(Texture2D, Byte[])
 
(Filename: C:/buildslave/unity/build\Runtime/Export/Debug.bindings.h Line: 43)

newMessages!
System.Diagnostics.StackTrace:.ctor(Int32, Boolean)
UnityEngine.StackTraceUtility:ExtractStackTrace()
UnityEngine.XR.Tango.TangoInputTracking:.cctor()
UnityEngine.DebugLogHandler:Internal_Log(LogType, String, Object)
UnityEngine.DebugLogHandler:LogFormat(LogType, Object, String, Object[])
UnityEngine.Logger:Log(LogType, Object)
UnityEngine.Debug:Log(Object)
OSC:Read()
System.Threading.ThreadStart:Invoke()
UnityEngine.ImageConversion:LoadImage(Texture2D, Byte[])
UnityEngine.XR.Tango.TangoInputTracking:.cctor()
UnityEngine.XR.Tango.TangoInputTracking:.cctor()
UnityEngine.ImageConversion:LoadImage(Texture2D, Byte[])
UnityEngine.ImageConversion:LoadImage(Texture2D, Byte[])
 
(Filename: C:/buildslave/unity/build\Runtime/Export/Debug.bindings.h Line: 43)

System.Collections.ArrayList
System.Diagnostics.StackTrace:.ctor(Int32, Boolean)
UnityEngine.StackTraceUtility:ExtractStackTrace()
UnityEngine.XR.Tango.TangoInputTracking:.cctor()
UnityEngine.DebugLogHandler:Internal_Log(LogType, String, Object)
UnityEngine.DebugLogHandler:LogFormat(LogType, Object, String, Object[])
UnityEngine.Logger:Log(LogType, Object)
UnityEngine.Debug:Log(Object)
OSC:Read()
System.Threading.ThreadStart:Invoke()
UnityEngine.ImageConversion:LoadImage(Texture2D, Byte[])
UnityEngine.XR.Tango.TangoInputTracking:.cctor()
UnityEngine.XR.Tango.TangoInputTracking:.cctor()
UnityEngine.ImageConversion:LoadImage(Texture2D, Byte[])
UnityEngine.ImageConversion:LoadImage(Texture2D, Byte[])
 
(Filename: C:/buildslave/unity/build\Runtime/Export/Debug.bindings.h Line: 43)

Read 3
System.Diagnostics.StackTrace:.ctor(Int32, Boolean)
UnityEngine.StackTraceUtility:ExtractStackTrace()
UnityEngine.XR.Tango.TangoInputTracking:.cctor()
UnityEngine.DebugLogHandler:Internal_Log(LogType, String, Object)
UnityEngine.DebugLogHandler:LogFormat(LogType, Object, String, Object[])
UnityEngine.Logger:Log(LogType, Object)
UnityEngine.Debug:Log(Object)
OSC:Read()
System.Threading.ThreadStart:Invoke()
UnityEngine.ImageConversion:LoadImage(Texture2D, Byte[])
UnityEngine.XR.Tango.TangoInputTracking:.cctor()
UnityEngine.XR.Tango.TangoInputTracking:.cctor()
UnityEngine.ImageConversion:LoadImage(Texture2D, Byte[])
UnityEngine.ImageConversion:LoadImage(Texture2D, Byte[])
 
(Filename: C:/buildslave/unity/build\Runtime/Export/Debug.bindings.h Line: 43)

ReceivePacket!
System.Diagnostics.StackTrace:.ctor(Int32, Boolean)
UnityEngine.StackTraceUtility:ExtractStackTrace()
UnityEngine.XR.Tango.TangoInputTracking:.cctor()
UnityEngine.DebugLogHandler:Internal_Log(LogType, String, Object)
UnityEngine.DebugLogHandler:LogFormat(LogType, Object, String, Object[])
UnityEngine.Logger:Log(LogType, Object)
UnityEngine.Debug:Log(Object)
UDPPacketIO:ReceivePacket(Byte[])
OSC:Read()
System.Threading.ThreadStart:Invoke()
UnityEngine.ImageConversion:LoadImage(Texture2D, Byte[])
UnityEngine.XR.Tango.TangoInputTracking:.cctor()
UnityEngine.XR.Tango.TangoInputTracking:.cctor()
UnityEngine.ImageConversion:LoadImage(Texture2D, Byte[])
UnityEngine.ImageConversion:LoadImage(Texture2D, Byte[])
 
(Filename: C:/buildslave/unity/build\Runtime/Export/Debug.bindings.h Line: 43)

True
System.Diagnostics.StackTrace:.ctor(Int32, Boolean)
UnityEngine.StackTraceUtility:ExtractStackTrace()
UnityEngine.XR.Tango.TangoInputTracking:.cctor()
UnityEngine.DebugLogHandler:Internal_Log(LogType, String, Object)
UnityEngine.DebugLogHandler:LogFormat(LogType, Object, String, Object[])
UnityEngine.Logger:Log(LogType, Object)
UnityEngine.Debug:Log(Object)
UDPPacketIO:ReceivePacket(Byte[])
OSC:Read()
System.Threading.ThreadStart:Invoke()
UnityEngine.ImageConversion:LoadImage(Texture2D, Byte[])
UnityEngine.XR.Tango.TangoInputTracking:.cctor()
UnityEngine.XR.Tango.TangoInputTracking:.cctor()
UnityEngine.ImageConversion:LoadImage(Texture2D, Byte[])
UnityEngine.ImageConversion:LoadImage(Texture2D, Byte[])
 
(Filename: C:/buildslave/unity/build\Runtime/Export/Debug.bindings.h Line: 43)

Count = 44
System.Diagnostics.StackTrace:.ctor(Int32, Boolean)
